%!PS-Adobe-2.0 EPSF-2.0
%%BoundingBox:  0 0 567 384
%%Title: plots/pixels/barrel/clustersperchip_extended.eps: c1
%%Creator: ROOT Version 5.34/36
%%CreationDate: Mon Apr 10 13:14:49 2017
%%EndComments
%%BeginProlog
80 dict begin
/s {stroke} def /l {lineto} def /m {moveto} def /t {translate} def
/r {rotate} def /rl {roll}  def /R {repeat} def
/d {rlineto} def /rm {rmoveto} def /gr {grestore} def /f {eofill} def
/c {setrgbcolor} def /black {0 setgray} def /sd {setdash} def
/cl {closepath} def /sf {scalefont setfont} def /lw {setlinewidth} def
/box {m dup 0 exch d exch 0 d 0 exch neg d cl} def
/NC{systemdict begin initclip end}def/C{NC box clip newpath}def
/bl {box s} def /bf {gsave box gsave f grestore 1 lw [] 0 sd s grestore} def /Y { 0 exch d} def /X { 0 d} def 
/K {{pop pop 0 moveto} exch kshow} bind def
/ita {/ang 15 def gsave [1 0 ang dup sin exch cos div 1 0 0] concat} def 
/mp {newpath /y exch def /x exch def} def
/side {[w .77 mul w .23 mul] .385 w mul sd w 0 l currentpoint t -144 r} def
/mr {mp x y w2 0 360 arc} def /m24 {mr s} def /m20 {mr f} def
/mb {mp x y w2 add m w2 neg 0 d 0 w neg d w 0 d 0 w d cl} def
/mt {mp x y w2 add m w2 neg w neg d w 0 d cl} def
/m21 {mb f} def /m25 {mb s} def /m22 {mt f} def /m26{mt s} def
/m23 {mp x y w2 sub m w2 w d w neg 0 d cl f} def
/m27 {mp x y w2 add m w3 neg w2 neg d w3 w2 neg d w3 w2 d cl s} def
/m28 {mp x w2 sub y w2 sub w3 add m w3 0 d  0 w3 neg d w3 0 d 0 w3 d w3 0 d  0 w3 d w3 neg 0 d 0 w3 d w3 neg 0 d 0 w3 neg d w3 neg 0 d cl s } def
/m29 {mp gsave x w2 sub y w2 add w3 sub m currentpoint t 4 {side} repeat cl fill gr} def
/m30 {mp gsave x w2 sub y w2 add w3 sub m currentpoint t 4 {side} repeat cl s gr} def
/m31 {mp x y w2 sub m 0 w d x w2 sub y m w 0 d x w2 sub y w2 add m w w neg d x w2 sub y w2 sub m w w d s} def
/m32 {mp x y w2 sub m w2 w d w neg 0 d cl s} def
/m33 {mp x y w2 add m w3 neg w2 neg d w3 w2 neg d w3 w2 d cl f} def
/m34 {mp x w2 sub y w2 sub w3 add m w3 0 d  0 w3 neg d w3 0 d 0 w3 d w3 0 d  0 w3 d w3 neg 0 d 0 w3 d w3 neg 0 d 0 w3 neg d w3 neg 0 d cl f } def
/m2 {mp x y w2 sub m 0 w d x w2 sub y m w 0 d s} def
/m5 {mp x w2 sub y w2 sub m w w d x w2 sub y w2 add m w w neg d s} def
/reEncode {exch findfont dup length dict begin {1 index /FID eq  {pop pop} {def} ifelse } forall /Encoding exch def currentdict end dup /FontName get exch definefont pop } def [/Times-Bold /Times-Italic /Times-BoldItalic /Helvetica /Helvetica-Oblique
 /Helvetica-Bold /Helvetica-BoldOblique /Courier /Courier-Oblique /Courier-Bold /Courier-BoldOblique /Times-Roman /AvantGarde-Book /AvantGarde-BookOblique /AvantGarde-Demi /AvantGarde-DemiOblique /Bookman-Demi /Bookman-DemiItalic /Bookman-Light
 /Bookman-LightItalic /Helvetica-Narrow /Helvetica-Narrow-Bold /Helvetica-Narrow-BoldOblique /Helvetica-Narrow-Oblique /NewCenturySchlbk-Roman /NewCenturySchlbk-Bold /NewCenturySchlbk-BoldItalic /NewCenturySchlbk-Italic /Palatino-Bold
 /Palatino-BoldItalic /Palatino-Italic /Palatino-Roman ] {ISOLatin1Encoding reEncode } forall
%%EndProlog
%%BeginSetup
%%EndSetup
newpath  gsave  .25 .25 scale  gsave  0 0 t black[  ] 0 sd 3 lw 1 1 1 c 2268 1538 0 0 bf black 1 1 1 c 1791 1215 363 246 bf black 1791 1215 363 246 bl 1 1 1 c 1791 1215 363 246 bf black 1791 1215 363 246 bl 12 lw 1 1 1 c black 363 246 m 22 X 4 Y 22 X
 10 Y 22 X 19 Y 22 X 34 Y 22 X 50 Y 23 X 43 Y 22 X 54 Y 22 X 42 Y 22 X 38 Y 22 X 23 Y 22 X 11 Y 22 X -11 Y 22 X -19 Y 22 X -18 Y 23 X -30 Y 22 X -34 Y 22 X -29 Y 22 X -27 Y 22 X -20 Y 22 X -27 Y 22 X -13 Y 22 X -18 Y 23 X -14 Y 22 X -11 Y 22 X -7 Y
 22 X -6 Y 22 X -3 Y 22 X -5 Y 22 X -5 Y 22 X -1 Y 22 X -3 Y 23 X -1 Y 22 X -3 Y 22 X -2 Y 22 X -1 Y 22 X -1 Y 22 X -1 Y 22 X -3 Y 22 X -1 Y 23 X -1 Y 22 X -2 Y 22 X -2 Y 22 X -1 Y 22 X -1 Y 22 X -1 Y 22 X -1 Y 22 X -1 Y 45 X -1 Y 22 X -1 Y 44 X -1 Y
 133 X -1 Y 508 X s 3 lw 363 246 m 1791 X s
 gsave  2268 1538 0 0 C 1616.07 114.037 t 0 r /Helvetica findfont 71.6807 sf 0 0 m (Clusters per chip) show NC gr  374 283 m -37 Y s 418 264 m -18 Y s 462 264 m -18 Y s 507 264 m -18 Y s 551 264 m -18 Y s 595 283 m -37 Y s 639 264 m -18 Y s 684 264 m
 -18 Y s 728 264 m -18 Y s 772 264 m -18 Y s 816 283 m -37 Y s 860 264 m -18 Y s 905 264 m -18 Y s 949 264 m -18 Y s 993 264 m -18 Y s 1037 283 m -37 Y s 1082 264 m -18 Y s 1126 264 m -18 Y s 1170 264 m -18 Y s 1214 264 m -18 Y s 1259 283 m -37 Y s
 1303 264 m -18 Y s 1347 264 m -18 Y s 1391 264 m -18 Y s 1436 264 m -18 Y s 1480 283 m -37 Y s 1524 264 m -18 Y s 1568 264 m -18 Y s 1612 264 m -18 Y s 1657 264 m -18 Y s 1701 283 m -37 Y s 1745 264 m -18 Y s 1789 264 m -18 Y s 1834 264 m -18 Y s
 1878 264 m -18 Y s 1922 283 m -37 Y s 1966 264 m -18 Y s 2011 264 m -18 Y s 2055 264 m -18 Y s 2099 264 m -18 Y s 2143 283 m -37 Y s 374 283 m -37 Y s 2143 283 m -37 Y s
 gsave  2268 1538 0 0 C 351.887 179.202 t 0 r /Helvetica findfont 71.6807 sf 0 0 m (0) show NC gr 
 gsave  2268 1538 0 0 C 553.896 179.202 t 0 r /Helvetica findfont 71.6807 sf 0 0 m (10) show NC gr 
 gsave  2268 1538 0 0 C 775.455 179.202 t 0 r /Helvetica findfont 71.6807 sf 0 0 m (20) show NC gr 
 gsave  2268 1538 0 0 C 997.013 179.202 t 0 r /Helvetica findfont 71.6807 sf 0 0 m (30) show NC gr 
 gsave  2268 1538 0 0 C 1218.57 179.202 t 0 r /Helvetica findfont 71.6807 sf 0 0 m (40) show NC gr 
 gsave  2268 1538 0 0 C 1440.13 179.202 t 0 r /Helvetica findfont 71.6807 sf 0 0 m (50) show NC gr 
 gsave  2268 1538 0 0 C 1661.69 179.202 t 0 r /Helvetica findfont 71.6807 sf 0 0 m (60) show NC gr 
 gsave  2268 1538 0 0 C 1879.99 179.202 t 0 r /Helvetica findfont 71.6807 sf 0 0 m (70) show NC gr 
 gsave  2268 1538 0 0 C 2101.55 179.202 t 0 r /Helvetica findfont 71.6807 sf 0 0 m (80) show NC gr  363 1461 m 1791 X s 374 1425 m 36 Y s 418 1443 m 18 Y s 462 1443 m 18 Y s 507 1443 m 18 Y s 551 1443 m 18 Y s 595 1425 m 36 Y s 639 1443 m 18 Y s 684
 1443 m 18 Y s 728 1443 m 18 Y s 772 1443 m 18 Y s 816 1425 m 36 Y s 860 1443 m 18 Y s 905 1443 m 18 Y s 949 1443 m 18 Y s 993 1443 m 18 Y s 1037 1425 m 36 Y s 1082 1443 m 18 Y s 1126 1443 m 18 Y s 1170 1443 m 18 Y s 1214 1443 m 18 Y s 1259 1425 m 36
 Y s 1303 1443 m 18 Y s 1347 1443 m 18 Y s 1391 1443 m 18 Y s 1436 1443 m 18 Y s 1480 1425 m 36 Y s 1524 1443 m 18 Y s 1568 1443 m 18 Y s 1612 1443 m 18 Y s 1657 1443 m 18 Y s 1701 1425 m 36 Y s 1745 1443 m 18 Y s 1789 1443 m 18 Y s 1834 1443 m 18 Y
 s 1878 1443 m 18 Y s 1922 1425 m 36 Y s 1966 1443 m 18 Y s 2011 1443 m 18 Y s 2055 1443 m 18 Y s 2099 1443 m 18 Y s 2143 1425 m 36 Y s 374 1425 m 36 Y s 2143 1425 m 36 Y s 363 246 m 1215 Y s
 gsave  2268 1538 0 0 C 133.587 860.168 t 90 r /Helvetica findfont 71.6807 sf 0 0 m (Normalised Entries) show NC gr  417 474 m -54 X s 390 520 m -27 X s 390 566 m -27 X s 390 611 m -27 X s 390 657 m -27 X s 417 703 m -54 X s 390 748 m -27 X s 390 794
 m -27 X s 390 840 m -27 X s 390 885 m -27 X s 417 931 m -54 X s 390 977 m -27 X s 390 1023 m -27 X s 390 1068 m -27 X s 390 1114 m -27 X s 417 1160 m -54 X s 390 1205 m -27 X s 390 1251 m -27 X s 390 1297 m -27 X s 390 1342 m -27 X s 417 1388 m -54
 X s 417 474 m -54 X s 390 429 m -27 X s 390 383 m -27 X s 390 337 m -27 X s 390 292 m -27 X s 417 1388 m -54 X s 390 1434 m -27 X s
 gsave  2268 1538 0 0 C 211.784 449.633 t 0 r /Helvetica findfont 71.6807 sf 0 0 m (0.05) show NC gr 
 gsave  2268 1538 0 0 C 263.915 677.708 t 0 r /Helvetica findfont 71.6807 sf 0 0 m (0.1) show NC gr 
 gsave  2268 1538 0 0 C 211.784 905.783 t 0 r /Helvetica findfont 71.6807 sf 0 0 m (0.15) show NC gr 
 gsave  2268 1538 0 0 C 250.882 1133.86 t 0 r /Helvetica findfont 71.6807 sf 0 0 m (0.2) show NC gr 
 gsave  2268 1538 0 0 C 211.784 1361.93 t 0 r /Helvetica findfont 71.6807 sf 0 0 m (0.25) show NC gr  2154 246 m 1215 Y s 2101 474 m 53 X s 2127 520 m 27 X s 2127 566 m 27 X s 2127 611 m 27 X s 2127 657 m 27 X s 2101 703 m 53 X s 2127 748 m 27 X s
 2127 794 m 27 X s 2127 840 m 27 X s 2127 885 m 27 X s 2101 931 m 53 X s 2127 977 m 27 X s 2127 1023 m 27 X s 2127 1068 m 27 X s 2127 1114 m 27 X s 2101 1160 m 53 X s 2127 1205 m 27 X s 2127 1251 m 27 X s 2127 1297 m 27 X s 2127 1342 m 27 X s 2101
 1388 m 53 X s 2101 474 m 53 X s 2127 429 m 27 X s 2127 383 m 27 X s 2127 337 m 27 X s 2127 292 m 27 X s 2101 1388 m 53 X s 2127 1434 m 27 X s 1 0 0 c 12 lw 1 1 1 c black 1 0 0 c 385 246 m 118 Y 22 X 117 Y 22 X 94 Y 22 X 60 Y 22 X 17 Y 23 X -21 Y 22
 X -29 Y 22 X -35 Y 22 X -37 Y 22 X -29 Y 22 X -30 Y 22 X -31 Y 22 X -28 Y 22 X -22 Y 23 X -22 Y 22 X -22 Y 22 X -17 Y 22 X -15 Y 22 X -11 Y 22 X -12 Y 22 X -7 Y 22 X -7 Y 23 X -6 Y 22 X -4 Y 22 X -3 Y 22 X -2 Y 22 X -2 Y 22 X -2 Y 22 X -1 Y 22 X -1
 Y 22 X -1 Y 45 X -1 Y 22 X -1 Y 44 X -1 Y 44 X -1 Y 45 X -1 Y 44 X -1 Y 44 X -1 Y 66 X -1 Y 111 X -1 Y 641 X s 0 1 0 c 1 1 1 c black 0 1 0 c 385 246 m 446 Y 22 X 144 Y 22 X -4 Y 22 X -74 Y 22 X -95 Y 23 X -87 Y 22 X -65 Y 22 X -49 Y 22 X -35 Y 22 X
 -25 Y 22 X -22 Y 22 X -20 Y 22 X -17 Y 22 X -13 Y 23 X -13 Y 22 X -13 Y 22 X -10 Y 22 X -9 Y 22 X -6 Y 22 X -7 Y 22 X -4 Y 22 X -4 Y 23 X -4 Y 22 X -2 Y 22 X -2 Y 22 X -1 Y 22 X -1 Y 22 X -1 Y 22 X -1 Y 44 X -1 Y 67 X -1 Y 66 X -1 Y 67 X -1 Y 88 X
 -1 Y 133 X -1 Y 685 X s 0 0 1 c 1 1 1 c black 0 0 1 c 385 246 m 816 Y 22 X 23 Y 22 X -169 Y 22 X -180 Y 22 X -140 Y 23 X -96 Y 22 X -62 Y 22 X -40 Y 22 X -28 Y 22 X -19 Y 22 X -15 Y 22 X -14 Y 22 X -11 Y 22 X -10 Y 23 X -8 Y 22 X -9 Y 22 X -6 Y 22 X
 -6 Y 22 X -4 Y 22 X -5 Y 22 X -2 Y 22 X -3 Y 23 X -2 Y 22 X -2 Y 22 X -1 Y 22 X -1 Y 22 X -1 Y 44 X -1 Y 67 X -1 Y 88 X -1 Y 111 X -1 Y 154 X -1 Y 730 X s 1 0 1 c 1 1 1 c black 1 0 1 c 385 246 m 1157 Y 22 X -188 Y 22 X -308 Y 22 X -228 Y 22 X -145 Y
 23 X -87 Y 22 X -53 Y 22 X -33 Y 22 X -22 Y 22 X -15 Y 22 X -11 Y 22 X -11 Y 22 X -8 Y 22 X -7 Y 23 X -7 Y 22 X -6 Y 22 X -5 Y 22 X -4 Y 22 X -3 Y 22 X -3 Y 22 X -2 Y 22 X -2 Y 23 X -2 Y 22 X -1 Y 22 X -1 Y 22 X -1 Y 44 X -1 Y 89 X -1 Y 132 X -1 Y
 177 X -1 Y 774 X s black
 gsave  2268 1538 0 0 C 905.783 1309.8 t 0 r /Helvetica-BoldOblique findfont 71.6807 sf 0 0 m (ATLAS) show NC gr 
 gsave  2268 1538 0 0 C 1176.22 1309.8 t 0 r /Helvetica findfont 71.6807 sf 0 0 m (Simulation Internal) show NC gr 
 gsave  2268 1538 0 0 C 905.783 1231.6 t 0 r /Helvetica findfont 71.6807 sf 0 0 m (ITk Extended) show NC gr 
 gsave  2268 1538 0 0 C 1065.44 1153.41 t 0 r /Helvetica findfont 71.6807 sf 0 0 m (> = 200) show NC gr 
 gsave  2268 1538 0 0 C 1023.08 1153.41 t 0 r /Symbol findfont 71.6807 sf 0 0 m (m) show NC gr 
 gsave  2268 1538 0 0 C 944.882 1153.41 t 0 r /Helvetica findfont 71.6807 sf 0 0 m (, <) show NC gr 
 gsave  2268 1538 0 0 C 925.333 1153.41 t 0 r /Helvetica findfont 71.6807 sf 0 0 m (t) show NC gr  6 lw 925 1209 m 20 X s
 gsave  2268 1538 0 0 C 905.783 1153.41 t 0 r /Helvetica findfont 71.6807 sf 0 0 m (t) show NC gr  1 1 1 c 3 lw 340 308 1542 738 bf black
 gsave  2268 1538 0 0 C 1625.85 1003.53 t 0 r /Helvetica-Bold findfont 71.6807 sf 0 0 m (Layer 0) show NC gr  12 lw 1555 1015 m 59 X s
 gsave  2268 1538 0 0 C 1625.85 941.624 t 0 r /Helvetica-Bold findfont 71.6807 sf 0 0 m (Layer 1) show NC gr  1 0 0 c 1555 953 m 59 X s black
 gsave  2268 1538 0 0 C 1625.85 879.718 t 0 r /Helvetica-Bold findfont 71.6807 sf 0 0 m (Layer 2) show NC gr  0 1 0 c 1555 892 m 59 X s black
 gsave  2268 1538 0 0 C 1625.85 817.812 t 0 r /Helvetica-Bold findfont 71.6807 sf 0 0 m (Layer 3) show NC gr  0 0 1 c 1555 830 m 59 X s black
 gsave  2268 1538 0 0 C 1625.85 755.906 t 0 r /Helvetica-Bold findfont 71.6807 sf 0 0 m (Layer 4) show NC gr  1 0 1 c 1555 769 m 59 X s
 gr  gr showpage
end
%%EOF
