%!PS-Adobe-2.0 EPSF-2.0
%%BoundingBox:  0 0 567 384
%%Title: plots/pixels/barrel/clusterspersensor_extended.eps: c1
%%Creator: ROOT Version 5.34/36
%%CreationDate: Mon Apr 10 13:14:50 2017
%%EndComments
%%BeginProlog
80 dict begin
/s {stroke} def /l {lineto} def /m {moveto} def /t {translate} def
/r {rotate} def /rl {roll}  def /R {repeat} def
/d {rlineto} def /rm {rmoveto} def /gr {grestore} def /f {eofill} def
/c {setrgbcolor} def /black {0 setgray} def /sd {setdash} def
/cl {closepath} def /sf {scalefont setfont} def /lw {setlinewidth} def
/box {m dup 0 exch d exch 0 d 0 exch neg d cl} def
/NC{systemdict begin initclip end}def/C{NC box clip newpath}def
/bl {box s} def /bf {gsave box gsave f grestore 1 lw [] 0 sd s grestore} def /Y { 0 exch d} def /X { 0 d} def 
/K {{pop pop 0 moveto} exch kshow} bind def
/ita {/ang 15 def gsave [1 0 ang dup sin exch cos div 1 0 0] concat} def 
/mp {newpath /y exch def /x exch def} def
/side {[w .77 mul w .23 mul] .385 w mul sd w 0 l currentpoint t -144 r} def
/mr {mp x y w2 0 360 arc} def /m24 {mr s} def /m20 {mr f} def
/mb {mp x y w2 add m w2 neg 0 d 0 w neg d w 0 d 0 w d cl} def
/mt {mp x y w2 add m w2 neg w neg d w 0 d cl} def
/m21 {mb f} def /m25 {mb s} def /m22 {mt f} def /m26{mt s} def
/m23 {mp x y w2 sub m w2 w d w neg 0 d cl f} def
/m27 {mp x y w2 add m w3 neg w2 neg d w3 w2 neg d w3 w2 d cl s} def
/m28 {mp x w2 sub y w2 sub w3 add m w3 0 d  0 w3 neg d w3 0 d 0 w3 d w3 0 d  0 w3 d w3 neg 0 d 0 w3 d w3 neg 0 d 0 w3 neg d w3 neg 0 d cl s } def
/m29 {mp gsave x w2 sub y w2 add w3 sub m currentpoint t 4 {side} repeat cl fill gr} def
/m30 {mp gsave x w2 sub y w2 add w3 sub m currentpoint t 4 {side} repeat cl s gr} def
/m31 {mp x y w2 sub m 0 w d x w2 sub y m w 0 d x w2 sub y w2 add m w w neg d x w2 sub y w2 sub m w w d s} def
/m32 {mp x y w2 sub m w2 w d w neg 0 d cl s} def
/m33 {mp x y w2 add m w3 neg w2 neg d w3 w2 neg d w3 w2 d cl f} def
/m34 {mp x w2 sub y w2 sub w3 add m w3 0 d  0 w3 neg d w3 0 d 0 w3 d w3 0 d  0 w3 d w3 neg 0 d 0 w3 d w3 neg 0 d 0 w3 neg d w3 neg 0 d cl f } def
/m2 {mp x y w2 sub m 0 w d x w2 sub y m w 0 d s} def
/m5 {mp x w2 sub y w2 sub m w w d x w2 sub y w2 add m w w neg d s} def
/reEncode {exch findfont dup length dict begin {1 index /FID eq  {pop pop} {def} ifelse } forall /Encoding exch def currentdict end dup /FontName get exch definefont pop } def [/Times-Bold /Times-Italic /Times-BoldItalic /Helvetica /Helvetica-Oblique
 /Helvetica-Bold /Helvetica-BoldOblique /Courier /Courier-Oblique /Courier-Bold /Courier-BoldOblique /Times-Roman /AvantGarde-Book /AvantGarde-BookOblique /AvantGarde-Demi /AvantGarde-DemiOblique /Bookman-Demi /Bookman-DemiItalic /Bookman-Light
 /Bookman-LightItalic /Helvetica-Narrow /Helvetica-Narrow-Bold /Helvetica-Narrow-BoldOblique /Helvetica-Narrow-Oblique /NewCenturySchlbk-Roman /NewCenturySchlbk-Bold /NewCenturySchlbk-BoldItalic /NewCenturySchlbk-Italic /Palatino-Bold
 /Palatino-BoldItalic /Palatino-Italic /Palatino-Roman ] {ISOLatin1Encoding reEncode } forall
%%EndProlog
%%BeginSetup
%%EndSetup
newpath  gsave  .25 .25 scale  gsave  0 0 t black[  ] 0 sd 3 lw 1 1 1 c 2268 1538 0 0 bf black 1 1 1 c 1791 1215 363 246 bf black 1791 1215 363 246 bl 1 1 1 c 1791 1215 363 246 bf black 1791 1215 363 246 bl 12 lw 1 1 1 c black 363 246 m 59 X 1 Y 15 X
 4 Y 15 X 2 Y 14 X 13 Y 15 X 13 Y 15 X 25 Y 15 X 35 Y 15 X 46 Y 15 X 37 Y 14 X 60 Y 15 X 54 Y 15 X 68 Y 15 X 72 Y 15 X 56 Y 14 X 50 Y 15 X 69 Y 15 X 29 Y 15 X 30 Y 15 X 14 Y 14 X 28 Y 15 X -16 Y 15 X -13 Y 15 X -23 Y 15 X -46 Y 14 X -31 Y 15 X -41 Y
 15 X -31 Y 15 X -58 Y 15 X -25 Y 14 X -41 Y 15 X -39 Y 15 X -37 Y 15 X -34 Y 15 X -31 Y 14 X -21 Y 15 X -36 Y 15 X -14 Y 15 X -9 Y 15 X -28 Y 14 X -9 Y 15 X -21 Y 15 X 5 Y 15 X -19 Y 15 X -7 Y 15 X -11 Y 14 X 1 Y 15 X -7 Y 15 X -3 Y 30 X -2 Y 14 X
 -6 Y 15 X -4 Y 15 X 5 Y 15 X -5 Y 15 X 1 Y 14 X -5 Y 15 X 2 Y 30 X 3 Y 15 X -7 Y 14 X 1 Y 60 X -2 Y 14 X -3 Y 15 X -2 Y 15 X -2 Y 15 X 4 Y 15 X -9 Y 14 X -2 Y 45 X -1 Y 15 X -1 Y 14 X -6 Y 30 X -2 Y 30 X -4 Y 29 X -1 Y 30 X -3 Y 30 X -2 Y 14 X -1 Y
 30 X 1 Y 15 X -2 Y 15 X -2 Y 14 X -1 Y 15 X 2 Y 30 X -2 Y 29 X -1 Y 45 X -1 Y 103 X -1 Y 163 X s 3 lw 363 246 m 1791 X s
 gsave  2268 1538 0 0 C 1531.36 114.037 t 0 r /Helvetica findfont 71.6807 sf 0 0 m (Clusters per sensor) show NC gr  370 283 m -37 Y s 444 264 m -18 Y s 518 264 m -18 Y s 592 264 m -18 Y s 666 283 m -37 Y s 740 264 m -18 Y s 814 264 m -18 Y s 888 264
 m -18 Y s 962 283 m -37 Y s 1036 264 m -18 Y s 1111 264 m -18 Y s 1185 264 m -18 Y s 1259 283 m -37 Y s 1333 264 m -18 Y s 1407 264 m -18 Y s 1481 264 m -18 Y s 1555 283 m -37 Y s 1629 264 m -18 Y s 1703 264 m -18 Y s 1777 264 m -18 Y s 1851 283 m
 -37 Y s 1925 264 m -18 Y s 1999 264 m -18 Y s 2073 264 m -18 Y s 2147 283 m -37 Y s 370 283 m -37 Y s 2147 283 m -37 Y s
 gsave  2268 1538 0 0 C 348.629 179.202 t 0 r /Helvetica findfont 71.6807 sf 0 0 m (0) show NC gr 
 gsave  2268 1538 0 0 C 625.577 179.202 t 0 r /Helvetica findfont 71.6807 sf 0 0 m (20) show NC gr 
 gsave  2268 1538 0 0 C 922.074 179.202 t 0 r /Helvetica findfont 71.6807 sf 0 0 m (40) show NC gr 
 gsave  2268 1538 0 0 C 1218.57 179.202 t 0 r /Helvetica findfont 71.6807 sf 0 0 m (60) show NC gr 
 gsave  2268 1538 0 0 C 1515.07 179.202 t 0 r /Helvetica findfont 71.6807 sf 0 0 m (80) show NC gr 
 gsave  2268 1538 0 0 C 1792.02 179.202 t 0 r /Helvetica findfont 71.6807 sf 0 0 m (100) show NC gr 
 gsave  2268 1538 0 0 C 2085.26 179.202 t 0 r /Helvetica findfont 71.6807 sf 0 0 m (120) show NC gr  363 1461 m 1791 X s 370 1425 m 36 Y s 444 1443 m 18 Y s 518 1443 m 18 Y s 592 1443 m 18 Y s 666 1425 m 36 Y s 740 1443 m 18 Y s 814 1443 m 18 Y s 888
 1443 m 18 Y s 962 1425 m 36 Y s 1036 1443 m 18 Y s 1111 1443 m 18 Y s 1185 1443 m 18 Y s 1259 1425 m 36 Y s 1333 1443 m 18 Y s 1407 1443 m 18 Y s 1481 1443 m 18 Y s 1555 1425 m 36 Y s 1629 1443 m 18 Y s 1703 1443 m 18 Y s 1777 1443 m 18 Y s 1851
 1425 m 36 Y s 1925 1443 m 18 Y s 1999 1443 m 18 Y s 2073 1443 m 18 Y s 2147 1425 m 36 Y s 370 1425 m 36 Y s 2147 1425 m 36 Y s 363 246 m 1215 Y s
 gsave  2268 1538 0 0 C 133.587 860.168 t 90 r /Helvetica findfont 71.6807 sf 0 0 m (Normalised Entries) show NC gr  417 404 m -54 X s 390 436 m -27 X s 390 467 m -27 X s 390 499 m -27 X s 390 531 m -27 X s 417 562 m -54 X s 390 594 m -27 X s 390 625
 m -27 X s 390 657 m -27 X s 390 689 m -27 X s 417 720 m -54 X s 390 752 m -27 X s 390 784 m -27 X s 390 815 m -27 X s 390 847 m -27 X s 417 879 m -54 X s 390 910 m -27 X s 390 942 m -27 X s 390 973 m -27 X s 390 1005 m -27 X s 417 1037 m -54 X s 390
 1068 m -27 X s 390 1100 m -27 X s 390 1132 m -27 X s 390 1163 m -27 X s 417 1195 m -54 X s 390 1226 m -27 X s 390 1258 m -27 X s 390 1290 m -27 X s 390 1321 m -27 X s 417 1353 m -54 X s 417 404 m -54 X s 390 372 m -27 X s 390 341 m -27 X s 390 309 m
 -27 X s 390 278 m -27 X s 417 1353 m -54 X s 390 1385 m -27 X s 390 1416 m -27 X s 390 1448 m -27 X s
 gsave  2268 1538 0 0 C 221.559 381.211 t 0 r /Helvetica findfont 71.6807 sf 0 0 m (0.01) show NC gr 
 gsave  2268 1538 0 0 C 211.784 537.605 t 0 r /Helvetica findfont 71.6807 sf 0 0 m (0.02) show NC gr 
 gsave  2268 1538 0 0 C 211.784 697.258 t 0 r /Helvetica findfont 71.6807 sf 0 0 m (0.03) show NC gr 
 gsave  2268 1538 0 0 C 208.526 853.652 t 0 r /Helvetica findfont 71.6807 sf 0 0 m (0.04) show NC gr 
 gsave  2268 1538 0 0 C 211.784 1013.3 t 0 r /Helvetica findfont 71.6807 sf 0 0 m (0.05) show NC gr 
 gsave  2268 1538 0 0 C 211.784 1169.7 t 0 r /Helvetica findfont 71.6807 sf 0 0 m (0.06) show NC gr 
 gsave  2268 1538 0 0 C 208.526 1329.35 t 0 r /Helvetica findfont 71.6807 sf 0 0 m (0.07) show NC gr  2154 246 m 1215 Y s 2101 404 m 53 X s 2127 436 m 27 X s 2127 467 m 27 X s 2127 499 m 27 X s 2127 531 m 27 X s 2101 562 m 53 X s 2127 594 m 27 X s
 2127 625 m 27 X s 2127 657 m 27 X s 2127 689 m 27 X s 2101 720 m 53 X s 2127 752 m 27 X s 2127 784 m 27 X s 2127 815 m 27 X s 2127 847 m 27 X s 2101 879 m 53 X s 2127 910 m 27 X s 2127 942 m 27 X s 2127 973 m 27 X s 2127 1005 m 27 X s 2101 1037 m 53
 X s 2127 1068 m 27 X s 2127 1100 m 27 X s 2127 1132 m 27 X s 2127 1163 m 27 X s 2101 1195 m 53 X s 2127 1226 m 27 X s 2127 1258 m 27 X s 2127 1290 m 27 X s 2127 1321 m 27 X s 2101 1353 m 53 X s 2101 404 m 53 X s 2127 372 m 27 X s 2127 341 m 27 X s
 2127 309 m 27 X s 2127 278 m 27 X s 2101 1353 m 53 X s 2127 1385 m 27 X s 2127 1416 m 27 X s 2127 1448 m 27 X s 1 0 0 c 12 lw 1 1 1 c black 1 0 0 c 378 246 m 44 X 2 Y 15 X 5 Y 15 X 6 Y 14 X 17 Y 15 X 18 Y 15 X 30 Y 15 X 47 Y 15 X 48 Y 15 X 59 Y 14 X
 65 Y 15 X 71 Y 15 X 73 Y 15 X 71 Y 15 X 50 Y 14 X 52 Y 15 X 62 Y 15 X 2 Y 15 X 18 Y 15 X 2 Y 14 X 12 Y 15 X -32 Y 15 X -20 Y 15 X -42 Y 15 X -37 Y 14 X -42 Y 15 X -38 Y 15 X -47 Y 15 X -42 Y 15 X -28 Y 14 X -40 Y 15 X -39 Y 15 X -21 Y 15 X -36 Y 15
 X -25 Y 14 X -19 Y 15 X -27 Y 15 X -12 Y 15 X -10 Y 15 X -16 Y 14 X -12 Y 15 X -15 Y 15 X -4 Y 15 X -8 Y 15 X -10 Y 15 X -12 Y 14 X 5 Y 15 X -12 Y 15 X -3 Y 30 X -7 Y 14 X -4 Y 15 X -6 Y 15 X 3 Y 15 X -4 Y 15 X -3 Y 14 X -6 Y 30 X -2 Y 30 X -4 Y 14
 X -2 Y 15 X -2 Y 15 X -1 Y 30 X -2 Y 14 X -3 Y 15 X -1 Y 15 X -1 Y 15 X 1 Y 15 X -5 Y 14 X -2 Y 15 X 1 Y 15 X -1 Y 15 X -1 Y 29 X -3 Y 30 X -2 Y 30 X -1 Y 15 X -1 Y 29 X -1 Y 15 X -1 Y 30 X -1 Y 59 X -1 Y 15 X -1 Y 88 X -1 Y 45 X -1 Y 15 X 1 Y 14 X
 -1 Y 237 X s 0 1 0 c 1 1 1 c black 0 1 0 c 378 246 m 6 Y 14 X 17 Y 15 X 45 Y 15 X 61 Y 15 X 83 Y 15 X 95 Y 14 X 94 Y 15 X 83 Y 15 X 62 Y 15 X 43 Y 15 X 16 Y 15 X 10 Y 14 X -5 Y 15 X 6 Y 15 X -22 Y 15 X -1 Y 15 X -22 Y 14 X -12 Y 15 X 9 Y 15 X -32 Y
 15 X -16 Y 15 X -19 Y 14 X -10 Y 15 X -32 Y 15 X -21 Y 15 X -34 Y 15 X -28 Y 14 X -31 Y 15 X -27 Y 15 X -30 Y 15 X -28 Y 15 X -18 Y 14 X -26 Y 15 X -24 Y 15 X -15 Y 15 X -22 Y 15 X -16 Y 14 X -12 Y 15 X -17 Y 15 X -8 Y 15 X -6 Y 15 X -11 Y 14 X -7 Y
 15 X -9 Y 15 X -3 Y 15 X -5 Y 15 X -6 Y 15 X -7 Y 14 X 3 Y 15 X -8 Y 15 X -2 Y 15 X 1 Y 15 X -5 Y 14 X -2 Y 15 X -4 Y 15 X 1 Y 15 X -2 Y 15 X -2 Y 14 X -4 Y 15 X 1 Y 15 X -2 Y 30 X -2 Y 14 X -1 Y 15 X -2 Y 15 X -1 Y 15 X 1 Y 15 X -2 Y 14 X -2 Y 30 X
 -1 Y 30 X -3 Y 44 X -1 Y 44 X -2 Y 30 X -1 Y 30 X -1 Y 15 X -1 Y 44 X -1 Y 44 X -1 Y 30 X 1 Y 15 X -1 Y 15 X -1 Y 118 X -1 Y 281 X s 0 0 1 c 1 1 1 c black 0 0 1 c 378 246 m 57 Y 14 X 101 Y 15 X 160 Y 15 X 190 Y 15 X 174 Y 15 X 126 Y 14 X 83 Y 15 X 9
 Y 15 X -44 Y 15 X -58 Y 15 X -79 Y 15 X -59 Y 14 X -76 Y 15 X -47 Y 15 X -53 Y 15 X -24 Y 15 X -35 Y 14 X -21 Y 15 X -5 Y 15 X -28 Y 15 X -16 Y 15 X -15 Y 14 X -8 Y 15 X -24 Y 15 X -15 Y 15 X -24 Y 15 X -19 Y 14 X -20 Y 15 X -19 Y 15 X -20 Y 15 X
 -18 Y 15 X -13 Y 14 X -17 Y 15 X -16 Y 15 X -10 Y 15 X -15 Y 15 X -10 Y 14 X -8 Y 15 X -11 Y 15 X -5 Y 15 X -5 Y 15 X -6 Y 14 X -5 Y 15 X -7 Y 15 X -1 Y 15 X -4 Y 15 X -4 Y 15 X -4 Y 14 X 2 Y 15 X -5 Y 15 X -2 Y 15 X 1 Y 15 X -4 Y 14 X -1 Y 15 X -3
 Y 15 X 1 Y 15 X -1 Y 15 X -2 Y 14 X -2 Y 30 X -1 Y 30 X -1 Y 14 X -1 Y 15 X -1 Y 15 X -1 Y 15 X 1 Y 15 X -1 Y 14 X -1 Y 15 X -1 Y 45 X -2 Y 14 X -1 Y 74 X -2 Y 60 X -1 Y 59 X -1 Y 44 X -1 Y 30 X 1 Y 15 X -1 Y 103 X -1 Y 311 X s 1 0 1 c 1 1 1 c black
 1 0 1 c 378 246 m 217 Y 14 X 273 Y 15 X 302 Y 15 X 237 Y 15 X 120 Y 15 X 8 Y 14 X -59 Y 15 X -118 Y 15 X -127 Y 15 X -119 Y 15 X -111 Y 15 X -81 Y 14 X -79 Y 15 X -50 Y 15 X -48 Y 15 X -23 Y 15 X -31 Y 14 X -17 Y 15 X -6 Y 15 X -21 Y 15 X -13 Y 15 X
 -12 Y 14 X -6 Y 15 X -17 Y 15 X -10 Y 15 X -18 Y 15 X -13 Y 14 X -15 Y 15 X -13 Y 15 X -15 Y 15 X -13 Y 15 X -8 Y 14 X -13 Y 15 X -11 Y 15 X -7 Y 15 X -10 Y 15 X -8 Y 14 X -6 Y 15 X -8 Y 15 X -3 Y 15 X -3 Y 15 X -5 Y 14 X -3 Y 15 X -5 Y 15 X -1 Y 15
 X -2 Y 15 X -3 Y 15 X -4 Y 14 X 2 Y 15 X -4 Y 15 X -1 Y 30 X -2 Y 14 X -1 Y 15 X -2 Y 15 X 1 Y 15 X -1 Y 15 X -1 Y 14 X -2 Y 60 X -1 Y 14 X -1 Y 30 X -1 Y 30 X -1 Y 29 X -1 Y 45 X -1 Y 14 X -1 Y 15 X 1 Y 15 X -1 Y 44 X -1 Y 60 X -1 Y 59 X -1 Y 15 X
 1 Y 15 X -1 Y 88 X -1 Y 15 X 1 Y 30 X -1 Y 340 X s black
 gsave  2268 1538 0 0 C 905.783 1309.8 t 0 r /Helvetica-BoldOblique findfont 71.6807 sf 0 0 m (ATLAS) show NC gr 
 gsave  2268 1538 0 0 C 1176.22 1309.8 t 0 r /Helvetica findfont 71.6807 sf 0 0 m (Simulation Internal) show NC gr 
 gsave  2268 1538 0 0 C 905.783 1231.6 t 0 r /Helvetica findfont 71.6807 sf 0 0 m (ITk Extended) show NC gr 
 gsave  2268 1538 0 0 C 1065.44 1153.41 t 0 r /Helvetica findfont 71.6807 sf 0 0 m (> = 200) show NC gr 
 gsave  2268 1538 0 0 C 1023.08 1153.41 t 0 r /Symbol findfont 71.6807 sf 0 0 m (m) show NC gr 
 gsave  2268 1538 0 0 C 944.882 1153.41 t 0 r /Helvetica findfont 71.6807 sf 0 0 m (, <) show NC gr 
 gsave  2268 1538 0 0 C 925.333 1153.41 t 0 r /Helvetica findfont 71.6807 sf 0 0 m (t) show NC gr  6 lw 925 1209 m 20 X s
 gsave  2268 1538 0 0 C 905.783 1153.41 t 0 r /Helvetica findfont 71.6807 sf 0 0 m (t) show NC gr  1 1 1 c 3 lw 340 308 1542 738 bf black
 gsave  2268 1538 0 0 C 1625.85 1003.53 t 0 r /Helvetica-Bold findfont 71.6807 sf 0 0 m (Layer 0) show NC gr  12 lw 1555 1015 m 59 X s
 gsave  2268 1538 0 0 C 1625.85 941.624 t 0 r /Helvetica-Bold findfont 71.6807 sf 0 0 m (Layer 1) show NC gr  1 0 0 c 1555 953 m 59 X s black
 gsave  2268 1538 0 0 C 1625.85 879.718 t 0 r /Helvetica-Bold findfont 71.6807 sf 0 0 m (Layer 2) show NC gr  0 1 0 c 1555 892 m 59 X s black
 gsave  2268 1538 0 0 C 1625.85 817.812 t 0 r /Helvetica-Bold findfont 71.6807 sf 0 0 m (Layer 3) show NC gr  0 0 1 c 1555 830 m 59 X s black
 gsave  2268 1538 0 0 C 1625.85 755.906 t 0 r /Helvetica-Bold findfont 71.6807 sf 0 0 m (Layer 4) show NC gr  1 0 1 c 1555 769 m 59 X s
 gr  gr showpage
end
%%EOF
