%!PS-Adobe-2.0 EPSF-2.0
%%BoundingBox:  0 0 567 384
%%Title: plots/pixels/barrel/clustersperchip_inclined.eps: c1
%%Creator: ROOT Version 5.34/36
%%CreationDate: Mon Apr 10 13:14:49 2017
%%EndComments
%%BeginProlog
80 dict begin
/s {stroke} def /l {lineto} def /m {moveto} def /t {translate} def
/r {rotate} def /rl {roll}  def /R {repeat} def
/d {rlineto} def /rm {rmoveto} def /gr {grestore} def /f {eofill} def
/c {setrgbcolor} def /black {0 setgray} def /sd {setdash} def
/cl {closepath} def /sf {scalefont setfont} def /lw {setlinewidth} def
/box {m dup 0 exch d exch 0 d 0 exch neg d cl} def
/NC{systemdict begin initclip end}def/C{NC box clip newpath}def
/bl {box s} def /bf {gsave box gsave f grestore 1 lw [] 0 sd s grestore} def /Y { 0 exch d} def /X { 0 d} def 
/K {{pop pop 0 moveto} exch kshow} bind def
/ita {/ang 15 def gsave [1 0 ang dup sin exch cos div 1 0 0] concat} def 
/mp {newpath /y exch def /x exch def} def
/side {[w .77 mul w .23 mul] .385 w mul sd w 0 l currentpoint t -144 r} def
/mr {mp x y w2 0 360 arc} def /m24 {mr s} def /m20 {mr f} def
/mb {mp x y w2 add m w2 neg 0 d 0 w neg d w 0 d 0 w d cl} def
/mt {mp x y w2 add m w2 neg w neg d w 0 d cl} def
/m21 {mb f} def /m25 {mb s} def /m22 {mt f} def /m26{mt s} def
/m23 {mp x y w2 sub m w2 w d w neg 0 d cl f} def
/m27 {mp x y w2 add m w3 neg w2 neg d w3 w2 neg d w3 w2 d cl s} def
/m28 {mp x w2 sub y w2 sub w3 add m w3 0 d  0 w3 neg d w3 0 d 0 w3 d w3 0 d  0 w3 d w3 neg 0 d 0 w3 d w3 neg 0 d 0 w3 neg d w3 neg 0 d cl s } def
/m29 {mp gsave x w2 sub y w2 add w3 sub m currentpoint t 4 {side} repeat cl fill gr} def
/m30 {mp gsave x w2 sub y w2 add w3 sub m currentpoint t 4 {side} repeat cl s gr} def
/m31 {mp x y w2 sub m 0 w d x w2 sub y m w 0 d x w2 sub y w2 add m w w neg d x w2 sub y w2 sub m w w d s} def
/m32 {mp x y w2 sub m w2 w d w neg 0 d cl s} def
/m33 {mp x y w2 add m w3 neg w2 neg d w3 w2 neg d w3 w2 d cl f} def
/m34 {mp x w2 sub y w2 sub w3 add m w3 0 d  0 w3 neg d w3 0 d 0 w3 d w3 0 d  0 w3 d w3 neg 0 d 0 w3 d w3 neg 0 d 0 w3 neg d w3 neg 0 d cl f } def
/m2 {mp x y w2 sub m 0 w d x w2 sub y m w 0 d s} def
/m5 {mp x w2 sub y w2 sub m w w d x w2 sub y w2 add m w w neg d s} def
/reEncode {exch findfont dup length dict begin {1 index /FID eq  {pop pop} {def} ifelse } forall /Encoding exch def currentdict end dup /FontName get exch definefont pop } def [/Times-Bold /Times-Italic /Times-BoldItalic /Helvetica /Helvetica-Oblique
 /Helvetica-Bold /Helvetica-BoldOblique /Courier /Courier-Oblique /Courier-Bold /Courier-BoldOblique /Times-Roman /AvantGarde-Book /AvantGarde-BookOblique /AvantGarde-Demi /AvantGarde-DemiOblique /Bookman-Demi /Bookman-DemiItalic /Bookman-Light
 /Bookman-LightItalic /Helvetica-Narrow /Helvetica-Narrow-Bold /Helvetica-Narrow-BoldOblique /Helvetica-Narrow-Oblique /NewCenturySchlbk-Roman /NewCenturySchlbk-Bold /NewCenturySchlbk-BoldItalic /NewCenturySchlbk-Italic /Palatino-Bold
 /Palatino-BoldItalic /Palatino-Italic /Palatino-Roman ] {ISOLatin1Encoding reEncode } forall
%%EndProlog
%%BeginSetup
%%EndSetup
newpath  gsave  .25 .25 scale  gsave  0 0 t black[  ] 0 sd 3 lw 1 1 1 c 2268 1538 0 0 bf black 1 1 1 c 1791 1215 363 246 bf black 1791 1215 363 246 bl 1 1 1 c 1791 1215 363 246 bf black 1791 1215 363 246 bl 12 lw 1 1 1 c black 363 246 m 110 X 1 Y 45
 X 1 Y 22 X 2 Y 22 X 4 Y 22 X 3 Y 22 X 5 Y 22 X 5 Y 22 X 7 Y 22 X 9 Y 23 X 8 Y 22 X 7 Y 22 X 4 Y 22 X 5 Y 22 X 3 Y 22 X 5 Y 22 X 4 Y 22 X 8 Y 23 X 5 Y 22 X 5 Y 22 X 8 Y 22 X 1 Y 22 X 12 Y 22 X 11 Y 22 X 7 Y 22 X 14 Y 22 X 13 Y 23 X 13 Y 22 X -2 Y 22
 X 15 Y 22 X 7 Y 22 X 8 Y 44 X -10 Y 22 X 9 Y 23 X -8 Y 22 X -12 Y 22 X -11 Y 22 X -11 Y 22 X -10 Y 22 X -14 Y 22 X -11 Y 22 X -13 Y 22 X -13 Y 23 X -10 Y 22 X -11 Y 22 X -10 Y 22 X -7 Y 22 X -13 Y 22 X -6 Y 22 X -7 Y 22 X -6 Y 23 X -4 Y 22 X -5 Y 22
 X -2 Y 22 X -3 Y 22 X -3 Y 22 X -1 Y 22 X -1 Y 22 X -2 Y 45 X -1 Y 22 X -1 Y 66 X -1 Y 243 X s 3 lw 363 246 m 1791 X s
 gsave  2268 1538 0 0 C 1616.07 114.037 t 0 r /Helvetica findfont 71.6807 sf 0 0 m (Clusters per chip) show NC gr  374 283 m -37 Y s 418 264 m -18 Y s 462 264 m -18 Y s 507 264 m -18 Y s 551 264 m -18 Y s 595 283 m -37 Y s 639 264 m -18 Y s 684 264 m
 -18 Y s 728 264 m -18 Y s 772 264 m -18 Y s 816 283 m -37 Y s 860 264 m -18 Y s 905 264 m -18 Y s 949 264 m -18 Y s 993 264 m -18 Y s 1037 283 m -37 Y s 1082 264 m -18 Y s 1126 264 m -18 Y s 1170 264 m -18 Y s 1214 264 m -18 Y s 1259 283 m -37 Y s
 1303 264 m -18 Y s 1347 264 m -18 Y s 1391 264 m -18 Y s 1436 264 m -18 Y s 1480 283 m -37 Y s 1524 264 m -18 Y s 1568 264 m -18 Y s 1612 264 m -18 Y s 1657 264 m -18 Y s 1701 283 m -37 Y s 1745 264 m -18 Y s 1789 264 m -18 Y s 1834 264 m -18 Y s
 1878 264 m -18 Y s 1922 283 m -37 Y s 1966 264 m -18 Y s 2011 264 m -18 Y s 2055 264 m -18 Y s 2099 264 m -18 Y s 2143 283 m -37 Y s 374 283 m -37 Y s 2143 283 m -37 Y s
 gsave  2268 1538 0 0 C 351.887 179.202 t 0 r /Helvetica findfont 71.6807 sf 0 0 m (0) show NC gr 
 gsave  2268 1538 0 0 C 553.896 179.202 t 0 r /Helvetica findfont 71.6807 sf 0 0 m (10) show NC gr 
 gsave  2268 1538 0 0 C 775.455 179.202 t 0 r /Helvetica findfont 71.6807 sf 0 0 m (20) show NC gr 
 gsave  2268 1538 0 0 C 997.013 179.202 t 0 r /Helvetica findfont 71.6807 sf 0 0 m (30) show NC gr 
 gsave  2268 1538 0 0 C 1218.57 179.202 t 0 r /Helvetica findfont 71.6807 sf 0 0 m (40) show NC gr 
 gsave  2268 1538 0 0 C 1440.13 179.202 t 0 r /Helvetica findfont 71.6807 sf 0 0 m (50) show NC gr 
 gsave  2268 1538 0 0 C 1661.69 179.202 t 0 r /Helvetica findfont 71.6807 sf 0 0 m (60) show NC gr 
 gsave  2268 1538 0 0 C 1879.99 179.202 t 0 r /Helvetica findfont 71.6807 sf 0 0 m (70) show NC gr 
 gsave  2268 1538 0 0 C 2101.55 179.202 t 0 r /Helvetica findfont 71.6807 sf 0 0 m (80) show NC gr  363 1461 m 1791 X s 374 1425 m 36 Y s 418 1443 m 18 Y s 462 1443 m 18 Y s 507 1443 m 18 Y s 551 1443 m 18 Y s 595 1425 m 36 Y s 639 1443 m 18 Y s 684
 1443 m 18 Y s 728 1443 m 18 Y s 772 1443 m 18 Y s 816 1425 m 36 Y s 860 1443 m 18 Y s 905 1443 m 18 Y s 949 1443 m 18 Y s 993 1443 m 18 Y s 1037 1425 m 36 Y s 1082 1443 m 18 Y s 1126 1443 m 18 Y s 1170 1443 m 18 Y s 1214 1443 m 18 Y s 1259 1425 m 36
 Y s 1303 1443 m 18 Y s 1347 1443 m 18 Y s 1391 1443 m 18 Y s 1436 1443 m 18 Y s 1480 1425 m 36 Y s 1524 1443 m 18 Y s 1568 1443 m 18 Y s 1612 1443 m 18 Y s 1657 1443 m 18 Y s 1701 1425 m 36 Y s 1745 1443 m 18 Y s 1789 1443 m 18 Y s 1834 1443 m 18 Y
 s 1878 1443 m 18 Y s 1922 1425 m 36 Y s 1966 1443 m 18 Y s 2011 1443 m 18 Y s 2055 1443 m 18 Y s 2099 1443 m 18 Y s 2143 1425 m 36 Y s 374 1425 m 36 Y s 2143 1425 m 36 Y s 363 246 m 1215 Y s
 gsave  2268 1538 0 0 C 133.587 860.168 t 90 r /Helvetica findfont 71.6807 sf 0 0 m (Normalised Entries) show NC gr  417 345 m -54 X s 390 370 m -27 X s 390 394 m -27 X s 390 419 m -27 X s 417 444 m -54 X s 390 469 m -27 X s 390 493 m -27 X s 390 518
 m -27 X s 417 543 m -54 X s 390 568 m -27 X s 390 592 m -27 X s 390 617 m -27 X s 417 642 m -54 X s 390 667 m -27 X s 390 691 m -27 X s 390 716 m -27 X s 417 741 m -54 X s 390 766 m -27 X s 390 790 m -27 X s 390 815 m -27 X s 417 840 m -54 X s 390
 865 m -27 X s 390 889 m -27 X s 390 914 m -27 X s 417 939 m -54 X s 390 963 m -27 X s 390 988 m -27 X s 390 1013 m -27 X s 417 1038 m -54 X s 390 1062 m -27 X s 390 1087 m -27 X s 390 1112 m -27 X s 417 1137 m -54 X s 390 1161 m -27 X s 390 1186 m
 -27 X s 390 1211 m -27 X s 417 1236 m -54 X s 390 1260 m -27 X s 390 1285 m -27 X s 390 1310 m -27 X s 417 1335 m -54 X s 390 1359 m -27 X s 390 1384 m -27 X s 390 1409 m -27 X s 417 1434 m -54 X s 417 345 m -54 X s 390 320 m -27 X s 390 295 m -27 X
 s 390 271 m -27 X s 417 1434 m -54 X s 390 1458 m -27 X s
 gsave  2268 1538 0 0 C 211.784 319.305 t 0 r /Helvetica findfont 71.6807 sf 0 0 m (0.02) show NC gr 
 gsave  2268 1538 0 0 C 208.526 420.31 t 0 r /Helvetica findfont 71.6807 sf 0 0 m (0.04) show NC gr 
 gsave  2268 1538 0 0 C 211.784 518.056 t 0 r /Helvetica findfont 71.6807 sf 0 0 m (0.06) show NC gr 
 gsave  2268 1538 0 0 C 211.784 615.802 t 0 r /Helvetica findfont 71.6807 sf 0 0 m (0.08) show NC gr 
 gsave  2268 1538 0 0 C 263.915 716.807 t 0 r /Helvetica findfont 71.6807 sf 0 0 m (0.1) show NC gr 
 gsave  2268 1538 0 0 C 211.784 814.553 t 0 r /Helvetica findfont 71.6807 sf 0 0 m (0.12) show NC gr 
 gsave  2268 1538 0 0 C 208.526 915.558 t 0 r /Helvetica findfont 71.6807 sf 0 0 m (0.14) show NC gr 
 gsave  2268 1538 0 0 C 211.784 1013.3 t 0 r /Helvetica findfont 71.6807 sf 0 0 m (0.16) show NC gr 
 gsave  2268 1538 0 0 C 211.784 1111.05 t 0 r /Helvetica findfont 71.6807 sf 0 0 m (0.18) show NC gr 
 gsave  2268 1538 0 0 C 250.882 1212.06 t 0 r /Helvetica findfont 71.6807 sf 0 0 m (0.2) show NC gr 
 gsave  2268 1538 0 0 C 211.784 1309.8 t 0 r /Helvetica findfont 71.6807 sf 0 0 m (0.22) show NC gr 
 gsave  2268 1538 0 0 C 208.526 1407.55 t 0 r /Helvetica findfont 71.6807 sf 0 0 m (0.24) show NC gr  2154 246 m 1215 Y s 2101 345 m 53 X s 2127 370 m 27 X s 2127 394 m 27 X s 2127 419 m 27 X s 2101 444 m 53 X s 2127 469 m 27 X s 2127 493 m 27 X s
 2127 518 m 27 X s 2101 543 m 53 X s 2127 568 m 27 X s 2127 592 m 27 X s 2127 617 m 27 X s 2101 642 m 53 X s 2127 667 m 27 X s 2127 691 m 27 X s 2127 716 m 27 X s 2101 741 m 53 X s 2127 766 m 27 X s 2127 790 m 27 X s 2127 815 m 27 X s 2101 840 m 53 X
 s 2127 865 m 27 X s 2127 889 m 27 X s 2127 914 m 27 X s 2101 939 m 53 X s 2127 963 m 27 X s 2127 988 m 27 X s 2127 1013 m 27 X s 2101 1038 m 53 X s 2127 1062 m 27 X s 2127 1087 m 27 X s 2127 1112 m 27 X s 2101 1137 m 53 X s 2127 1161 m 27 X s 2127
 1186 m 27 X s 2127 1211 m 27 X s 2101 1236 m 53 X s 2127 1260 m 27 X s 2127 1285 m 27 X s 2127 1310 m 27 X s 2101 1335 m 53 X s 2127 1359 m 27 X s 2127 1384 m 27 X s 2127 1409 m 27 X s 2101 1434 m 53 X s 2101 345 m 53 X s 2127 320 m 27 X s 2127 295
 m 27 X s 2127 271 m 27 X s 2101 1434 m 53 X s 2127 1458 m 27 X s 1 0 0 c 12 lw 1 1 1 c black 1 0 0 c 385 246 m 8 Y 22 X 15 Y 22 X 33 Y 22 X 39 Y 22 X 50 Y 23 X 60 Y 22 X 54 Y 22 X 36 Y 22 X 20 Y 22 X 8 Y 22 X -8 Y 22 X -27 Y 22 X -31 Y 22 X -33 Y 23
 X -40 Y 22 X -36 Y 22 X -31 Y 22 X -28 Y 22 X -20 Y 22 X -14 Y 22 X -8 Y 22 X -7 Y 23 X -3 Y 22 X -2 Y 44 X -1 Y 22 X 3 Y 22 X 3 Y 22 X 2 Y 22 X 4 Y 22 X 4 Y 23 X 4 Y 22 X -1 Y 22 X 5 Y 22 X 2 Y 22 X 3 Y 44 X -3 Y 22 X 2 Y 23 X -2 Y 22 X -4 Y 22 X
 -3 Y 22 X -4 Y 22 X -3 Y 22 X -4 Y 22 X -4 Y 22 X -4 Y 22 X -4 Y 23 X -3 Y 22 X -4 Y 22 X -3 Y 22 X -2 Y 22 X -4 Y 22 X -2 Y 22 X -3 Y 22 X -1 Y 23 X -2 Y 22 X -1 Y 22 X -1 Y 22 X -1 Y 22 X -1 Y 66 X -1 Y 67 X -1 Y 309 X s 0 1 0 c 1 1 1 c black 0 1
 0 c 385 246 m 260 Y 22 X 180 Y 22 X 89 Y 22 X -22 Y 22 X -84 Y 23 X -86 Y 22 X -70 Y 22 X -45 Y 22 X -26 Y 22 X -18 Y 22 X -15 Y 22 X -18 Y 22 X -18 Y 22 X -17 Y 23 X -20 Y 22 X -18 Y 22 X -15 Y 22 X -14 Y 22 X -9 Y 22 X -7 Y 22 X -4 Y 22 X -3 Y 23
 X -2 Y 22 X -1 Y 66 X 1 Y 22 X 1 Y 22 X 1 Y 22 X 2 Y 22 X 2 Y 23 X 2 Y 44 X 2 Y 22 X 1 Y 22 X 2 Y 44 X -2 Y 22 X 1 Y 23 X -1 Y 22 X -2 Y 22 X -1 Y 22 X -2 Y 22 X -2 Y 22 X -2 Y 22 X -1 Y 22 X -2 Y 22 X -2 Y 23 X -2 Y 22 X -2 Y 22 X -1 Y 22 X -1 Y 22
 X -2 Y 22 X -1 Y 22 X -1 Y 22 X -1 Y 23 X -1 Y 22 X -1 Y 44 X -1 Y 110 X -1 Y 354 X s 0 0 1 c 1 1 1 c black 0 0 1 c 385 246 m 707 Y 22 X 127 Y 22 X -97 Y 22 X -191 Y 22 X -171 Y 23 X -119 Y 22 X -74 Y 22 X -40 Y 22 X -22 Y 22 X -13 Y 22 X -10 Y 22 X
 -11 Y 22 X -11 Y 22 X -10 Y 23 X -12 Y 22 X -10 Y 22 X -9 Y 22 X -8 Y 22 X -6 Y 22 X -4 Y 22 X -3 Y 22 X -1 Y 23 X -1 Y 22 X -1 Y 66 X 1 Y 44 X 1 Y 22 X 1 Y 22 X 1 Y 23 X 2 Y 22 X -1 Y 22 X 2 Y 44 X 1 Y 44 X -1 Y 22 X 1 Y 23 X -1 Y 22 X -1 Y 22 X -1
 Y 22 X -1 Y 22 X -1 Y 22 X -1 Y 22 X -1 Y 22 X -1 Y 22 X -1 Y 23 X -1 Y 22 X -1 Y 22 X -1 Y 22 X -1 Y 22 X -1 Y 22 X -1 Y 44 X -1 Y 45 X -1 Y 132 X -1 Y 376 X s 1 0 1 c 1 1 1 c black 1 0 1 c 385 246 m 1157 Y 22 X -103 Y 22 X -303 Y 22 X -274 Y 22 X
 -183 Y 23 X -106 Y 22 X -59 Y 22 X -31 Y 22 X -16 Y 22 X -9 Y 22 X -6 Y 22 X -8 Y 22 X -8 Y 22 X -6 Y 23 X -9 Y 22 X -7 Y 22 X -6 Y 22 X -5 Y 22 X -4 Y 22 X -3 Y 22 X -2 Y 22 X -1 Y 23 X -1 Y 110 X 1 Y 44 X 1 Y 22 X 1 Y 23 X 1 Y 66 X 1 Y 133 X -1 Y
 22 X -1 Y 44 X -1 Y 22 X -1 Y 22 X -1 Y 44 X -1 Y 23 X -1 Y 44 X -1 Y 44 X -1 Y 22 X -1 Y 67 X -1 Y 88 X -1 Y 442 X s black
 gsave  2268 1538 0 0 C 905.783 1309.8 t 0 r /Helvetica-BoldOblique findfont 71.6807 sf 0 0 m (ATLAS) show NC gr 
 gsave  2268 1538 0 0 C 1176.22 1309.8 t 0 r /Helvetica findfont 71.6807 sf 0 0 m (Simulation Internal) show NC gr 
 gsave  2268 1538 0 0 C 905.783 1231.6 t 0 r /Helvetica findfont 71.6807 sf 0 0 m (ITk Inclined) show NC gr 
 gsave  2268 1538 0 0 C 1065.44 1153.41 t 0 r /Helvetica findfont 71.6807 sf 0 0 m (> = 200) show NC gr 
 gsave  2268 1538 0 0 C 1023.08 1153.41 t 0 r /Symbol findfont 71.6807 sf 0 0 m (m) show NC gr 
 gsave  2268 1538 0 0 C 944.882 1153.41 t 0 r /Helvetica findfont 71.6807 sf 0 0 m (, <) show NC gr 
 gsave  2268 1538 0 0 C 925.333 1153.41 t 0 r /Helvetica findfont 71.6807 sf 0 0 m (t) show NC gr  6 lw 925 1209 m 20 X s
 gsave  2268 1538 0 0 C 905.783 1153.41 t 0 r /Helvetica findfont 71.6807 sf 0 0 m (t) show NC gr  1 1 1 c 3 lw 340 308 1542 738 bf black
 gsave  2268 1538 0 0 C 1625.85 1003.53 t 0 r /Helvetica-Bold findfont 71.6807 sf 0 0 m (Layer 0) show NC gr  12 lw 1555 1015 m 59 X s
 gsave  2268 1538 0 0 C 1625.85 941.624 t 0 r /Helvetica-Bold findfont 71.6807 sf 0 0 m (Layer 1) show NC gr  1 0 0 c 1555 953 m 59 X s black
 gsave  2268 1538 0 0 C 1625.85 879.718 t 0 r /Helvetica-Bold findfont 71.6807 sf 0 0 m (Layer 2) show NC gr  0 1 0 c 1555 892 m 59 X s black
 gsave  2268 1538 0 0 C 1625.85 817.812 t 0 r /Helvetica-Bold findfont 71.6807 sf 0 0 m (Layer 3) show NC gr  0 0 1 c 1555 830 m 59 X s black
 gsave  2268 1538 0 0 C 1625.85 755.906 t 0 r /Helvetica-Bold findfont 71.6807 sf 0 0 m (Layer 4) show NC gr  1 0 1 c 1555 769 m 59 X s
 gr  gr showpage
end
%%EOF
