%!PS-Adobe-2.0 EPSF-2.0
%%BoundingBox:  0 0 567 384
%%Title: plots/pixels/barrel/clus_perchip_inclined.eps: c1
%%Creator: ROOT Version 5.34/36
%%CreationDate: Mon Apr 10 13:14:50 2017
%%EndComments
%%BeginProlog
80 dict begin
/s {stroke} def /l {lineto} def /m {moveto} def /t {translate} def
/r {rotate} def /rl {roll}  def /R {repeat} def
/d {rlineto} def /rm {rmoveto} def /gr {grestore} def /f {eofill} def
/c {setrgbcolor} def /black {0 setgray} def /sd {setdash} def
/cl {closepath} def /sf {scalefont setfont} def /lw {setlinewidth} def
/box {m dup 0 exch d exch 0 d 0 exch neg d cl} def
/NC{systemdict begin initclip end}def/C{NC box clip newpath}def
/bl {box s} def /bf {gsave box gsave f grestore 1 lw [] 0 sd s grestore} def /Y { 0 exch d} def /X { 0 d} def 
/K {{pop pop 0 moveto} exch kshow} bind def
/ita {/ang 15 def gsave [1 0 ang dup sin exch cos div 1 0 0] concat} def 
/mp {newpath /y exch def /x exch def} def
/side {[w .77 mul w .23 mul] .385 w mul sd w 0 l currentpoint t -144 r} def
/mr {mp x y w2 0 360 arc} def /m24 {mr s} def /m20 {mr f} def
/mb {mp x y w2 add m w2 neg 0 d 0 w neg d w 0 d 0 w d cl} def
/mt {mp x y w2 add m w2 neg w neg d w 0 d cl} def
/m21 {mb f} def /m25 {mb s} def /m22 {mt f} def /m26{mt s} def
/m23 {mp x y w2 sub m w2 w d w neg 0 d cl f} def
/m27 {mp x y w2 add m w3 neg w2 neg d w3 w2 neg d w3 w2 d cl s} def
/m28 {mp x w2 sub y w2 sub w3 add m w3 0 d  0 w3 neg d w3 0 d 0 w3 d w3 0 d  0 w3 d w3 neg 0 d 0 w3 d w3 neg 0 d 0 w3 neg d w3 neg 0 d cl s } def
/m29 {mp gsave x w2 sub y w2 add w3 sub m currentpoint t 4 {side} repeat cl fill gr} def
/m30 {mp gsave x w2 sub y w2 add w3 sub m currentpoint t 4 {side} repeat cl s gr} def
/m31 {mp x y w2 sub m 0 w d x w2 sub y m w 0 d x w2 sub y w2 add m w w neg d x w2 sub y w2 sub m w w d s} def
/m32 {mp x y w2 sub m w2 w d w neg 0 d cl s} def
/m33 {mp x y w2 add m w3 neg w2 neg d w3 w2 neg d w3 w2 d cl f} def
/m34 {mp x w2 sub y w2 sub w3 add m w3 0 d  0 w3 neg d w3 0 d 0 w3 d w3 0 d  0 w3 d w3 neg 0 d 0 w3 d w3 neg 0 d 0 w3 neg d w3 neg 0 d cl f } def
/m2 {mp x y w2 sub m 0 w d x w2 sub y m w 0 d s} def
/m5 {mp x w2 sub y w2 sub m w w d x w2 sub y w2 add m w w neg d s} def
/reEncode {exch findfont dup length dict begin {1 index /FID eq  {pop pop} {def} ifelse } forall /Encoding exch def currentdict end dup /FontName get exch definefont pop } def [/Times-Bold /Times-Italic /Times-BoldItalic /Helvetica /Helvetica-Oblique
 /Helvetica-Bold /Helvetica-BoldOblique /Courier /Courier-Oblique /Courier-Bold /Courier-BoldOblique /Times-Roman /AvantGarde-Book /AvantGarde-BookOblique /AvantGarde-Demi /AvantGarde-DemiOblique /Bookman-Demi /Bookman-DemiItalic /Bookman-Light
 /Bookman-LightItalic /Helvetica-Narrow /Helvetica-Narrow-Bold /Helvetica-Narrow-BoldOblique /Helvetica-Narrow-Oblique /NewCenturySchlbk-Roman /NewCenturySchlbk-Bold /NewCenturySchlbk-BoldItalic /NewCenturySchlbk-Italic /Palatino-Bold
 /Palatino-BoldItalic /Palatino-Italic /Palatino-Roman ] {ISOLatin1Encoding reEncode } forall
%%EndProlog
%%BeginSetup
%%EndSetup
newpath  gsave  .25 .25 scale  gsave  0 0 t black[  ] 0 sd 3 lw 1 1 1 c 2268 1538 0 0 bf black 1 1 1 c 1791 1215 363 246 bf black 1791 1215 363 246 bl 1 1 1 c 1791 1215 363 246 bf black 1791 1215 363 246 bl 12 lw 1 1 1 c black 363 246 m 133 X 1 Y 44
 X 1 Y 22 X 2 Y 22 X 2 Y 22 X 4 Y 22 X 5 Y 22 X 7 Y 22 X 8 Y 23 X 11 Y 22 X 12 Y 22 X 13 Y 22 X 14 Y 22 X 15 Y 22 X 16 Y 22 X 17 Y 22 X 19 Y 23 X 21 Y 22 X 21 Y 22 X 23 Y 22 X 23 Y 22 X 26 Y 22 X 29 Y 22 X 31 Y 22 X 33 Y 22 X 37 Y 23 X 40 Y 22 X 39 Y
 22 X 43 Y 22 X 44 Y 22 X 46 Y 22 X 47 Y 22 X 44 Y 22 X 46 Y 23 X 44 Y 22 X 41 Y 22 X 39 Y 22 X 37 Y 22 X 33 Y 22 X 31 Y 22 X 28 Y 22 X 25 Y 22 X 22 Y 23 X 20 Y 22 X 17 Y 22 X 14 Y 22 X 14 Y 22 X 10 Y 22 X 8 Y 22 X 7 Y 22 X 6 Y 23 X 5 Y 22 X 3 Y 22 X
 3 Y 22 X 3 Y 22 X 1 Y 22 X 2 Y 22 X 1 Y 22 X 1 Y 45 X 1 Y 44 X 1 Y 287 X s 3 lw 363 246 m 1791 X s
 gsave  2268 1538 0 0 C 1616.07 114.037 t 0 r /Helvetica findfont 71.6807 sf 0 0 m (Clusters per chip) show NC gr  374 283 m -37 Y s 418 264 m -18 Y s 462 264 m -18 Y s 507 264 m -18 Y s 551 264 m -18 Y s 595 283 m -37 Y s 639 264 m -18 Y s 684 264 m
 -18 Y s 728 264 m -18 Y s 772 264 m -18 Y s 816 283 m -37 Y s 860 264 m -18 Y s 905 264 m -18 Y s 949 264 m -18 Y s 993 264 m -18 Y s 1037 283 m -37 Y s 1082 264 m -18 Y s 1126 264 m -18 Y s 1170 264 m -18 Y s 1214 264 m -18 Y s 1259 283 m -37 Y s
 1303 264 m -18 Y s 1347 264 m -18 Y s 1391 264 m -18 Y s 1436 264 m -18 Y s 1480 283 m -37 Y s 1524 264 m -18 Y s 1568 264 m -18 Y s 1612 264 m -18 Y s 1657 264 m -18 Y s 1701 283 m -37 Y s 1745 264 m -18 Y s 1789 264 m -18 Y s 1834 264 m -18 Y s
 1878 264 m -18 Y s 1922 283 m -37 Y s 1966 264 m -18 Y s 2011 264 m -18 Y s 2055 264 m -18 Y s 2099 264 m -18 Y s 2143 283 m -37 Y s 374 283 m -37 Y s 2143 283 m -37 Y s
 gsave  2268 1538 0 0 C 351.887 179.202 t 0 r /Helvetica findfont 71.6807 sf 0 0 m (0) show NC gr 
 gsave  2268 1538 0 0 C 553.896 179.202 t 0 r /Helvetica findfont 71.6807 sf 0 0 m (10) show NC gr 
 gsave  2268 1538 0 0 C 775.455 179.202 t 0 r /Helvetica findfont 71.6807 sf 0 0 m (20) show NC gr 
 gsave  2268 1538 0 0 C 997.013 179.202 t 0 r /Helvetica findfont 71.6807 sf 0 0 m (30) show NC gr 
 gsave  2268 1538 0 0 C 1218.57 179.202 t 0 r /Helvetica findfont 71.6807 sf 0 0 m (40) show NC gr 
 gsave  2268 1538 0 0 C 1440.13 179.202 t 0 r /Helvetica findfont 71.6807 sf 0 0 m (50) show NC gr 
 gsave  2268 1538 0 0 C 1661.69 179.202 t 0 r /Helvetica findfont 71.6807 sf 0 0 m (60) show NC gr 
 gsave  2268 1538 0 0 C 1879.99 179.202 t 0 r /Helvetica findfont 71.6807 sf 0 0 m (70) show NC gr 
 gsave  2268 1538 0 0 C 2101.55 179.202 t 0 r /Helvetica findfont 71.6807 sf 0 0 m (80) show NC gr  363 1461 m 1791 X s 374 1425 m 36 Y s 418 1443 m 18 Y s 462 1443 m 18 Y s 507 1443 m 18 Y s 551 1443 m 18 Y s 595 1425 m 36 Y s 639 1443 m 18 Y s 684
 1443 m 18 Y s 728 1443 m 18 Y s 772 1443 m 18 Y s 816 1425 m 36 Y s 860 1443 m 18 Y s 905 1443 m 18 Y s 949 1443 m 18 Y s 993 1443 m 18 Y s 1037 1425 m 36 Y s 1082 1443 m 18 Y s 1126 1443 m 18 Y s 1170 1443 m 18 Y s 1214 1443 m 18 Y s 1259 1425 m 36
 Y s 1303 1443 m 18 Y s 1347 1443 m 18 Y s 1391 1443 m 18 Y s 1436 1443 m 18 Y s 1480 1425 m 36 Y s 1524 1443 m 18 Y s 1568 1443 m 18 Y s 1612 1443 m 18 Y s 1657 1443 m 18 Y s 1701 1425 m 36 Y s 1745 1443 m 18 Y s 1789 1443 m 18 Y s 1834 1443 m 18 Y
 s 1878 1443 m 18 Y s 1922 1425 m 36 Y s 1966 1443 m 18 Y s 2011 1443 m 18 Y s 2055 1443 m 18 Y s 2099 1443 m 18 Y s 2143 1425 m 36 Y s 374 1425 m 36 Y s 2143 1425 m 36 Y s 363 246 m 1215 Y s
 gsave  2268 1538 0 0 C 127.07 850.394 t 90 r /Helvetica findfont 71.6807 sf 0 0 m (Cumulative Integral) show NC gr  417 246 m -54 X s 390 304 m -27 X s 390 362 m -27 X s 390 420 m -27 X s 417 477 m -54 X s 390 535 m -27 X s 390 593 m -27 X s 390 651
 m -27 X s 417 709 m -54 X s 390 767 m -27 X s 390 825 m -27 X s 390 882 m -27 X s 417 940 m -54 X s 390 998 m -27 X s 390 1056 m -27 X s 390 1114 m -27 X s 417 1172 m -54 X s 390 1230 m -27 X s 390 1287 m -27 X s 390 1345 m -27 X s 417 1403 m -54 X
 s 417 1403 m -54 X s 390 1461 m -27 X s
 gsave  2268 1538 0 0 C 309.53 221.559 t 0 r /Helvetica findfont 71.6807 sf 0 0 m (0) show NC gr 
 gsave  2268 1538 0 0 C 250.882 452.892 t 0 r /Helvetica findfont 71.6807 sf 0 0 m (0.2) show NC gr 
 gsave  2268 1538 0 0 C 250.882 684.225 t 0 r /Helvetica findfont 71.6807 sf 0 0 m (0.4) show NC gr 
 gsave  2268 1538 0 0 C 250.882 915.558 t 0 r /Helvetica findfont 71.6807 sf 0 0 m (0.6) show NC gr 
 gsave  2268 1538 0 0 C 250.882 1146.89 t 0 r /Helvetica findfont 71.6807 sf 0 0 m (0.8) show NC gr 
 gsave  2268 1538 0 0 C 322.563 1374.97 t 0 r /Helvetica findfont 71.6807 sf 0 0 m (1) show NC gr  2154 246 m 1215 Y s 2101 246 m 53 X s 2127 304 m 27 X s 2127 362 m 27 X s 2127 420 m 27 X s 2101 477 m 53 X s 2127 535 m 27 X s 2127 593 m 27 X s 2127
 651 m 27 X s 2101 709 m 53 X s 2127 767 m 27 X s 2127 825 m 27 X s 2127 882 m 27 X s 2101 940 m 53 X s 2127 998 m 27 X s 2127 1056 m 27 X s 2127 1114 m 27 X s 2101 1172 m 53 X s 2127 1230 m 27 X s 2127 1287 m 27 X s 2127 1345 m 27 X s 2101 1403 m 53
 X s 2101 1403 m 53 X s 2127 1461 m 27 X s 1 0 0 c 12 lw 1 1 1 c black 1 0 0 c 385 246 m 2 Y 22 X 5 Y 22 X 13 Y 22 X 22 Y 22 X 34 Y 23 X 48 Y 22 X 61 Y 22 X 69 Y 22 X 73 Y 22 X 76 Y 22 X 74 Y 22 X 67 Y 22 X 60 Y 22 X 52 Y 23 X 43 Y 22 X 35 Y 22 X 27
 Y 22 X 21 Y 22 X 16 Y 22 X 13 Y 22 X 11 Y 22 X 9 Y 23 X 9 Y 22 X 8 Y 22 X 8 Y 22 X 8 Y 22 X 9 Y 22 X 9 Y 22 X 10 Y 22 X 10 Y 22 X 12 Y 23 X 13 Y 22 X 12 Y 22 X 14 Y 22 X 14 Y 22 X 15 Y 22 X 14 Y 22 X 14 Y 22 X 15 Y 23 X 14 Y 22 X 13 Y 22 X 12 Y 22 X
 12 Y 22 X 10 Y 22 X 10 Y 22 X 9 Y 22 X 8 Y 22 X 7 Y 23 X 6 Y 22 X 6 Y 22 X 4 Y 22 X 4 Y 22 X 4 Y 22 X 2 Y 22 X 3 Y 22 X 1 Y 23 X 2 Y 22 X 1 Y 22 X 1 Y 22 X 1 Y 44 X 1 Y 66 X 1 Y 354 X s 0 1 0 c 1 1 1 c black 0 1 0 c 385 246 m 61 Y 22 X 103 Y 22 X
 123 Y 22 X 119 Y 22 X 99 Y 23 X 79 Y 22 X 62 Y 22 X 52 Y 22 X 46 Y 22 X 41 Y 22 X 38 Y 22 X 34 Y 22 X 30 Y 22 X 26 Y 23 X 21 Y 22 X 17 Y 22 X 13 Y 22 X 10 Y 22 X 8 Y 22 X 6 Y 22 X 6 Y 22 X 4 Y 23 X 4 Y 22 X 4 Y 22 X 4 Y 22 X 4 Y 22 X 4 Y 22 X 5 Y 22
 X 5 Y 22 X 5 Y 22 X 6 Y 23 X 6 Y 22 X 6 Y 22 X 6 Y 22 X 7 Y 22 X 7 Y 22 X 8 Y 22 X 6 Y 22 X 8 Y 23 X 6 Y 22 X 7 Y 22 X 6 Y 22 X 5 Y 22 X 6 Y 22 X 4 Y 22 X 5 Y 22 X 4 Y 22 X 3 Y 23 X 3 Y 22 X 3 Y 22 X 2 Y 22 X 2 Y 22 X 2 Y 22 X 1 Y 22 X 1 Y 22 X 1 Y
 23 X 1 Y 44 X 1 Y 88 X 1 Y 398 X s 0 0 1 c 1 1 1 c black 0 0 1 c 385 246 m 165 Y 22 X 195 Y 22 X 173 Y 22 X 127 Y 22 X 88 Y 23 X 60 Y 22 X 43 Y 22 X 33 Y 22 X 28 Y 22 X 25 Y 22 X 22 Y 22 X 21 Y 22 X 17 Y 22 X 15 Y 23 X 13 Y 22 X 10 Y 22 X 8 Y 22 X 6
 Y 22 X 4 Y 22 X 4 Y 22 X 3 Y 22 X 3 Y 23 X 3 Y 22 X 2 Y 22 X 2 Y 22 X 2 Y 22 X 3 Y 22 X 3 Y 22 X 2 Y 22 X 4 Y 22 X 3 Y 23 X 4 Y 22 X 3 Y 22 X 4 Y 22 X 4 Y 22 X 4 Y 22 X 5 Y 22 X 4 Y 22 X 4 Y 23 X 4 Y 22 X 4 Y 22 X 3 Y 22 X 4 Y 22 X 3 Y 22 X 3 Y 22 X
 2 Y 22 X 2 Y 22 X 2 Y 23 X 2 Y 22 X 2 Y 22 X 1 Y 22 X 1 Y 22 X 1 Y 22 X 1 Y 22 X 1 Y 45 X 1 Y 88 X 1 Y 442 X s 1 0 1 c 1 1 1 c black 1 0 1 c 385 246 m 271 Y 22 X 246 Y 22 X 176 Y 22 X 111 Y 22 X 69 Y 23 X 44 Y 22 X 30 Y 22 X 23 Y 22 X 19 Y 22 X 17 Y
 22 X 16 Y 22 X 14 Y 22 X 12 Y 22 X 10 Y 23 X 9 Y 22 X 7 Y 22 X 5 Y 22 X 4 Y 22 X 3 Y 22 X 3 Y 22 X 2 Y 22 X 2 Y 23 X 2 Y 22 X 1 Y 22 X 2 Y 22 X 1 Y 22 X 2 Y 22 X 2 Y 22 X 2 Y 22 X 2 Y 22 X 2 Y 23 X 3 Y 22 X 2 Y 22 X 3 Y 22 X 3 Y 22 X 2 Y 22 X 3 Y 22
 X 3 Y 22 X 3 Y 23 X 3 Y 22 X 2 Y 22 X 3 Y 22 X 2 Y 22 X 2 Y 22 X 2 Y 22 X 2 Y 22 X 1 Y 22 X 2 Y 23 X 1 Y 22 X 1 Y 22 X 1 Y 22 X 1 Y 44 X 1 Y 44 X 1 Y 67 X 1 Y 486 X s black
 gsave  2268 1538 0 0 C 905.783 693.999 t 0 r /Helvetica-BoldOblique findfont 71.6807 sf 0 0 m (ATLAS) show NC gr 
 gsave  2268 1538 0 0 C 1176.22 693.999 t 0 r /Helvetica findfont 71.6807 sf 0 0 m (Simulation Internal) show NC gr 
 gsave  2268 1538 0 0 C 905.783 615.802 t 0 r /Helvetica findfont 71.6807 sf 0 0 m (ITk Inclined) show NC gr 
 gsave  2268 1538 0 0 C 1065.44 540.863 t 0 r /Helvetica findfont 71.6807 sf 0 0 m (> = 200) show NC gr 
 gsave  2268 1538 0 0 C 1023.08 540.863 t 0 r /Symbol findfont 71.6807 sf 0 0 m (m) show NC gr 
 gsave  2268 1538 0 0 C 944.882 540.863 t 0 r /Helvetica findfont 71.6807 sf 0 0 m (, <) show NC gr 
 gsave  2268 1538 0 0 C 925.333 540.863 t 0 r /Helvetica findfont 71.6807 sf 0 0 m (t) show NC gr  6 lw 925 596 m 20 X s
 gsave  2268 1538 0 0 C 905.783 540.863 t 0 r /Helvetica findfont 71.6807 sf 0 0 m (t) show NC gr  1 1 1 c 3 lw 340 307 1542 923 bf black
 gsave  2268 1538 0 0 C 1625.85 1185.99 t 0 r /Helvetica-Bold findfont 71.6807 sf 0 0 m (Layer 0) show NC gr  12 lw 1555 1200 m 59 X s
 gsave  2268 1538 0 0 C 1625.85 1127.34 t 0 r /Helvetica-Bold findfont 71.6807 sf 0 0 m (Layer 1) show NC gr  1 0 0 c 1555 1138 m 59 X s black
 gsave  2268 1538 0 0 C 1625.85 1065.44 t 0 r /Helvetica-Bold findfont 71.6807 sf 0 0 m (Layer 2) show NC gr  0 1 0 c 1555 1077 m 59 X s black
 gsave  2268 1538 0 0 C 1625.85 1003.53 t 0 r /Helvetica-Bold findfont 71.6807 sf 0 0 m (Layer 3) show NC gr  0 0 1 c 1555 1015 m 59 X s black
 gsave  2268 1538 0 0 C 1625.85 941.624 t 0 r /Helvetica-Bold findfont 71.6807 sf 0 0 m (Layer 4) show NC gr  1 0 1 c 1555 953 m 59 X s
 gr  gr showpage
end
%%EOF
