%!PS-Adobe-2.0 EPSF-2.0
%%BoundingBox:  0 0 567 384
%%Title: plots/pixels/barrel/clusterspersensor_inclined.eps: c1
%%Creator: ROOT Version 5.34/36
%%CreationDate: Mon Apr 10 13:14:50 2017
%%EndComments
%%BeginProlog
80 dict begin
/s {stroke} def /l {lineto} def /m {moveto} def /t {translate} def
/r {rotate} def /rl {roll}  def /R {repeat} def
/d {rlineto} def /rm {rmoveto} def /gr {grestore} def /f {eofill} def
/c {setrgbcolor} def /black {0 setgray} def /sd {setdash} def
/cl {closepath} def /sf {scalefont setfont} def /lw {setlinewidth} def
/box {m dup 0 exch d exch 0 d 0 exch neg d cl} def
/NC{systemdict begin initclip end}def/C{NC box clip newpath}def
/bl {box s} def /bf {gsave box gsave f grestore 1 lw [] 0 sd s grestore} def /Y { 0 exch d} def /X { 0 d} def 
/K {{pop pop 0 moveto} exch kshow} bind def
/ita {/ang 15 def gsave [1 0 ang dup sin exch cos div 1 0 0] concat} def 
/mp {newpath /y exch def /x exch def} def
/side {[w .77 mul w .23 mul] .385 w mul sd w 0 l currentpoint t -144 r} def
/mr {mp x y w2 0 360 arc} def /m24 {mr s} def /m20 {mr f} def
/mb {mp x y w2 add m w2 neg 0 d 0 w neg d w 0 d 0 w d cl} def
/mt {mp x y w2 add m w2 neg w neg d w 0 d cl} def
/m21 {mb f} def /m25 {mb s} def /m22 {mt f} def /m26{mt s} def
/m23 {mp x y w2 sub m w2 w d w neg 0 d cl f} def
/m27 {mp x y w2 add m w3 neg w2 neg d w3 w2 neg d w3 w2 d cl s} def
/m28 {mp x w2 sub y w2 sub w3 add m w3 0 d  0 w3 neg d w3 0 d 0 w3 d w3 0 d  0 w3 d w3 neg 0 d 0 w3 d w3 neg 0 d 0 w3 neg d w3 neg 0 d cl s } def
/m29 {mp gsave x w2 sub y w2 add w3 sub m currentpoint t 4 {side} repeat cl fill gr} def
/m30 {mp gsave x w2 sub y w2 add w3 sub m currentpoint t 4 {side} repeat cl s gr} def
/m31 {mp x y w2 sub m 0 w d x w2 sub y m w 0 d x w2 sub y w2 add m w w neg d x w2 sub y w2 sub m w w d s} def
/m32 {mp x y w2 sub m w2 w d w neg 0 d cl s} def
/m33 {mp x y w2 add m w3 neg w2 neg d w3 w2 neg d w3 w2 d cl f} def
/m34 {mp x w2 sub y w2 sub w3 add m w3 0 d  0 w3 neg d w3 0 d 0 w3 d w3 0 d  0 w3 d w3 neg 0 d 0 w3 d w3 neg 0 d 0 w3 neg d w3 neg 0 d cl f } def
/m2 {mp x y w2 sub m 0 w d x w2 sub y m w 0 d s} def
/m5 {mp x w2 sub y w2 sub m w w d x w2 sub y w2 add m w w neg d s} def
/reEncode {exch findfont dup length dict begin {1 index /FID eq  {pop pop} {def} ifelse } forall /Encoding exch def currentdict end dup /FontName get exch definefont pop } def [/Times-Bold /Times-Italic /Times-BoldItalic /Helvetica /Helvetica-Oblique
 /Helvetica-Bold /Helvetica-BoldOblique /Courier /Courier-Oblique /Courier-Bold /Courier-BoldOblique /Times-Roman /AvantGarde-Book /AvantGarde-BookOblique /AvantGarde-Demi /AvantGarde-DemiOblique /Bookman-Demi /Bookman-DemiItalic /Bookman-Light
 /Bookman-LightItalic /Helvetica-Narrow /Helvetica-Narrow-Bold /Helvetica-Narrow-BoldOblique /Helvetica-Narrow-Oblique /NewCenturySchlbk-Roman /NewCenturySchlbk-Bold /NewCenturySchlbk-BoldItalic /NewCenturySchlbk-Italic /Palatino-Bold
 /Palatino-BoldItalic /Palatino-Italic /Palatino-Roman ] {ISOLatin1Encoding reEncode } forall
%%EndProlog
%%BeginSetup
%%EndSetup
newpath  gsave  .25 .25 scale  gsave  0 0 t black[  ] 0 sd 3 lw 1 1 1 c 2268 1538 0 0 bf black 1 1 1 c 1791 1215 363 246 bf black 1791 1215 363 246 bl 1 1 1 c 1791 1215 363 246 bf black 1791 1215 363 246 bl 12 lw 1 1 1 c black 363 246 m 207 X 1 Y 30
 X 1 Y 15 X 1 Y 14 X 1 Y 15 X 6 Y 15 X 3 Y 15 X 10 Y 15 X 17 Y 14 X 6 Y 15 X 31 Y 15 X 26 Y 15 X 15 Y 15 X 38 Y 14 X 43 Y 15 X 29 Y 15 X 50 Y 15 X 47 Y 15 X 51 Y 14 X 14 Y 15 X 42 Y 15 X 41 Y 15 X 36 Y 15 X 12 Y 14 X -12 Y 15 X 35 Y 15 X -13 Y 15 X
 -24 Y 15 X -10 Y 14 X -27 Y 15 X -34 Y 15 X -29 Y 15 X -29 Y 15 X -33 Y 15 X -36 Y 14 X -25 Y 15 X -26 Y 15 X -30 Y 15 X -19 Y 15 X -37 Y 14 X -20 Y 15 X -20 Y 15 X -18 Y 15 X -7 Y 15 X -16 Y 14 X -12 Y 15 X -9 Y 15 X -2 Y 15 X -5 Y 15 X -2 Y 14 X
 -8 Y 15 X -2 Y 15 X -4 Y 15 X -3 Y 29 X -2 Y 15 X -3 Y 30 X -3 Y 15 X -2 Y 44 X -8 Y 15 X -1 Y 15 X -1 Y 14 X -2 Y 30 X -2 Y 15 X -1 Y 15 X -6 Y 15 X 2 Y 14 X -3 Y 30 X -1 Y 15 X -1 Y 15 X -2 Y 14 X 2 Y 15 X -4 Y 30 X -2 Y 15 X -1 Y 14 X 1 Y 15 X -1
 Y 15 X -1 Y 59 X -1 Y 89 X -1 Y 207 X s 3 lw 363 246 m 1791 X s
 gsave  2268 1538 0 0 C 1531.36 114.037 t 0 r /Helvetica findfont 71.6807 sf 0 0 m (Clusters per sensor) show NC gr  370 283 m -37 Y s 444 264 m -18 Y s 518 264 m -18 Y s 592 264 m -18 Y s 666 283 m -37 Y s 740 264 m -18 Y s 814 264 m -18 Y s 888 264
 m -18 Y s 962 283 m -37 Y s 1036 264 m -18 Y s 1111 264 m -18 Y s 1185 264 m -18 Y s 1259 283 m -37 Y s 1333 264 m -18 Y s 1407 264 m -18 Y s 1481 264 m -18 Y s 1555 283 m -37 Y s 1629 264 m -18 Y s 1703 264 m -18 Y s 1777 264 m -18 Y s 1851 283 m
 -37 Y s 1925 264 m -18 Y s 1999 264 m -18 Y s 2073 264 m -18 Y s 2147 283 m -37 Y s 370 283 m -37 Y s 2147 283 m -37 Y s
 gsave  2268 1538 0 0 C 348.629 179.202 t 0 r /Helvetica findfont 71.6807 sf 0 0 m (0) show NC gr 
 gsave  2268 1538 0 0 C 625.577 179.202 t 0 r /Helvetica findfont 71.6807 sf 0 0 m (20) show NC gr 
 gsave  2268 1538 0 0 C 922.074 179.202 t 0 r /Helvetica findfont 71.6807 sf 0 0 m (40) show NC gr 
 gsave  2268 1538 0 0 C 1218.57 179.202 t 0 r /Helvetica findfont 71.6807 sf 0 0 m (60) show NC gr 
 gsave  2268 1538 0 0 C 1515.07 179.202 t 0 r /Helvetica findfont 71.6807 sf 0 0 m (80) show NC gr 
 gsave  2268 1538 0 0 C 1792.02 179.202 t 0 r /Helvetica findfont 71.6807 sf 0 0 m (100) show NC gr 
 gsave  2268 1538 0 0 C 2085.26 179.202 t 0 r /Helvetica findfont 71.6807 sf 0 0 m (120) show NC gr  363 1461 m 1791 X s 370 1425 m 36 Y s 444 1443 m 18 Y s 518 1443 m 18 Y s 592 1443 m 18 Y s 666 1425 m 36 Y s 740 1443 m 18 Y s 814 1443 m 18 Y s 888
 1443 m 18 Y s 962 1425 m 36 Y s 1036 1443 m 18 Y s 1111 1443 m 18 Y s 1185 1443 m 18 Y s 1259 1425 m 36 Y s 1333 1443 m 18 Y s 1407 1443 m 18 Y s 1481 1443 m 18 Y s 1555 1425 m 36 Y s 1629 1443 m 18 Y s 1703 1443 m 18 Y s 1777 1443 m 18 Y s 1851
 1425 m 36 Y s 1925 1443 m 18 Y s 1999 1443 m 18 Y s 2073 1443 m 18 Y s 2147 1425 m 36 Y s 370 1425 m 36 Y s 2147 1425 m 36 Y s 363 246 m 1215 Y s
 gsave  2268 1538 0 0 C 133.587 860.168 t 90 r /Helvetica findfont 71.6807 sf 0 0 m (Normalised Entries) show NC gr  417 489 m -54 X s 390 549 m -27 X s 390 610 m -27 X s 390 671 m -27 X s 417 732 m -54 X s 390 792 m -27 X s 390 853 m -27 X s 390 914
 m -27 X s 417 974 m -54 X s 390 1035 m -27 X s 390 1096 m -27 X s 390 1156 m -27 X s 417 1217 m -54 X s 390 1278 m -27 X s 390 1339 m -27 X s 390 1399 m -27 X s 417 1460 m -54 X s 417 489 m -54 X s 390 428 m -27 X s 390 367 m -27 X s 390 307 m -27 X
 s 417 1460 m -54 X s
 gsave  2268 1538 0 0 C 211.784 465.924 t 0 r /Helvetica findfont 71.6807 sf 0 0 m (0.02) show NC gr 
 gsave  2268 1538 0 0 C 208.526 707.032 t 0 r /Helvetica findfont 71.6807 sf 0 0 m (0.04) show NC gr 
 gsave  2268 1538 0 0 C 211.784 951.398 t 0 r /Helvetica findfont 71.6807 sf 0 0 m (0.06) show NC gr 
 gsave  2268 1538 0 0 C 211.784 1192.51 t 0 r /Helvetica findfont 71.6807 sf 0 0 m (0.08) show NC gr 
 gsave  2268 1538 0 0 C 263.915 1436.87 t 0 r /Helvetica findfont 71.6807 sf 0 0 m (0.1) show NC gr  2154 246 m 1215 Y s 2101 489 m 53 X s 2127 549 m 27 X s 2127 610 m 27 X s 2127 671 m 27 X s 2101 732 m 53 X s 2127 792 m 27 X s 2127 853 m 27 X s
 2127 914 m 27 X s 2101 974 m 53 X s 2127 1035 m 27 X s 2127 1096 m 27 X s 2127 1156 m 27 X s 2101 1217 m 53 X s 2127 1278 m 27 X s 2127 1339 m 27 X s 2127 1399 m 27 X s 2101 1460 m 53 X s 2101 489 m 53 X s 2127 428 m 27 X s 2127 367 m 27 X s 2127
 307 m 27 X s 2101 1460 m 53 X s 1 0 0 c 12 lw 1 1 1 c black 1 0 0 c 378 246 m 74 X 1 Y 14 X 1 Y 15 X 1 Y 15 X 5 Y 15 X 5 Y 15 X 13 Y 15 X 19 Y 14 X 23 Y 15 X 25 Y 15 X 37 Y 15 X 33 Y 15 X 39 Y 14 X 44 Y 15 X 32 Y 15 X 30 Y 15 X 33 Y 15 X 32 Y 14 X
 -1 Y 15 X 19 Y 15 X 7 Y 15 X -14 Y 15 X -2 Y 29 X -10 Y 15 X -16 Y 15 X 9 Y 15 X -1 Y 14 X -15 Y 15 X -4 Y 15 X 2 Y 15 X 8 Y 15 X -13 Y 14 X -21 Y 15 X 10 Y 15 X -17 Y 15 X -14 Y 15 X -16 Y 14 X -19 Y 15 X -21 Y 15 X -19 Y 15 X -18 Y 15 X -19 Y 15 X
 -21 Y 14 X -14 Y 15 X -15 Y 15 X -16 Y 15 X -11 Y 15 X -19 Y 14 X -12 Y 15 X -11 Y 15 X -9 Y 15 X -5 Y 15 X -8 Y 14 X -6 Y 15 X -5 Y 15 X -1 Y 15 X -3 Y 15 X -1 Y 14 X -5 Y 15 X -1 Y 15 X -2 Y 15 X -1 Y 15 X -1 Y 14 X -1 Y 15 X -1 Y 30 X -1 Y 15 X
 -2 Y 29 X 1 Y 15 X -5 Y 30 X -1 Y 14 X -1 Y 15 X 1 Y 15 X -1 Y 15 X -1 Y 15 X -3 Y 15 X 1 Y 14 X -1 Y 30 X -1 Y 30 X -1 Y 14 X 1 Y 15 X -2 Y 30 X -1 Y 59 X -1 Y 74 X -1 Y 15 X 1 Y 15 X -1 Y 251 X s 0 1 0 c 1 1 1 c black 0 1 0 c 378 246 m 11 Y 14 X
 32 Y 15 X 63 Y 15 X 99 Y 15 X 115 Y 15 X 101 Y 14 X 69 Y 15 X 47 Y 15 X -16 Y 15 X -36 Y 15 X -52 Y 15 X -43 Y 14 X -53 Y 15 X -42 Y 15 X -35 Y 15 X -15 Y 15 X -15 Y 14 X -4 Y 15 X -1 Y 15 X 2 Y 15 X 3 Y 15 X 8 Y 14 X -6 Y 15 X 6 Y 15 X -1 Y 15 X
 -11 Y 15 X -4 Y 14 X -1 Y 15 X -7 Y 15 X -10 Y 15 X 4 Y 29 X -9 Y 15 X -3 Y 15 X 2 Y 15 X 4 Y 15 X -7 Y 14 X -12 Y 15 X 5 Y 15 X -10 Y 15 X -7 Y 15 X -10 Y 14 X -10 Y 15 X -12 Y 15 X -11 Y 15 X -11 Y 15 X -10 Y 15 X -12 Y 14 X -8 Y 15 X -8 Y 15 X
 -10 Y 15 X -6 Y 15 X -10 Y 14 X -7 Y 15 X -7 Y 15 X -5 Y 15 X -3 Y 15 X -4 Y 14 X -4 Y 15 X -2 Y 15 X -1 Y 15 X -2 Y 15 X -1 Y 14 X -2 Y 15 X -1 Y 15 X -1 Y 15 X -1 Y 44 X -1 Y 30 X -1 Y 15 X -1 Y 44 X -2 Y 30 X -1 Y 59 X -1 Y 15 X -1 Y 29 X -1 Y 60
 X -1 Y 14 X 1 Y 15 X -1 Y 30 X -1 Y 59 X -1 Y 355 X s 0 0 1 c 1 1 1 c black 0 0 1 c 378 246 m 150 Y 14 X 195 Y 15 X 211 Y 15 X 186 Y 15 X 102 Y 15 X -1 Y 14 X -44 Y 15 X -78 Y 15 X -107 Y 15 X -104 Y 15 X -91 Y 15 X -76 Y 14 X -67 Y 15 X -49 Y 15 X
 -35 Y 15 X -19 Y 15 X -17 Y 14 X -8 Y 15 X -3 Y 15 X -1 Y 30 X 4 Y 14 X -4 Y 15 X 4 Y 15 X -1 Y 15 X -7 Y 15 X -3 Y 14 X -1 Y 15 X -4 Y 15 X -6 Y 15 X 3 Y 15 X -1 Y 14 X -5 Y 15 X -2 Y 15 X 1 Y 15 X 3 Y 15 X -5 Y 14 X -7 Y 15 X 3 Y 15 X -6 Y 15 X -5
 Y 15 X -5 Y 14 X -7 Y 15 X -7 Y 15 X -7 Y 15 X -7 Y 15 X -6 Y 15 X -7 Y 14 X -5 Y 15 X -5 Y 15 X -6 Y 15 X -4 Y 15 X -7 Y 14 X -4 Y 15 X -4 Y 15 X -3 Y 15 X -2 Y 15 X -2 Y 14 X -3 Y 15 X -1 Y 15 X -1 Y 15 X -1 Y 29 X -2 Y 30 X -1 Y 30 X -1 Y 59 X -1
 Y 59 X -2 Y 74 X -1 Y 30 X -1 Y 89 X -1 Y 14 X 1 Y 15 X -1 Y 89 X -1 Y 355 X s 1 0 1 c 1 1 1 c black 1 0 1 c 378 246 m 489 Y 14 X 360 Y 15 X 239 Y 15 X 69 Y 15 X -63 Y 15 X -146 Y 14 X -153 Y 15 X -146 Y 15 X -133 Y 15 X -112 Y 15 X -84 Y 15 X -67 Y
 14 X -53 Y 15 X -40 Y 15 X -27 Y 15 X -14 Y 15 X -12 Y 14 X -6 Y 15 X -3 Y 45 X 2 Y 14 X -2 Y 15 X 2 Y 15 X -1 Y 15 X -5 Y 15 X -1 Y 14 X -1 Y 15 X -3 Y 15 X -4 Y 15 X 2 Y 29 X -4 Y 15 X -1 Y 30 X 2 Y 15 X -3 Y 14 X -5 Y 15 X 2 Y 15 X -4 Y 15 X -3 Y
 15 X -4 Y 14 X -4 Y 15 X -5 Y 15 X -5 Y 15 X -4 Y 15 X -4 Y 15 X -5 Y 14 X -4 Y 15 X -3 Y 15 X -4 Y 15 X -3 Y 15 X -4 Y 14 X -3 Y 15 X -3 Y 15 X -2 Y 15 X -1 Y 15 X -2 Y 14 X -1 Y 15 X -1 Y 15 X -1 Y 15 X -1 Y 29 X -1 Y 30 X -1 Y 74 X -1 Y 74 X -1 Y
 44 X -1 Y 60 X -1 Y 15 X 1 Y 14 X -1 Y 119 X -1 Y 414 X s black
 gsave  2268 1538 0 0 C 905.783 1309.8 t 0 r /Helvetica-BoldOblique findfont 71.6807 sf 0 0 m (ATLAS) show NC gr 
 gsave  2268 1538 0 0 C 1176.22 1309.8 t 0 r /Helvetica findfont 71.6807 sf 0 0 m (Simulation Internal) show NC gr 
 gsave  2268 1538 0 0 C 905.783 1231.6 t 0 r /Helvetica findfont 71.6807 sf 0 0 m (ITk Inclined) show NC gr 
 gsave  2268 1538 0 0 C 1065.44 1153.41 t 0 r /Helvetica findfont 71.6807 sf 0 0 m (> = 200) show NC gr 
 gsave  2268 1538 0 0 C 1023.08 1153.41 t 0 r /Symbol findfont 71.6807 sf 0 0 m (m) show NC gr 
 gsave  2268 1538 0 0 C 944.882 1153.41 t 0 r /Helvetica findfont 71.6807 sf 0 0 m (, <) show NC gr 
 gsave  2268 1538 0 0 C 925.333 1153.41 t 0 r /Helvetica findfont 71.6807 sf 0 0 m (t) show NC gr  6 lw 925 1209 m 20 X s
 gsave  2268 1538 0 0 C 905.783 1153.41 t 0 r /Helvetica findfont 71.6807 sf 0 0 m (t) show NC gr  1 1 1 c 3 lw 340 308 1542 738 bf black
 gsave  2268 1538 0 0 C 1625.85 1003.53 t 0 r /Helvetica-Bold findfont 71.6807 sf 0 0 m (Layer 0) show NC gr  12 lw 1555 1015 m 59 X s
 gsave  2268 1538 0 0 C 1625.85 941.624 t 0 r /Helvetica-Bold findfont 71.6807 sf 0 0 m (Layer 1) show NC gr  1 0 0 c 1555 953 m 59 X s black
 gsave  2268 1538 0 0 C 1625.85 879.718 t 0 r /Helvetica-Bold findfont 71.6807 sf 0 0 m (Layer 2) show NC gr  0 1 0 c 1555 892 m 59 X s black
 gsave  2268 1538 0 0 C 1625.85 817.812 t 0 r /Helvetica-Bold findfont 71.6807 sf 0 0 m (Layer 3) show NC gr  0 0 1 c 1555 830 m 59 X s black
 gsave  2268 1538 0 0 C 1625.85 755.906 t 0 r /Helvetica-Bold findfont 71.6807 sf 0 0 m (Layer 4) show NC gr  1 0 1 c 1555 769 m 59 X s
 gr  gr showpage
end
%%EOF
