%!PS-Adobe-2.0 EPSF-2.0
%%BoundingBox:  0 0 567 384
%%Title: plots/pixels/barrel/cumu_hits_perchip_extended.eps: c1
%%Creator: ROOT Version 5.34/36
%%CreationDate: Mon Apr 10 13:14:50 2017
%%EndComments
%%BeginProlog
80 dict begin
/s {stroke} def /l {lineto} def /m {moveto} def /t {translate} def
/r {rotate} def /rl {roll}  def /R {repeat} def
/d {rlineto} def /rm {rmoveto} def /gr {grestore} def /f {eofill} def
/c {setrgbcolor} def /black {0 setgray} def /sd {setdash} def
/cl {closepath} def /sf {scalefont setfont} def /lw {setlinewidth} def
/box {m dup 0 exch d exch 0 d 0 exch neg d cl} def
/NC{systemdict begin initclip end}def/C{NC box clip newpath}def
/bl {box s} def /bf {gsave box gsave f grestore 1 lw [] 0 sd s grestore} def /Y { 0 exch d} def /X { 0 d} def 
/K {{pop pop 0 moveto} exch kshow} bind def
/ita {/ang 15 def gsave [1 0 ang dup sin exch cos div 1 0 0] concat} def 
/mp {newpath /y exch def /x exch def} def
/side {[w .77 mul w .23 mul] .385 w mul sd w 0 l currentpoint t -144 r} def
/mr {mp x y w2 0 360 arc} def /m24 {mr s} def /m20 {mr f} def
/mb {mp x y w2 add m w2 neg 0 d 0 w neg d w 0 d 0 w d cl} def
/mt {mp x y w2 add m w2 neg w neg d w 0 d cl} def
/m21 {mb f} def /m25 {mb s} def /m22 {mt f} def /m26{mt s} def
/m23 {mp x y w2 sub m w2 w d w neg 0 d cl f} def
/m27 {mp x y w2 add m w3 neg w2 neg d w3 w2 neg d w3 w2 d cl s} def
/m28 {mp x w2 sub y w2 sub w3 add m w3 0 d  0 w3 neg d w3 0 d 0 w3 d w3 0 d  0 w3 d w3 neg 0 d 0 w3 d w3 neg 0 d 0 w3 neg d w3 neg 0 d cl s } def
/m29 {mp gsave x w2 sub y w2 add w3 sub m currentpoint t 4 {side} repeat cl fill gr} def
/m30 {mp gsave x w2 sub y w2 add w3 sub m currentpoint t 4 {side} repeat cl s gr} def
/m31 {mp x y w2 sub m 0 w d x w2 sub y m w 0 d x w2 sub y w2 add m w w neg d x w2 sub y w2 sub m w w d s} def
/m32 {mp x y w2 sub m w2 w d w neg 0 d cl s} def
/m33 {mp x y w2 add m w3 neg w2 neg d w3 w2 neg d w3 w2 d cl f} def
/m34 {mp x w2 sub y w2 sub w3 add m w3 0 d  0 w3 neg d w3 0 d 0 w3 d w3 0 d  0 w3 d w3 neg 0 d 0 w3 d w3 neg 0 d 0 w3 neg d w3 neg 0 d cl f } def
/m2 {mp x y w2 sub m 0 w d x w2 sub y m w 0 d s} def
/m5 {mp x w2 sub y w2 sub m w w d x w2 sub y w2 add m w w neg d s} def
/reEncode {exch findfont dup length dict begin {1 index /FID eq  {pop pop} {def} ifelse } forall /Encoding exch def currentdict end dup /FontName get exch definefont pop } def [/Times-Bold /Times-Italic /Times-BoldItalic /Helvetica /Helvetica-Oblique
 /Helvetica-Bold /Helvetica-BoldOblique /Courier /Courier-Oblique /Courier-Bold /Courier-BoldOblique /Times-Roman /AvantGarde-Book /AvantGarde-BookOblique /AvantGarde-Demi /AvantGarde-DemiOblique /Bookman-Demi /Bookman-DemiItalic /Bookman-Light
 /Bookman-LightItalic /Helvetica-Narrow /Helvetica-Narrow-Bold /Helvetica-Narrow-BoldOblique /Helvetica-Narrow-Oblique /NewCenturySchlbk-Roman /NewCenturySchlbk-Bold /NewCenturySchlbk-BoldItalic /NewCenturySchlbk-Italic /Palatino-Bold
 /Palatino-BoldItalic /Palatino-Italic /Palatino-Roman ] {ISOLatin1Encoding reEncode } forall
%%EndProlog
%%BeginSetup
%%EndSetup
newpath  gsave  .25 .25 scale  gsave  0 0 t black[  ] 0 sd 3 lw 1 1 1 c 2268 1538 0 0 bf black 1 1 1 c 1791 1215 363 246 bf black 1791 1215 363 246 bl 1 1 1 c 1791 1215 363 246 bf black 1791 1215 363 246 bl 12 lw 1 1 1 c black 363 246 m 9 X 1 Y 6 X 1
 Y 9 X 1 Y 3 X 1 Y 4 X 1 Y 5 X 1 Y 2 X 1 Y 4 X 1 Y 3 X 1 Y 2 X 1 Y 4 X 1 Y 3 X 1 Y 2 X 1 Y 2 X 1 Y 2 X 1 Y 2 X 1 Y 3 X 1 Y 2 X 1 Y 2 X 1 Y 2 X 1 Y 3 X 1 Y 2 X 2 Y 2 X 1 Y 2 X 1 Y 3 X 2 Y 2 X 1 Y 2 X 1 Y 2 X 2 Y 3 X 1 Y 2 X 2 Y 2 X 1 Y 2 X 1 Y 2 X 2 Y
 3 X 2 Y 2 X 1 Y 2 X 2 Y 2 X 2 Y 3 X 2 Y 2 X 1 Y 2 X 2 Y 2 X 2 Y 3 X 2 Y 2 X 2 Y 2 X 2 Y 2 X 2 Y 3 X 2 Y 2 X 3 Y 2 X 2 Y 2 X 2 Y 3 X 3 Y 2 X 2 Y 2 X 3 Y 2 X 2 Y 2 X 3 Y 3 X 2 Y 2 X 3 Y 2 X 3 Y 2 X 3 Y 3 X 3 Y 2 X 3 Y 2 X 4 Y 2 X 3 Y 3 X 3 Y 2 X 4 Y 2
 X 4 Y 2 X 3 Y 3 X 4 Y 2 X 4 Y 2 X 4 Y 2 X 4 Y 2 X 5 Y 3 X 4 Y 2 X 5 Y 2 X 4 Y 2 X 4 Y 3 X 5 Y 2 X 4 Y 2 X 5 Y 2 X 5 Y 3 X 5 Y 2 X 5 Y 2 X 6 Y 2 X 5 Y 3 X 5 Y 2 X 5 Y 2 X 6 Y 2 X 6 Y 2 X 5 Y 3 X 6 Y 2 X 6 Y 2 X 6 Y 2 X 6 Y 3 X 6 Y 2 X 6 Y 2 X 6 Y 2 X
 7 Y 3 X 6 Y 2 X 6 Y 2 X 6 Y 2 X 7 Y 3 X 6 Y 2 X 7 Y 2 X 6 Y 2 X 7 Y 3 X 6 Y 2 X 7 Y 2 X 6 Y 2 X 6 Y 2 X 7 Y 3 X 6 Y 2 X 7 Y 2 X 7 Y 2 X 6 Y 3 X 7 Y 2 X 6 Y 2 X 7 Y 2 X 7 Y 3 X 6 Y 2 X 7 Y 2 X 6 Y 2 X 7 Y 3 X 7 Y 2 X 6 Y 2 X 7 Y 2 X 6 Y 2 X 7 Y 3 X 6
 Y 2 X 6 Y 2 X 7 Y 2 X 7 Y 3 X 6 Y 2 X 7 Y 2 X 6 Y 2 X 7 Y 3 X 6 Y 2 X 6 Y 2 X 6 Y 2 X 7 Y 3 X 6 Y 2 X 7 Y 2 X 6 Y 2 X 6 Y 3 X 6 Y 2 X 6 Y 2 X 7 Y 2 X 6 Y 2 X 6 Y 3 X 6 Y 2 X 6 Y 2 X 6 Y 2 X 5 Y 3 X 6 Y 2 X 6 Y 2 X 6 Y 2 X 5 Y 3 X 6 Y 2 X 6 Y 2 X 5 Y
 2 X 6 Y 3 X 5 Y 2 X 5 Y 2 X 5 Y 2 X 6 Y 2 X 5 Y 3 X 5 Y 2 X 5 Y 2 X 6 Y 2 X 5 Y 3 X 5 Y 2 X 4 Y 2 X 5 Y 2 X 5 Y 3 X 5 Y 2 X 5 Y 2 X 4 Y 2 X 5 Y 3 X 5 Y 2 X 4 Y 2 X 4 Y 2 X 5 Y 2 X 4 Y 3 X 5 Y 2 X 4 Y 2 X 4 Y 2 X 4 Y 3 X 4 Y 2 X 4 Y 2 X 4 Y 2 X 4 Y 3
 X 5 Y 2 X 4 Y 2 X 4 Y 2 X 4 Y 3 X 3 Y 2 X 4 Y 2 X 4 Y 2 X 4 Y 3 X 4 Y 2 X 4 Y 2 X 4 Y 2 X 3 Y 2 X 3 Y 3 X 4 Y 2 X 4 Y 2 X 3 Y 2 X 4 Y 3 X 4 Y 2 X 3 Y 2 X 3 Y 2 X 4 Y 3 X 3 Y 2 X 3 Y 2 X 3 Y 2 X 3 Y 3 X 4 Y 2 X 3 Y 2 X 3 Y 2 X 3 Y 2 X 2 Y 3 X 3 Y 2 X
 3 Y 2 X 3 Y 2 X 3 Y 3 X 2 Y 2 X 3 Y 2 X 3 Y 2 X 2 Y 3 X 3 Y 2 X 3 Y 2 X 2 Y 2 X 3 Y 3 X 2 Y 2 X 3 Y 2 X 2 Y 2 X 3 Y 3 X 2 Y 2 X 3 Y 2 X 2 Y 2 X 3 Y 2 X 2 Y 3 X 2 Y 2 X 2 Y 2 X 2 Y 2 X 3 Y 3 X 2 Y 2 X 2 Y 2 X 2 Y 2 X 2 Y 3 X 3 Y 2 X 2 Y 2 X 2 Y 2 X 2
 Y 3 X 2 Y 2 X 1 Y 2 X 2 Y 2 X 3 Y 2 X 2 Y 3 X 2 Y 2 X 1 Y 2 X 2 Y 2 X 2 Y 3 X 2 Y 2 X 2 Y 2 X 1 Y 2 X 2 Y 3 X 2 Y 2 X 1 Y 2 X 2 Y 2 X 2 Y 3 X 1 Y 2 X 2 Y 2 X 1 Y 2 X 2 Y 2 X 1 Y 3 X 2 Y 2 X 1 Y 2 X 2 Y 2 X 1 Y 3 X 1 Y 2 X 2 Y 2 X 1 Y 2 X 2 Y 3 X 1 Y
 2 X 2 Y 2 X 1 Y 2 X 1 Y 3 X 2 Y 2 X 1 Y 2 X 1 Y 2 X 2 Y 3 X 1 Y 2 X 1 Y 2 X 1 Y 2 X 2 Y 2 X 1 Y 3 X 1 Y 2 X 1 Y 2 X 1 Y 2 X 1 Y 3 X 2 Y 2 X 1 Y 2 X 1 Y 2 X 1 Y 3 X 1 Y 2 X 1 Y 2 X 1 Y 2 X 1 Y 3 X 1 Y 2 X 1 Y 4 X 1 Y 2 X 1 Y 3 X 1 Y 2 X 1 Y 2 X 1 Y 2
 X 1 Y 3 X 1 Y 4 X 1 Y 2 X 1 Y 3 X 1 Y 2 X 1 Y 4 X 1 Y 3 X 1 Y 2 X 1 Y 2 X 1 Y 2 X 1 Y 5 X 1 Y 2 X 1 Y 4 X 1 Y 3 X 1 Y 4 X 1 Y 2 X 1 Y 3 X 1 Y 4 X 1 Y 2 X 1 Y 5 X 1 Y 4 X 1 Y 3 X 1 Y 4 X 1 Y 4 X 1 Y 3 X 1 Y 4 X 1 Y 5 X 1 Y 4 X 1 Y 5 X 1 Y 4 X 1 Y 5 X
 1 Y 4 X 1 Y 4 X 1 Y 5 X 1 Y 4 X 1 Y 5 X 1 Y 4 X 1 Y 7 X 1 Y 7 X 1 Y 4 X 1 Y 7 X 1 Y 7 X 1 Y 4 X 1 Y 7 X 1 Y 7 X 1 Y 6 X 1 Y 9 X 1 Y 7 X 1 Y 11 X 1 Y 9 X 1 Y 9 X 1 Y 11 X 1 Y 11 X 1 Y 12 X 1 Y 11 X 1 Y 13 X 1 Y 11 X 1 Y 14 X 1 Y 15 X 1 Y 18 X 1 Y 20
 X 1 Y 21 X 1 Y 17 X 1 Y 27 X 1 Y 25 X 1 Y 33 X 1 Y 41 X 1 Y 40 X 1 Y 49 X 1 Y 72 X 1 Y 143 X 1 Y 221 X s 3 lw 363 246 m 1791 X s
 gsave  2268 1538 0 0 C 1756.18 114.037 t 0 r /Helvetica findfont 71.6807 sf 0 0 m (Hits per chip) show NC gr  364 283 m -37 Y s 409 264 m -18 Y s 453 264 m -18 Y s 498 264 m -18 Y s 543 264 m -18 Y s 588 283 m -37 Y s 632 264 m -18 Y s 677 264 m -18
 Y s 722 264 m -18 Y s 767 264 m -18 Y s 811 283 m -37 Y s 856 264 m -18 Y s 901 264 m -18 Y s 945 264 m -18 Y s 990 264 m -18 Y s 1035 283 m -37 Y s 1080 264 m -18 Y s 1124 264 m -18 Y s 1169 264 m -18 Y s 1214 264 m -18 Y s 1259 283 m -37 Y s 1303
 264 m -18 Y s 1348 264 m -18 Y s 1393 264 m -18 Y s 1438 264 m -18 Y s 1482 283 m -37 Y s 1527 264 m -18 Y s 1572 264 m -18 Y s 1616 264 m -18 Y s 1661 264 m -18 Y s 1706 283 m -37 Y s 1751 264 m -18 Y s 1795 264 m -18 Y s 1840 264 m -18 Y s 1885
 264 m -18 Y s 1930 283 m -37 Y s 1974 264 m -18 Y s 2019 264 m -18 Y s 2064 264 m -18 Y s 2108 264 m -18 Y s 2153 283 m -37 Y s 364 283 m -37 Y s 2153 283 m -37 Y s
 gsave  2268 1538 0 0 C 342.112 179.202 t 0 r /Helvetica findfont 71.6807 sf 0 0 m (0) show NC gr 
 gsave  2268 1538 0 0 C 527.831 179.202 t 0 r /Helvetica findfont 71.6807 sf 0 0 m (100) show NC gr 
 gsave  2268 1538 0 0 C 749.389 179.202 t 0 r /Helvetica findfont 71.6807 sf 0 0 m (200) show NC gr 
 gsave  2268 1538 0 0 C 974.206 179.202 t 0 r /Helvetica findfont 71.6807 sf 0 0 m (300) show NC gr 
 gsave  2268 1538 0 0 C 1199.02 179.202 t 0 r /Helvetica findfont 71.6807 sf 0 0 m (400) show NC gr 
 gsave  2268 1538 0 0 C 1420.58 179.202 t 0 r /Helvetica findfont 71.6807 sf 0 0 m (500) show NC gr 
 gsave  2268 1538 0 0 C 1645.4 179.202 t 0 r /Helvetica findfont 71.6807 sf 0 0 m (600) show NC gr 
 gsave  2268 1538 0 0 C 1870.21 179.202 t 0 r /Helvetica findfont 71.6807 sf 0 0 m (700) show NC gr 
 gsave  2268 1538 0 0 C 2091.77 179.202 t 0 r /Helvetica findfont 71.6807 sf 0 0 m (800) show NC gr  363 1461 m 1791 X s 364 1425 m 36 Y s 409 1443 m 18 Y s 453 1443 m 18 Y s 498 1443 m 18 Y s 543 1443 m 18 Y s 588 1425 m 36 Y s 632 1443 m 18 Y s 677
 1443 m 18 Y s 722 1443 m 18 Y s 767 1443 m 18 Y s 811 1425 m 36 Y s 856 1443 m 18 Y s 901 1443 m 18 Y s 945 1443 m 18 Y s 990 1443 m 18 Y s 1035 1425 m 36 Y s 1080 1443 m 18 Y s 1124 1443 m 18 Y s 1169 1443 m 18 Y s 1214 1443 m 18 Y s 1259 1425 m 36
 Y s 1303 1443 m 18 Y s 1348 1443 m 18 Y s 1393 1443 m 18 Y s 1438 1443 m 18 Y s 1482 1425 m 36 Y s 1527 1443 m 18 Y s 1572 1443 m 18 Y s 1616 1443 m 18 Y s 1661 1443 m 18 Y s 1706 1425 m 36 Y s 1751 1443 m 18 Y s 1795 1443 m 18 Y s 1840 1443 m 18 Y
 s 1885 1443 m 18 Y s 1930 1425 m 36 Y s 1974 1443 m 18 Y s 2019 1443 m 18 Y s 2064 1443 m 18 Y s 2108 1443 m 18 Y s 2153 1425 m 36 Y s 364 1425 m 36 Y s 2153 1425 m 36 Y s 363 246 m 1215 Y s
 gsave  2268 1538 0 0 C 127.07 850.394 t 90 r /Helvetica findfont 71.6807 sf 0 0 m (Cumulative Integral) show NC gr  417 246 m -54 X s 390 304 m -27 X s 390 362 m -27 X s 390 420 m -27 X s 417 477 m -54 X s 390 535 m -27 X s 390 593 m -27 X s 390 651
 m -27 X s 417 709 m -54 X s 390 767 m -27 X s 390 825 m -27 X s 390 882 m -27 X s 417 940 m -54 X s 390 998 m -27 X s 390 1056 m -27 X s 390 1114 m -27 X s 417 1172 m -54 X s 390 1230 m -27 X s 390 1287 m -27 X s 390 1345 m -27 X s 417 1403 m -54 X
 s 417 1403 m -54 X s 390 1461 m -27 X s
 gsave  2268 1538 0 0 C 309.53 221.559 t 0 r /Helvetica findfont 71.6807 sf 0 0 m (0) show NC gr 
 gsave  2268 1538 0 0 C 250.882 452.892 t 0 r /Helvetica findfont 71.6807 sf 0 0 m (0.2) show NC gr 
 gsave  2268 1538 0 0 C 250.882 684.225 t 0 r /Helvetica findfont 71.6807 sf 0 0 m (0.4) show NC gr 
 gsave  2268 1538 0 0 C 250.882 915.558 t 0 r /Helvetica findfont 71.6807 sf 0 0 m (0.6) show NC gr 
 gsave  2268 1538 0 0 C 250.882 1146.89 t 0 r /Helvetica findfont 71.6807 sf 0 0 m (0.8) show NC gr 
 gsave  2268 1538 0 0 C 322.563 1374.97 t 0 r /Helvetica findfont 71.6807 sf 0 0 m (1) show NC gr  2154 246 m 1215 Y s 2101 246 m 53 X s 2127 304 m 27 X s 2127 362 m 27 X s 2127 420 m 27 X s 2101 477 m 53 X s 2127 535 m 27 X s 2127 593 m 27 X s 2127
 651 m 27 X s 2101 709 m 53 X s 2127 767 m 27 X s 2127 825 m 27 X s 2127 882 m 27 X s 2101 940 m 53 X s 2127 998 m 27 X s 2127 1056 m 27 X s 2127 1114 m 27 X s 2101 1172 m 53 X s 2127 1230 m 27 X s 2127 1287 m 27 X s 2127 1345 m 27 X s 2101 1403 m 53
 X s 2101 1403 m 53 X s 2127 1461 m 27 X s 1 0 0 c 12 lw 1 1 1 c black 1 0 0 c 365 246 m 3 Y 2 X 4 Y 3 X 4 Y 2 X 5 Y 2 X 5 Y 2 X 5 Y 2 X 5 Y 3 X 5 Y 2 X 5 Y 2 X 6 Y 2 X 5 Y 3 X 6 Y 2 X 5 Y 2 X 6 Y 2 X 6 Y 3 X 7 Y 2 X 7 Y 2 X 7 Y 2 X 8 Y 3 X 8 Y 2 X 8
 Y 2 X 9 Y 2 X 9 Y 3 X 9 Y 2 X 10 Y 2 X 10 Y 2 X 10 Y 2 X 11 Y 3 X 10 Y 2 X 11 Y 2 X 12 Y 2 X 11 Y 3 X 12 Y 2 X 12 Y 2 X 11 Y 2 X 12 Y 3 X 12 Y 2 X 11 Y 2 X 12 Y 2 X 11 Y 3 X 12 Y 2 X 11 Y 2 X 11 Y 2 X 12 Y 2 X 11 Y 3 X 10 Y 2 X 11 Y 2 X 10 Y 2 X 10
 Y 3 X 10 Y 2 X 10 Y 2 X 10 Y 2 X 10 Y 3 X 9 Y 2 X 9 Y 2 X 9 Y 2 X 9 Y 3 X 8 Y 2 X 9 Y 2 X 8 Y 2 X 8 Y 3 X 8 Y 2 X 8 Y 2 X 7 Y 2 X 8 Y 2 X 7 Y 3 X 7 Y 2 X 7 Y 2 X 7 Y 2 X 7 Y 3 X 7 Y 2 X 6 Y 2 X 7 Y 2 X 6 Y 3 X 7 Y 2 X 6 Y 2 X 6 Y 2 X 6 Y 3 X 5 Y 2 X
 6 Y 2 X 6 Y 2 X 5 Y 2 X 6 Y 3 X 5 Y 2 X 5 Y 2 X 6 Y 2 X 4 Y 3 X 5 Y 2 X 5 Y 2 X 5 Y 2 X 5 Y 3 X 5 Y 2 X 5 Y 2 X 4 Y 2 X 5 Y 3 X 4 Y 2 X 5 Y 2 X 4 Y 2 X 5 Y 2 X 4 Y 3 X 4 Y 2 X 5 Y 2 X 4 Y 2 X 4 Y 3 X 4 Y 2 X 4 Y 2 X 4 Y 2 X 5 Y 3 X 4 Y 2 X 4 Y 2 X 3
 Y 2 X 4 Y 3 X 4 Y 2 X 4 Y 2 X 4 Y 2 X 3 Y 3 X 4 Y 2 X 4 Y 2 X 3 Y 2 X 4 Y 2 X 3 Y 3 X 4 Y 2 X 3 Y 2 X 4 Y 2 X 3 Y 3 X 3 Y 2 X 4 Y 2 X 3 Y 2 X 3 Y 3 X 3 Y 2 X 4 Y 2 X 3 Y 2 X 3 Y 3 X 3 Y 2 X 3 Y 2 X 3 Y 2 X 3 Y 2 X 3 Y 3 X 3 Y 2 X 3 Y 2 X 3 Y 2 X 3 Y
 3 X 3 Y 2 X 2 Y 2 X 3 Y 2 X 3 Y 3 X 3 Y 2 X 3 Y 2 X 2 Y 2 X 3 Y 3 X 3 Y 2 X 2 Y 2 X 3 Y 2 X 3 Y 3 X 2 Y 2 X 3 Y 2 X 2 Y 2 X 3 Y 2 X 2 Y 3 X 3 Y 2 X 2 Y 2 X 2 Y 2 X 3 Y 3 X 2 Y 2 X 2 Y 2 X 3 Y 2 X 2 Y 3 X 2 Y 2 X 3 Y 2 X 2 Y 2 X 2 Y 3 X 2 Y 2 X 2 Y 2
 X 2 Y 2 X 2 Y 2 X 2 Y 3 X 2 Y 2 X 2 Y 2 X 2 Y 2 X 2 Y 3 X 2 Y 2 X 2 Y 2 X 2 Y 2 X 2 Y 3 X 1 Y 2 X 2 Y 2 X 2 Y 2 X 2 Y 3 X 1 Y 2 X 2 Y 2 X 2 Y 2 X 1 Y 2 X 2 Y 3 X 2 Y 2 X 1 Y 2 X 2 Y 2 X 1 Y 3 X 2 Y 2 X 2 Y 2 X 1 Y 2 X 2 Y 3 X 1 Y 2 X 2 Y 2 X 1 Y 2 X
 2 Y 3 X 1 Y 2 X 1 Y 2 X 2 Y 2 X 1 Y 3 X 2 Y 2 X 1 Y 2 X 1 Y 2 X 2 Y 2 X 1 Y 3 X 1 Y 2 X 2 Y 2 X 1 Y 2 X 1 Y 3 X 2 Y 2 X 1 Y 2 X 1 Y 2 X 1 Y 3 X 2 Y 2 X 1 Y 2 X 1 Y 2 X 1 Y 3 X 1 Y 2 X 1 Y 2 X 1 Y 2 X 1 Y 2 X 1 Y 3 X 1 Y 2 X 1 Y 2 X 1 Y 2 X 1 Y 3 X 1
 Y 2 X 1 Y 2 X 1 Y 2 X 1 Y 3 X 1 Y 2 X 1 Y 2 X 1 Y 2 X 1 Y 3 X 1 Y 2 X 1 Y 2 X 1 Y 2 X 1 Y 5 X 1 Y 2 X 1 Y 2 X 1 Y 2 X 1 Y 3 X 1 Y 4 X 1 Y 2 X 1 Y 3 X 1 Y 4 X 1 Y 2 X 1 Y 3 X 1 Y 2 X 1 Y 4 X 1 Y 3 X 1 Y 4 X 1 Y 2 X 1 Y 5 X 1 Y 2 X 1 Y 4 X 1 Y 3 X 1 Y
 4 X 1 Y 2 X 1 Y 5 X 1 Y 4 X 1 Y 5 X 1 Y 4 X 1 Y 2 X 1 Y 5 X 1 Y 4 X 1 Y 5 X 1 Y 4 X 1 Y 5 X 1 Y 4 X 1 Y 7 X 1 Y 5 X 1 Y 4 X 1 Y 4 X 1 Y 7 X 1 Y 5 X 1 Y 6 X 1 Y 7 X 1 Y 7 X 1 Y 6 X 1 Y 7 X 1 Y 9 X 1 Y 7 X 1 Y 7 X 1 Y 9 X 1 Y 8 X 1 Y 9 X 1 Y 9 X 1 Y
 12 X 1 Y 11 X 1 Y 11 X 1 Y 11 X 1 Y 13 X 1 Y 14 X 1 Y 16 X 1 Y 17 X 1 Y 18 X 1 Y 20 X 1 Y 27 X 1 Y 29 X 1 Y 34 X 1 Y 38 X 1 Y 54 X 1 Y 62 X 1 Y 99 X 1 Y 165 X 1 Y 351 X s 0 1 0 c 1 1 1 c black 0 1 0 c 365 246 m 10 Y 2 X 13 Y 3 X 15 Y 2 X 17 Y 2 X 17
 Y 2 X 19 Y 2 X 19 Y 3 X 20 Y 2 X 20 Y 2 X 20 Y 2 X 21 Y 3 X 21 Y 2 X 21 Y 2 X 20 Y 2 X 20 Y 3 X 20 Y 2 X 19 Y 2 X 19 Y 2 X 18 Y 3 X 17 Y 2 X 17 Y 2 X 16 Y 2 X 16 Y 3 X 15 Y 2 X 15 Y 2 X 15 Y 2 X 14 Y 2 X 14 Y 3 X 13 Y 2 X 13 Y 2 X 13 Y 2 X 13 Y 3 X
 12 Y 2 X 12 Y 2 X 11 Y 2 X 12 Y 3 X 11 Y 2 X 11 Y 2 X 10 Y 2 X 10 Y 3 X 10 Y 2 X 10 Y 2 X 9 Y 2 X 9 Y 2 X 8 Y 3 X 9 Y 2 X 8 Y 2 X 8 Y 2 X 8 Y 3 X 7 Y 2 X 7 Y 2 X 7 Y 2 X 7 Y 3 X 7 Y 2 X 6 Y 2 X 7 Y 2 X 6 Y 3 X 6 Y 2 X 6 Y 2 X 5 Y 2 X 6 Y 3 X 5 Y 2 X
 5 Y 2 X 5 Y 2 X 5 Y 2 X 5 Y 3 X 4 Y 2 X 5 Y 2 X 4 Y 2 X 5 Y 3 X 4 Y 2 X 4 Y 2 X 4 Y 2 X 4 Y 3 X 4 Y 2 X 4 Y 2 X 4 Y 2 X 4 Y 3 X 3 Y 2 X 4 Y 2 X 3 Y 2 X 3 Y 2 X 4 Y 3 X 3 Y 2 X 3 Y 2 X 3 Y 2 X 3 Y 3 X 3 Y 2 X 3 Y 2 X 3 Y 2 X 3 Y 3 X 3 Y 2 X 3 Y 2 X 3
 Y 2 X 2 Y 3 X 3 Y 2 X 3 Y 2 X 2 Y 2 X 3 Y 2 X 2 Y 3 X 3 Y 2 X 3 Y 2 X 2 Y 2 X 3 Y 3 X 2 Y 2 X 2 Y 2 X 3 Y 2 X 2 Y 3 X 3 Y 2 X 2 Y 2 X 2 Y 2 X 2 Y 3 X 3 Y 2 X 2 Y 2 X 2 Y 2 X 2 Y 3 X 2 Y 2 X 3 Y 2 X 2 Y 2 X 2 Y 2 X 2 Y 3 X 2 Y 2 X 2 Y 2 X 2 Y 2 X 2 Y
 3 X 2 Y 2 X 2 Y 2 X 1 Y 2 X 2 Y 3 X 2 Y 2 X 2 Y 2 X 2 Y 2 X 2 Y 3 X 2 Y 2 X 1 Y 2 X 2 Y 2 X 2 Y 2 X 2 Y 3 X 1 Y 2 X 2 Y 2 X 2 Y 2 X 1 Y 3 X 2 Y 2 X 2 Y 2 X 1 Y 2 X 2 Y 3 X 2 Y 2 X 1 Y 2 X 2 Y 2 X 1 Y 3 X 2 Y 2 X 1 Y 2 X 2 Y 2 X 2 Y 3 X 1 Y 2 X 1 Y 2
 X 2 Y 2 X 1 Y 2 X 2 Y 3 X 1 Y 2 X 2 Y 2 X 1 Y 2 X 1 Y 3 X 2 Y 2 X 1 Y 2 X 1 Y 2 X 2 Y 3 X 1 Y 2 X 1 Y 2 X 2 Y 2 X 1 Y 3 X 1 Y 2 X 1 Y 2 X 1 Y 2 X 2 Y 2 X 1 Y 3 X 1 Y 2 X 1 Y 2 X 1 Y 2 X 1 Y 3 X 1 Y 2 X 1 Y 2 X 2 Y 2 X 1 Y 3 X 1 Y 2 X 1 Y 2 X 1 Y 2 X
 1 Y 3 X 1 Y 2 X 1 Y 2 X 1 Y 2 X 1 Y 2 X 1 Y 3 X 1 Y 4 X 1 Y 2 X 1 Y 3 X 1 Y 2 X 1 Y 2 X 1 Y 2 X 1 Y 3 X 1 Y 2 X 1 Y 4 X 1 Y 3 X 1 Y 2 X 1 Y 2 X 1 Y 2 X 1 Y 5 X 1 Y 2 X 1 Y 2 X 1 Y 5 X 1 Y 2 X 1 Y 2 X 1 Y 2 X 1 Y 5 X 1 Y 2 X 1 Y 5 X 1 Y 2 X 1 Y 4 X 1
 Y 3 X 1 Y 4 X 1 Y 2 X 1 Y 5 X 1 Y 4 X 1 Y 2 X 1 Y 5 X 1 Y 4 X 1 Y 5 X 1 Y 4 X 1 Y 5 X 1 Y 4 X 1 Y 5 X 1 Y 2 X 1 Y 7 X 1 Y 4 X 1 Y 5 X 1 Y 4 X 1 Y 7 X 1 Y 4 X 1 Y 5 X 1 Y 6 X 1 Y 5 X 1 Y 7 X 1 Y 6 X 1 Y 7 X 1 Y 7 X 1 Y 6 X 1 Y 9 X 1 Y 7 X 1 Y 9 X 1 Y
 7 X 1 Y 9 X 1 Y 9 X 1 Y 9 X 1 Y 11 X 1 Y 13 X 1 Y 11 X 1 Y 14 X 1 Y 13 X 1 Y 16 X 1 Y 16 X 1 Y 17 X 1 Y 23 X 1 Y 22 X 1 Y 27 X 1 Y 29 X 1 Y 38 X 1 Y 52 X 1 Y 64 X 1 Y 99 X 1 Y 185 X 1 Y 443 X s 0 0 1 c 1 1 1 c black 0 0 1 c 365 246 m 19 Y 2 X 25 Y 3
 X 31 Y 2 X 35 Y 2 X 33 Y 2 X 35 Y 2 X 34 Y 3 X 35 Y 2 X 33 Y 2 X 33 Y 2 X 32 Y 3 X 30 Y 2 X 29 Y 2 X 27 Y 2 X 26 Y 3 X 23 Y 2 X 23 Y 2 X 21 Y 2 X 21 Y 3 X 18 Y 2 X 18 Y 2 X 17 Y 2 X 16 Y 3 X 15 Y 2 X 14 Y 2 X 14 Y 2 X 13 Y 2 X 13 Y 3 X 11 Y 2 X 12 Y
 2 X 11 Y 2 X 10 Y 3 X 10 Y 2 X 10 Y 2 X 9 Y 2 X 9 Y 3 X 8 Y 2 X 9 Y 2 X 8 Y 2 X 7 Y 3 X 8 Y 2 X 7 Y 2 X 7 Y 2 X 6 Y 2 X 7 Y 3 X 6 Y 2 X 6 Y 2 X 5 Y 2 X 6 Y 3 X 5 Y 2 X 6 Y 2 X 5 Y 2 X 4 Y 3 X 5 Y 2 X 5 Y 2 X 4 Y 2 X 4 Y 3 X 4 Y 2 X 4 Y 2 X 4 Y 2 X 4
 Y 3 X 4 Y 2 X 3 Y 2 X 4 Y 2 X 3 Y 2 X 3 Y 3 X 3 Y 2 X 4 Y 2 X 3 Y 2 X 3 Y 3 X 2 Y 2 X 3 Y 2 X 3 Y 2 X 3 Y 3 X 3 Y 2 X 2 Y 2 X 3 Y 2 X 2 Y 3 X 2 Y 2 X 3 Y 2 X 2 Y 2 X 2 Y 2 X 3 Y 3 X 2 Y 2 X 2 Y 2 X 2 Y 2 X 2 Y 3 X 2 Y 2 X 2 Y 2 X 2 Y 2 X 2 Y 3 X 2 Y
 2 X 2 Y 2 X 2 Y 2 X 1 Y 3 X 2 Y 2 X 2 Y 2 X 2 Y 2 X 1 Y 2 X 2 Y 3 X 2 Y 2 X 2 Y 2 X 1 Y 2 X 2 Y 3 X 1 Y 2 X 2 Y 2 X 2 Y 2 X 1 Y 3 X 2 Y 2 X 1 Y 2 X 2 Y 2 X 1 Y 3 X 2 Y 2 X 1 Y 2 X 2 Y 2 X 1 Y 3 X 2 Y 2 X 1 Y 2 X 2 Y 2 X 1 Y 2 X 1 Y 3 X 2 Y 2 X 1 Y 2
 X 1 Y 2 X 2 Y 3 X 1 Y 2 X 1 Y 2 X 1 Y 2 X 2 Y 3 X 1 Y 2 X 1 Y 2 X 1 Y 2 X 1 Y 3 X 2 Y 2 X 1 Y 2 X 1 Y 2 X 1 Y 2 X 1 Y 3 X 1 Y 2 X 2 Y 2 X 1 Y 2 X 1 Y 3 X 1 Y 2 X 1 Y 2 X 1 Y 2 X 1 Y 3 X 1 Y 2 X 1 Y 2 X 1 Y 2 X 1 Y 3 X 1 Y 2 X 1 Y 2 X 1 Y 2 X 1 Y 3 X
 1 Y 2 X 1 Y 2 X 1 Y 2 X 1 Y 2 X 1 Y 3 X 1 Y 2 X 1 Y 2 X 1 Y 2 X 1 Y 3 X 1 Y 2 X 1 Y 2 X 1 Y 5 X 1 Y 2 X 1 Y 2 X 1 Y 2 X 1 Y 3 X 1 Y 4 X 1 Y 2 X 1 Y 2 X 1 Y 5 X 1 Y 2 X 1 Y 2 X 1 Y 5 X 1 Y 2 X 1 Y 2 X 1 Y 5 X 1 Y 2 X 1 Y 5 X 1 Y 2 X 1 Y 4 X 1 Y 5 X 1
 Y 2 X 1 Y 4 X 1 Y 5 X 1 Y 2 X 1 Y 5 X 1 Y 4 X 1 Y 5 X 1 Y 2 X 1 Y 4 X 1 Y 5 X 1 Y 4 X 1 Y 5 X 1 Y 4 X 1 Y 5 X 1 Y 4 X 1 Y 5 X 1 Y 6 X 1 Y 5 X 1 Y 4 X 1 Y 7 X 1 Y 7 X 1 Y 4 X 1 Y 7 X 1 Y 7 X 1 Y 6 X 1 Y 7 X 1 Y 7 X 1 Y 6 X 1 Y 9 X 1 Y 7 X 1 Y 9 X 1 Y
 9 X 1 Y 9 X 1 Y 11 X 1 Y 9 X 1 Y 11 X 1 Y 14 X 1 Y 11 X 1 Y 13 X 1 Y 14 X 1 Y 18 X 1 Y 17 X 1 Y 21 X 1 Y 24 X 1 Y 25 X 1 Y 31 X 1 Y 36 X 1 Y 45 X 1 Y 67 X 1 Y 94 X 1 Y 194 X 1 Y 521 X s 1 0 1 c 1 1 1 c black 1 0 1 c 365 246 m 26 Y 2 X 39 Y 3 X 48 Y
 2 X 51 Y 2 X 50 Y 2 X 48 Y 2 X 46 Y 3 X 45 Y 2 X 42 Y 2 X 39 Y 2 X 36 Y 3 X 34 Y 2 X 30 Y 2 X 29 Y 2 X 26 Y 3 X 23 Y 2 X 23 Y 2 X 20 Y 2 X 19 Y 3 X 18 Y 2 X 16 Y 2 X 15 Y 2 X 14 Y 3 X 14 Y 2 X 12 Y 2 X 12 Y 2 X 11 Y 2 X 10 Y 3 X 10 Y 2 X 9 Y 2 X 9 Y
 2 X 9 Y 3 X 8 Y 2 X 7 Y 2 X 8 Y 2 X 7 Y 3 X 7 Y 2 X 6 Y 2 X 7 Y 2 X 6 Y 3 X 5 Y 2 X 6 Y 2 X 5 Y 2 X 5 Y 2 X 5 Y 3 X 5 Y 2 X 4 Y 2 X 5 Y 2 X 4 Y 3 X 4 Y 2 X 4 Y 2 X 4 Y 2 X 3 Y 3 X 4 Y 2 X 3 Y 2 X 4 Y 2 X 3 Y 3 X 3 Y 2 X 3 Y 2 X 3 Y 2 X 3 Y 3 X 2 Y 2
 X 3 Y 2 X 3 Y 2 X 2 Y 2 X 3 Y 3 X 2 Y 2 X 2 Y 2 X 3 Y 2 X 2 Y 3 X 2 Y 2 X 2 Y 2 X 2 Y 2 X 2 Y 3 X 2 Y 2 X 2 Y 2 X 2 Y 2 X 2 Y 3 X 2 Y 2 X 1 Y 2 X 2 Y 2 X 2 Y 2 X 2 Y 3 X 1 Y 2 X 2 Y 2 X 1 Y 2 X 2 Y 3 X 1 Y 2 X 2 Y 2 X 1 Y 2 X 2 Y 3 X 1 Y 2 X 1 Y 2 X
 2 Y 2 X 1 Y 3 X 1 Y 2 X 2 Y 2 X 1 Y 2 X 1 Y 2 X 2 Y 3 X 1 Y 2 X 1 Y 2 X 1 Y 2 X 2 Y 3 X 1 Y 2 X 1 Y 2 X 1 Y 2 X 1 Y 3 X 1 Y 2 X 2 Y 2 X 1 Y 2 X 1 Y 3 X 1 Y 2 X 1 Y 2 X 1 Y 2 X 1 Y 3 X 1 Y 2 X 1 Y 2 X 1 Y 2 X 1 Y 2 X 1 Y 3 X 1 Y 2 X 1 Y 2 X 1 Y 2 X 1
 Y 3 X 1 Y 2 X 1 Y 2 X 1 Y 2 X 1 Y 3 X 1 Y 2 X 1 Y 2 X 1 Y 5 X 1 Y 2 X 1 Y 2 X 1 Y 2 X 1 Y 2 X 1 Y 3 X 1 Y 4 X 1 Y 2 X 1 Y 3 X 1 Y 2 X 1 Y 4 X 1 Y 3 X 1 Y 2 X 1 Y 2 X 1 Y 5 X 1 Y 2 X 1 Y 2 X 1 Y 5 X 1 Y 2 X 1 Y 2 X 1 Y 4 X 1 Y 3 X 1 Y 4 X 1 Y 2 X 1 Y
 5 X 1 Y 2 X 1 Y 5 X 1 Y 4 X 1 Y 2 X 1 Y 5 X 1 Y 4 X 1 Y 5 X 1 Y 2 X 1 Y 4 X 1 Y 5 X 1 Y 4 X 1 Y 5 X 1 Y 4 X 1 Y 5 X 1 Y 4 X 1 Y 5 X 1 Y 4 X 1 Y 7 X 1 Y 4 X 1 Y 5 X 1 Y 7 X 1 Y 4 X 1 Y 7 X 1 Y 6 X 1 Y 5 X 1 Y 7 X 1 Y 6 X 1 Y 7 X 1 Y 7 X 1 Y 9 X 1 Y 6
 X 1 Y 9 X 1 Y 9 X 1 Y 9 X 1 Y 9 X 1 Y 9 X 1 Y 11 X 1 Y 12 X 1 Y 11 X 1 Y 11 X 1 Y 13 X 1 Y 16 X 1 Y 16 X 1 Y 18 X 1 Y 20 X 1 Y 22 X 1 Y 27 X 1 Y 29 X 1 Y 36 X 1 Y 44 X 1 Y 61 X 1 Y 98 X 1 Y 190 X 1 Y 586 X s black
 gsave  2268 1538 0 0 C 905.783 693.999 t 0 r /Helvetica-BoldOblique findfont 71.6807 sf 0 0 m (ATLAS) show NC gr 
 gsave  2268 1538 0 0 C 1176.22 693.999 t 0 r /Helvetica findfont 71.6807 sf 0 0 m (Simulation Internal) show NC gr 
 gsave  2268 1538 0 0 C 905.783 615.802 t 0 r /Helvetica findfont 71.6807 sf 0 0 m (ITk Extended) show NC gr 
 gsave  2268 1538 0 0 C 1065.44 540.863 t 0 r /Helvetica findfont 71.6807 sf 0 0 m (> = 200) show NC gr 
 gsave  2268 1538 0 0 C 1023.08 540.863 t 0 r /Symbol findfont 71.6807 sf 0 0 m (m) show NC gr 
 gsave  2268 1538 0 0 C 944.882 540.863 t 0 r /Helvetica findfont 71.6807 sf 0 0 m (, <) show NC gr 
 gsave  2268 1538 0 0 C 925.333 540.863 t 0 r /Helvetica findfont 71.6807 sf 0 0 m (t) show NC gr  6 lw 925 596 m 20 X s
 gsave  2268 1538 0 0 C 905.783 540.863 t 0 r /Helvetica findfont 71.6807 sf 0 0 m (t) show NC gr  1 1 1 c 3 lw 340 307 1542 923 bf black
 gsave  2268 1538 0 0 C 1625.85 1185.99 t 0 r /Helvetica-Bold findfont 71.6807 sf 0 0 m (Layer 0) show NC gr  12 lw 1555 1200 m 59 X s
 gsave  2268 1538 0 0 C 1625.85 1127.34 t 0 r /Helvetica-Bold findfont 71.6807 sf 0 0 m (Layer 1) show NC gr  1 0 0 c 1555 1138 m 59 X s black
 gsave  2268 1538 0 0 C 1625.85 1065.44 t 0 r /Helvetica-Bold findfont 71.6807 sf 0 0 m (Layer 2) show NC gr  0 1 0 c 1555 1077 m 59 X s black
 gsave  2268 1538 0 0 C 1625.85 1003.53 t 0 r /Helvetica-Bold findfont 71.6807 sf 0 0 m (Layer 3) show NC gr  0 0 1 c 1555 1015 m 59 X s black
 gsave  2268 1538 0 0 C 1625.85 941.624 t 0 r /Helvetica-Bold findfont 71.6807 sf 0 0 m (Layer 4) show NC gr  1 0 1 c 1555 953 m 59 X s
 gr  gr showpage
end
%%EOF
