%!PS-Adobe-2.0 EPSF-2.0
%%BoundingBox:  0 0 567 384
%%Title: plots/pixels/barrel/ext_bits_per_chip.eps: c1
%%Creator: ROOT Version 5.34/36
%%CreationDate: Mon Apr 10 13:14:49 2017
%%EndComments
%%BeginProlog
80 dict begin
/s {stroke} def /l {lineto} def /m {moveto} def /t {translate} def
/r {rotate} def /rl {roll}  def /R {repeat} def
/d {rlineto} def /rm {rmoveto} def /gr {grestore} def /f {eofill} def
/c {setrgbcolor} def /black {0 setgray} def /sd {setdash} def
/cl {closepath} def /sf {scalefont setfont} def /lw {setlinewidth} def
/box {m dup 0 exch d exch 0 d 0 exch neg d cl} def
/NC{systemdict begin initclip end}def/C{NC box clip newpath}def
/bl {box s} def /bf {gsave box gsave f grestore 1 lw [] 0 sd s grestore} def /Y { 0 exch d} def /X { 0 d} def 
/K {{pop pop 0 moveto} exch kshow} bind def
/ita {/ang 15 def gsave [1 0 ang dup sin exch cos div 1 0 0] concat} def 
/mp {newpath /y exch def /x exch def} def
/side {[w .77 mul w .23 mul] .385 w mul sd w 0 l currentpoint t -144 r} def
/mr {mp x y w2 0 360 arc} def /m24 {mr s} def /m20 {mr f} def
/mb {mp x y w2 add m w2 neg 0 d 0 w neg d w 0 d 0 w d cl} def
/mt {mp x y w2 add m w2 neg w neg d w 0 d cl} def
/m21 {mb f} def /m25 {mb s} def /m22 {mt f} def /m26{mt s} def
/m23 {mp x y w2 sub m w2 w d w neg 0 d cl f} def
/m27 {mp x y w2 add m w3 neg w2 neg d w3 w2 neg d w3 w2 d cl s} def
/m28 {mp x w2 sub y w2 sub w3 add m w3 0 d  0 w3 neg d w3 0 d 0 w3 d w3 0 d  0 w3 d w3 neg 0 d 0 w3 d w3 neg 0 d 0 w3 neg d w3 neg 0 d cl s } def
/m29 {mp gsave x w2 sub y w2 add w3 sub m currentpoint t 4 {side} repeat cl fill gr} def
/m30 {mp gsave x w2 sub y w2 add w3 sub m currentpoint t 4 {side} repeat cl s gr} def
/m31 {mp x y w2 sub m 0 w d x w2 sub y m w 0 d x w2 sub y w2 add m w w neg d x w2 sub y w2 sub m w w d s} def
/m32 {mp x y w2 sub m w2 w d w neg 0 d cl s} def
/m33 {mp x y w2 add m w3 neg w2 neg d w3 w2 neg d w3 w2 d cl f} def
/m34 {mp x w2 sub y w2 sub w3 add m w3 0 d  0 w3 neg d w3 0 d 0 w3 d w3 0 d  0 w3 d w3 neg 0 d 0 w3 d w3 neg 0 d 0 w3 neg d w3 neg 0 d cl f } def
/m2 {mp x y w2 sub m 0 w d x w2 sub y m w 0 d s} def
/m5 {mp x w2 sub y w2 sub m w w d x w2 sub y w2 add m w w neg d s} def
/reEncode {exch findfont dup length dict begin {1 index /FID eq  {pop pop} {def} ifelse } forall /Encoding exch def currentdict end dup /FontName get exch definefont pop } def [/Times-Bold /Times-Italic /Times-BoldItalic /Helvetica /Helvetica-Oblique
 /Helvetica-Bold /Helvetica-BoldOblique /Courier /Courier-Oblique /Courier-Bold /Courier-BoldOblique /Times-Roman /AvantGarde-Book /AvantGarde-BookOblique /AvantGarde-Demi /AvantGarde-DemiOblique /Bookman-Demi /Bookman-DemiItalic /Bookman-Light
 /Bookman-LightItalic /Helvetica-Narrow /Helvetica-Narrow-Bold /Helvetica-Narrow-BoldOblique /Helvetica-Narrow-Oblique /NewCenturySchlbk-Roman /NewCenturySchlbk-Bold /NewCenturySchlbk-BoldItalic /NewCenturySchlbk-Italic /Palatino-Bold
 /Palatino-BoldItalic /Palatino-Italic /Palatino-Roman ] {ISOLatin1Encoding reEncode } forall
%%EndProlog
%%BeginSetup
%%EndSetup
newpath  gsave  .25 .25 scale  gsave  0 0 t black[  ] 0 sd 3 lw 1 1 1 c 2268 1538 0 0 bf black 1 1 1 c 1791 1215 363 246 bf black 1791 1215 363 246 bl 1 1 1 c 1791 1215 363 246 bf black 1791 1215 363 246 bl 12 lw 1 1 1 c black 363 248 m 22 X 4 Y 23 X
 4 Y 22 X 9 Y 22 X 10 Y 23 X 10 Y 22 X 9 Y 23 X 17 Y 22 X 15 Y 22 X 19 Y 23 X 19 Y 22 X 15 Y 23 X 17 Y 22 X 14 Y 22 X 22 Y 23 X 13 Y 22 X 12 Y 23 X 1 Y 22 X 7 Y 22 X 2 Y 45 X -11 Y 22 X -6 Y 23 X -10 Y 22 X -7 Y 23 X -14 Y 22 X -13 Y 22 X -12 Y 23 X
 -13 Y 22 X -15 Y 23 X -15 Y 22 X -8 Y 22 X -10 Y 23 X -7 Y 22 X -12 Y 23 X -6 Y 22 X -9 Y 22 X -5 Y 23 X -8 Y 22 X -1 Y 23 X -4 Y 22 X -14 Y 22 X 7 Y 23 X -4 Y 22 X -2 Y 23 X -3 Y 44 X -3 Y 45 X -4 Y 23 X 1 Y 22 X -2 Y 22 X -1 Y 23 X -2 Y 44 X -1 Y
 23 X -1 Y 67 X -2 Y 90 X -1 Y 112 X -1 Y 67 X -1 Y 201 X s 3 lw 363 246 m 1791 X s
 gsave  2268 1538 0 0 C 1759.44 114.037 t 0 r /Helvetica findfont 71.6807 sf 0 0 m (Bits per chip) show NC gr  363 283 m -37 Y s 408 264 m -18 Y s 452 264 m -18 Y s 497 264 m -18 Y s 542 264 m -18 Y s 587 283 m -37 Y s 632 264 m -18 Y s 676 264 m -18
 Y s 721 264 m -18 Y s 766 264 m -18 Y s 811 283 m -37 Y s 855 264 m -18 Y s 900 264 m -18 Y s 945 264 m -18 Y s 990 264 m -18 Y s 1035 283 m -37 Y s 1079 264 m -18 Y s 1124 264 m -18 Y s 1169 264 m -18 Y s 1214 264 m -18 Y s 1259 283 m -37 Y s 1303
 264 m -18 Y s 1348 264 m -18 Y s 1393 264 m -18 Y s 1438 264 m -18 Y s 1483 283 m -37 Y s 1527 264 m -18 Y s 1572 264 m -18 Y s 1617 264 m -18 Y s 1662 264 m -18 Y s 1706 283 m -37 Y s 1751 264 m -18 Y s 1796 264 m -18 Y s 1841 264 m -18 Y s 1886
 264 m -18 Y s 1930 283 m -37 Y s 1975 264 m -18 Y s 2020 264 m -18 Y s 2065 264 m -18 Y s 2110 264 m -18 Y s 2154 283 m -37 Y s
 gsave  2268 1538 0 0 C 342.112 179.202 t 0 r /Helvetica findfont 71.6807 sf 0 0 m (0) show NC gr 
 gsave  2268 1538 0 0 C 508.281 179.202 t 0 r /Helvetica findfont 71.6807 sf 0 0 m (1000) show NC gr 
 gsave  2268 1538 0 0 C 729.84 179.202 t 0 r /Helvetica findfont 71.6807 sf 0 0 m (2000) show NC gr 
 gsave  2268 1538 0 0 C 954.657 179.202 t 0 r /Helvetica findfont 71.6807 sf 0 0 m (3000) show NC gr 
 gsave  2268 1538 0 0 C 1179.47 179.202 t 0 r /Helvetica findfont 71.6807 sf 0 0 m (4000) show NC gr 
 gsave  2268 1538 0 0 C 1404.29 179.202 t 0 r /Helvetica findfont 71.6807 sf 0 0 m (5000) show NC gr 
 gsave  2268 1538 0 0 C 1625.85 179.202 t 0 r /Helvetica findfont 71.6807 sf 0 0 m (6000) show NC gr 
 gsave  2268 1538 0 0 C 1850.67 179.202 t 0 r /Helvetica findfont 71.6807 sf 0 0 m (7000) show NC gr 
 gsave  2268 1538 0 0 C 2075.48 179.202 t 0 r /Helvetica findfont 71.6807 sf 0 0 m (8000) show NC gr  363 1461 m 1791 X s 363 1425 m 36 Y s 408 1443 m 18 Y s 452 1443 m 18 Y s 497 1443 m 18 Y s 542 1443 m 18 Y s 587 1425 m 36 Y s 632 1443 m 18 Y s
 676 1443 m 18 Y s 721 1443 m 18 Y s 766 1443 m 18 Y s 811 1425 m 36 Y s 855 1443 m 18 Y s 900 1443 m 18 Y s 945 1443 m 18 Y s 990 1443 m 18 Y s 1035 1425 m 36 Y s 1079 1443 m 18 Y s 1124 1443 m 18 Y s 1169 1443 m 18 Y s 1214 1443 m 18 Y s 1259 1425
 m 36 Y s 1303 1443 m 18 Y s 1348 1443 m 18 Y s 1393 1443 m 18 Y s 1438 1443 m 18 Y s 1483 1425 m 36 Y s 1527 1443 m 18 Y s 1572 1443 m 18 Y s 1617 1443 m 18 Y s 1662 1443 m 18 Y s 1706 1425 m 36 Y s 1751 1443 m 18 Y s 1796 1443 m 18 Y s 1841 1443 m
 18 Y s 1886 1443 m 18 Y s 1930 1425 m 36 Y s 1975 1443 m 18 Y s 2020 1443 m 18 Y s 2065 1443 m 18 Y s 2110 1443 m 18 Y s 2154 1425 m 36 Y s 363 246 m 1215 Y s
 gsave  2268 1538 0 0 C 133.587 860.168 t 90 r /Helvetica findfont 71.6807 sf 0 0 m (Normalised Entries) show NC gr  417 346 m -54 X s 390 370 m -27 X s 390 395 m -27 X s 390 420 m -27 X s 417 445 m -54 X s 390 470 m -27 X s 390 495 m -27 X s 390 520
 m -27 X s 417 545 m -54 X s 390 570 m -27 X s 390 594 m -27 X s 390 619 m -27 X s 417 644 m -54 X s 390 669 m -27 X s 390 694 m -27 X s 390 719 m -27 X s 417 744 m -54 X s 390 769 m -27 X s 390 794 m -27 X s 390 818 m -27 X s 417 843 m -54 X s 390
 868 m -27 X s 390 893 m -27 X s 390 918 m -27 X s 417 943 m -54 X s 390 968 m -27 X s 390 993 m -27 X s 390 1017 m -27 X s 417 1042 m -54 X s 390 1067 m -27 X s 390 1092 m -27 X s 390 1117 m -27 X s 417 1142 m -54 X s 390 1167 m -27 X s 390 1192 m
 -27 X s 390 1217 m -27 X s 417 1241 m -54 X s 390 1266 m -27 X s 390 1291 m -27 X s 390 1316 m -27 X s 417 1341 m -54 X s 390 1366 m -27 X s 390 1391 m -27 X s 390 1416 m -27 X s 417 1441 m -54 X s 417 346 m -54 X s 390 321 m -27 X s 390 296 m -27 X
 s 390 271 m -27 X s 417 1441 m -54 X s
 gsave  2268 1538 0 0 C 211.784 322.563 t 0 r /Helvetica findfont 71.6807 sf 0 0 m (0.02) show NC gr 
 gsave  2268 1538 0 0 C 208.526 420.31 t 0 r /Helvetica findfont 71.6807 sf 0 0 m (0.04) show NC gr 
 gsave  2268 1538 0 0 C 211.784 521.314 t 0 r /Helvetica findfont 71.6807 sf 0 0 m (0.06) show NC gr 
 gsave  2268 1538 0 0 C 211.784 619.061 t 0 r /Helvetica findfont 71.6807 sf 0 0 m (0.08) show NC gr 
 gsave  2268 1538 0 0 C 263.915 720.065 t 0 r /Helvetica findfont 71.6807 sf 0 0 m (0.1) show NC gr 
 gsave  2268 1538 0 0 C 211.784 817.812 t 0 r /Helvetica findfont 71.6807 sf 0 0 m (0.12) show NC gr 
 gsave  2268 1538 0 0 C 208.526 918.816 t 0 r /Helvetica findfont 71.6807 sf 0 0 m (0.14) show NC gr 
 gsave  2268 1538 0 0 C 211.784 1016.56 t 0 r /Helvetica findfont 71.6807 sf 0 0 m (0.16) show NC gr 
 gsave  2268 1538 0 0 C 211.784 1117.57 t 0 r /Helvetica findfont 71.6807 sf 0 0 m (0.18) show NC gr 
 gsave  2268 1538 0 0 C 250.882 1218.57 t 0 r /Helvetica findfont 71.6807 sf 0 0 m (0.2) show NC gr 
 gsave  2268 1538 0 0 C 211.784 1316.32 t 0 r /Helvetica findfont 71.6807 sf 0 0 m (0.22) show NC gr 
 gsave  2268 1538 0 0 C 208.526 1417.32 t 0 r /Helvetica findfont 71.6807 sf 0 0 m (0.24) show NC gr  2154 246 m 1215 Y s 2101 346 m 53 X s 2127 370 m 27 X s 2127 395 m 27 X s 2127 420 m 27 X s 2101 445 m 53 X s 2127 470 m 27 X s 2127 495 m 27 X s
 2127 520 m 27 X s 2101 545 m 53 X s 2127 570 m 27 X s 2127 594 m 27 X s 2127 619 m 27 X s 2101 644 m 53 X s 2127 669 m 27 X s 2127 694 m 27 X s 2127 719 m 27 X s 2101 744 m 53 X s 2127 769 m 27 X s 2127 794 m 27 X s 2127 818 m 27 X s 2101 843 m 53 X
 s 2127 868 m 27 X s 2127 893 m 27 X s 2127 918 m 27 X s 2101 943 m 53 X s 2127 968 m 27 X s 2127 993 m 27 X s 2127 1017 m 27 X s 2101 1042 m 53 X s 2127 1067 m 27 X s 2127 1092 m 27 X s 2127 1117 m 27 X s 2101 1142 m 53 X s 2127 1167 m 27 X s 2127
 1192 m 27 X s 2127 1217 m 27 X s 2101 1241 m 53 X s 2127 1266 m 27 X s 2127 1291 m 27 X s 2127 1316 m 27 X s 2101 1341 m 53 X s 2127 1366 m 27 X s 2127 1391 m 27 X s 2127 1416 m 27 X s 2101 1441 m 53 X s 2101 346 m 53 X s 2127 321 m 27 X s 2127 296
 m 27 X s 2127 271 m 27 X s 2101 1441 m 53 X s 1 0 0 c 12 lw 1 1 1 c black 1 0 0 c 363 301 m 22 X 79 Y 23 X 64 Y 22 X 66 Y 22 X 52 Y 23 X 26 Y 22 X 7 Y 23 X -19 Y 22 X -36 Y 22 X -38 Y 23 X -32 Y 22 X -32 Y 23 X -25 Y 22 X -21 Y 22 X -11 Y 23 X -12 Y
 22 X -8 Y 23 X -9 Y 22 X -5 Y 22 X -5 Y 23 X -4 Y 22 X -7 Y 22 X -6 Y 23 X -4 Y 22 X -4 Y 23 X -7 Y 22 X -5 Y 22 X -5 Y 23 X -5 Y 22 X -6 Y 23 X -5 Y 22 X -3 Y 22 X -4 Y 23 X -2 Y 22 X -5 Y 23 X -2 Y 22 X -3 Y 22 X -2 Y 23 X -3 Y 45 X -2 Y 22 X -5 Y
 22 X 3 Y 23 X -1 Y 22 X -1 Y 23 X -1 Y 44 X -1 Y 45 X -2 Y 23 X 1 Y 22 X -1 Y 45 X -1 Y 67 X -1 Y 112 X -1 Y 246 X -1 Y 179 X s 0 1 0 c 1 1 1 c black 0 1 0 c 363 453 m 22 X 320 Y 23 X 30 Y 22 X -56 Y 22 X -78 Y 23 X -68 Y 22 X -54 Y 23 X -47 Y 22 X
 -44 Y 22 X -36 Y 23 X -28 Y 22 X -23 Y 23 X -18 Y 22 X -14 Y 22 X -9 Y 23 X -8 Y 22 X -6 Y 23 X -5 Y 22 X -4 Y 22 X -3 Y 23 X -2 Y 22 X -4 Y 22 X -4 Y 23 X -2 Y 22 X -3 Y 23 X -4 Y 22 X -3 Y 22 X -3 Y 23 X -3 Y 22 X -3 Y 23 X -3 Y 22 X -2 Y 22 X -2
 Y 23 X -1 Y 22 X -3 Y 23 X -1 Y 22 X -2 Y 22 X -1 Y 23 X -2 Y 45 X -1 Y 22 X -3 Y 22 X 2 Y 23 X -1 Y 45 X -1 Y 44 X -1 Y 90 X -1 Y 112 X -1 Y 269 X -1 Y 268 X s 0 0 1 c 1 1 1 c black 0 0 1 c 363 657 m 22 X 487 Y 23 X -165 Y 22 X -189 Y 22 X -145 Y
 23 X -99 Y 22 X -64 Y 23 X -46 Y 22 X -37 Y 22 X -30 Y 23 X -21 Y 22 X -17 Y 23 X -13 Y 22 X -10 Y 22 X -6 Y 23 X -6 Y 22 X -4 Y 23 X -4 Y 22 X -2 Y 22 X -3 Y 23 X -1 Y 22 X -3 Y 22 X -2 Y 23 X -2 Y 22 X -2 Y 23 X -2 Y 22 X -2 Y 22 X -2 Y 23 X -2 Y
 22 X -2 Y 23 X -3 Y 22 X -1 Y 22 X -1 Y 23 X -1 Y 22 X -2 Y 23 X -1 Y 22 X -1 Y 45 X -1 Y 22 X -1 Y 45 X -2 Y 22 X 1 Y 23 X -1 Y 89 X -1 Y 90 X -1 Y 291 X -1 Y 358 X s 1 0 1 c 1 1 1 c black 1 0 1 c 363 856 m 22 X 547 Y 23 X -366 Y 22 X -269 Y 22 X
 -171 Y 23 X -100 Y 22 X -60 Y 23 X -42 Y 22 X -30 Y 22 X -25 Y 23 X -16 Y 22 X -13 Y 23 X -11 Y 22 X -7 Y 22 X -5 Y 23 X -5 Y 22 X -3 Y 23 X -3 Y 22 X -2 Y 22 X -1 Y 23 X -2 Y 22 X -2 Y 22 X -1 Y 23 X -2 Y 22 X -1 Y 23 X -2 Y 22 X -1 Y 22 X -2 Y 23
 X -1 Y 22 X -2 Y 23 X -1 Y 22 X -1 Y 22 X -1 Y 23 X -1 Y 22 X -1 Y 23 X -1 Y 22 X -1 Y 45 X -1 Y 45 X -1 Y 22 X -1 Y 22 X 1 Y 23 X -1 Y 134 X -1 Y 224 X -1 Y 470 X s black
 gsave  2268 1538 0 0 C 905.783 1309.8 t 0 r /Helvetica-BoldOblique findfont 71.6807 sf 0 0 m (ATLAS) show NC gr 
 gsave  2268 1538 0 0 C 1176.22 1309.8 t 0 r /Helvetica findfont 71.6807 sf 0 0 m (Simulation Internal) show NC gr 
 gsave  2268 1538 0 0 C 905.783 1231.6 t 0 r /Helvetica findfont 71.6807 sf 0 0 m (ITk Extended) show NC gr 
 gsave  2268 1538 0 0 C 1065.44 1153.41 t 0 r /Helvetica findfont 71.6807 sf 0 0 m (> = 200) show NC gr 
 gsave  2268 1538 0 0 C 1023.08 1153.41 t 0 r /Symbol findfont 71.6807 sf 0 0 m (m) show NC gr 
 gsave  2268 1538 0 0 C 944.882 1153.41 t 0 r /Helvetica findfont 71.6807 sf 0 0 m (, <) show NC gr 
 gsave  2268 1538 0 0 C 925.333 1153.41 t 0 r /Helvetica findfont 71.6807 sf 0 0 m (t) show NC gr  6 lw 925 1209 m 20 X s
 gsave  2268 1538 0 0 C 905.783 1153.41 t 0 r /Helvetica findfont 71.6807 sf 0 0 m (t) show NC gr  1 1 1 c 3 lw 340 308 1542 738 bf black
 gsave  2268 1538 0 0 C 1625.85 1003.53 t 0 r /Helvetica-Bold findfont 71.6807 sf 0 0 m (Layer 0) show NC gr  12 lw 1555 1015 m 59 X s
 gsave  2268 1538 0 0 C 1625.85 941.624 t 0 r /Helvetica-Bold findfont 71.6807 sf 0 0 m (Layer 1) show NC gr  1 0 0 c 1555 953 m 59 X s black
 gsave  2268 1538 0 0 C 1625.85 879.718 t 0 r /Helvetica-Bold findfont 71.6807 sf 0 0 m (Layer 2) show NC gr  0 1 0 c 1555 892 m 59 X s black
 gsave  2268 1538 0 0 C 1625.85 817.812 t 0 r /Helvetica-Bold findfont 71.6807 sf 0 0 m (Layer 3) show NC gr  0 0 1 c 1555 830 m 59 X s black
 gsave  2268 1538 0 0 C 1625.85 755.906 t 0 r /Helvetica-Bold findfont 71.6807 sf 0 0 m (Layer 4) show NC gr  1 0 1 c 1555 769 m 59 X s
 gr  gr showpage
end
%%EOF
