%!PS-Adobe-2.0 EPSF-2.0
%%BoundingBox:  0 0 567 384
%%Title: plots/pixels/barrel/hitspersensor_extended.eps: c1
%%Creator: ROOT Version 5.34/36
%%CreationDate: Mon Apr 10 13:14:50 2017
%%EndComments
%%BeginProlog
80 dict begin
/s {stroke} def /l {lineto} def /m {moveto} def /t {translate} def
/r {rotate} def /rl {roll}  def /R {repeat} def
/d {rlineto} def /rm {rmoveto} def /gr {grestore} def /f {eofill} def
/c {setrgbcolor} def /black {0 setgray} def /sd {setdash} def
/cl {closepath} def /sf {scalefont setfont} def /lw {setlinewidth} def
/box {m dup 0 exch d exch 0 d 0 exch neg d cl} def
/NC{systemdict begin initclip end}def/C{NC box clip newpath}def
/bl {box s} def /bf {gsave box gsave f grestore 1 lw [] 0 sd s grestore} def /Y { 0 exch d} def /X { 0 d} def 
/K {{pop pop 0 moveto} exch kshow} bind def
/ita {/ang 15 def gsave [1 0 ang dup sin exch cos div 1 0 0] concat} def 
/mp {newpath /y exch def /x exch def} def
/side {[w .77 mul w .23 mul] .385 w mul sd w 0 l currentpoint t -144 r} def
/mr {mp x y w2 0 360 arc} def /m24 {mr s} def /m20 {mr f} def
/mb {mp x y w2 add m w2 neg 0 d 0 w neg d w 0 d 0 w d cl} def
/mt {mp x y w2 add m w2 neg w neg d w 0 d cl} def
/m21 {mb f} def /m25 {mb s} def /m22 {mt f} def /m26{mt s} def
/m23 {mp x y w2 sub m w2 w d w neg 0 d cl f} def
/m27 {mp x y w2 add m w3 neg w2 neg d w3 w2 neg d w3 w2 d cl s} def
/m28 {mp x w2 sub y w2 sub w3 add m w3 0 d  0 w3 neg d w3 0 d 0 w3 d w3 0 d  0 w3 d w3 neg 0 d 0 w3 d w3 neg 0 d 0 w3 neg d w3 neg 0 d cl s } def
/m29 {mp gsave x w2 sub y w2 add w3 sub m currentpoint t 4 {side} repeat cl fill gr} def
/m30 {mp gsave x w2 sub y w2 add w3 sub m currentpoint t 4 {side} repeat cl s gr} def
/m31 {mp x y w2 sub m 0 w d x w2 sub y m w 0 d x w2 sub y w2 add m w w neg d x w2 sub y w2 sub m w w d s} def
/m32 {mp x y w2 sub m w2 w d w neg 0 d cl s} def
/m33 {mp x y w2 add m w3 neg w2 neg d w3 w2 neg d w3 w2 d cl f} def
/m34 {mp x w2 sub y w2 sub w3 add m w3 0 d  0 w3 neg d w3 0 d 0 w3 d w3 0 d  0 w3 d w3 neg 0 d 0 w3 d w3 neg 0 d 0 w3 neg d w3 neg 0 d cl f } def
/m2 {mp x y w2 sub m 0 w d x w2 sub y m w 0 d s} def
/m5 {mp x w2 sub y w2 sub m w w d x w2 sub y w2 add m w w neg d s} def
/reEncode {exch findfont dup length dict begin {1 index /FID eq  {pop pop} {def} ifelse } forall /Encoding exch def currentdict end dup /FontName get exch definefont pop } def [/Times-Bold /Times-Italic /Times-BoldItalic /Helvetica /Helvetica-Oblique
 /Helvetica-Bold /Helvetica-BoldOblique /Courier /Courier-Oblique /Courier-Bold /Courier-BoldOblique /Times-Roman /AvantGarde-Book /AvantGarde-BookOblique /AvantGarde-Demi /AvantGarde-DemiOblique /Bookman-Demi /Bookman-DemiItalic /Bookman-Light
 /Bookman-LightItalic /Helvetica-Narrow /Helvetica-Narrow-Bold /Helvetica-Narrow-BoldOblique /Helvetica-Narrow-Oblique /NewCenturySchlbk-Roman /NewCenturySchlbk-Bold /NewCenturySchlbk-BoldItalic /NewCenturySchlbk-Italic /Palatino-Bold
 /Palatino-BoldItalic /Palatino-Italic /Palatino-Roman ] {ISOLatin1Encoding reEncode } forall
%%EndProlog
%%BeginSetup
%%EndSetup
newpath  gsave  .25 .25 scale  gsave  0 0 t black[  ] 0 sd 3 lw 1 1 1 c 2268 1538 0 0 bf black 1 1 1 c 1791 1215 363 246 bf black 1791 1215 363 246 bl 1 1 1 c 1791 1215 363 246 bf black 1791 1215 363 246 bl 12 lw 1 1 1 c black 363 246 m 46 X 1 Y 2 X
 -1 Y 6 X 1 Y 3 X -1 Y 4 X 2 Y 2 X -2 Y 1 X 1 Y 2 X 2 Y 2 X -3 Y 2 X 2 Y 1 X 3 Y 2 X -2 Y 2 X -3 Y 2 X 1 Y 2 X 4 Y 1 X -2 Y 2 X -1 Y 2 X 1 Y 2 X -2 Y 2 X 1 Y 1 X 1 Y 2 X 3 Y 2 X -1 Y 2 X -2 Y 2 X 3 Y 1 X -3 Y 2 X 2 Y 2 X 5 Y 2 X -3 Y 2 X -6 Y 1 X 5 Y
 2 X -2 Y 4 X 2 Y 1 X -2 Y 2 X 5 Y 2 X 3 Y 2 X -3 Y 2 X -2 Y 1 X 4 Y 2 X -2 Y 2 X 1 Y 2 X -3 Y 2 X 1 Y 1 X 2 Y 2 X -5 Y 2 X 3 Y 2 X 6 Y 2 X -2 Y 1 X -4 Y 2 X 11 Y 2 X -8 Y 2 X -1 Y 2 X 3 Y 1 X 3 Y 2 X -4 Y 2 X -1 Y 2 X 5 Y 1 X 4 Y 2 X -7 Y 2 X 10 Y 2
 X -5 Y 2 X -5 Y 1 X 8 Y 2 X -5 Y 2 X 4 Y 2 X 6 Y 2 X -8 Y 1 X 4 Y 2 X -1 Y 2 X 3 Y 2 X 1 Y 2 X -10 Y 1 X 5 Y 2 X -2 Y 2 X 13 Y 2 X -11 Y 2 X -5 Y 1 X 17 Y 2 X -2 Y 2 X -5 Y 2 X 2 Y 1 X 7 Y 4 X -2 Y 2 X 4 Y 2 X 8 Y 1 X -8 Y 2 X -10 Y 2 X 24 Y 2 X -11
 Y 2 X -4 Y 1 X 8 Y 2 X 8 Y 2 X -7 Y 2 X 7 Y 2 X -4 Y 1 X 8 Y 2 X -6 Y 2 X 1 Y 2 X 9 Y 2 X -5 Y 3 X 22 Y 2 X -9 Y 2 X -17 Y 1 X -1 Y 2 X 6 Y 2 X 15 Y 2 X -1 Y 2 X -5 Y 1 X -6 Y 2 X 13 Y 2 X 1 Y 2 X -18 Y 2 X 22 Y 1 X -1 Y 4 X -10 Y 2 X 11 Y 2 X 8 Y 1
 X -8 Y 2 X 3 Y 2 X -7 Y 2 X 8 Y 2 X 12 Y 1 X -7 Y 2 X 5 Y 2 X 20 Y 2 X -16 Y 1 X 8 Y 2 X 15 Y 2 X -10 Y 2 X -14 Y 2 X 25 Y 3 X -21 Y 2 X 17 Y 2 X -5 Y 3 X 39 Y 2 X -13 Y 2 X -17 Y 2 X 13 Y 2 X 15 Y 1 X 2 Y 2 X -22 Y 2 X 8 Y 2 X 23 Y 2 X -8 Y 1 X -3
 Y 2 X 21 Y 2 X -3 Y 2 X 6 Y 1 X 1 Y 2 X 15 Y 2 X -22 Y 2 X 8 Y 2 X 4 Y 1 X 9 Y 2 X 1 Y 2 X -23 Y 2 X 54 Y 2 X -36 Y 1 X 8 Y 2 X 2 Y 2 X 29 Y 2 X -40 Y 2 X 15 Y 1 X 19 Y 2 X 34 Y 2 X -42 Y 2 X 38 Y 2 X -44 Y 1 X 38 Y 2 X 14 Y 2 X -34 Y 2 X 2 Y 1 X 14
 Y 2 X 15 Y 2 X -25 Y 2 X 8 Y 2 X 7 Y 1 X 14 Y 2 X -23 Y 2 X 30 Y 2 X -40 Y 2 X 32 Y 1 X 9 Y 2 X 1 Y 2 X -4 Y 2 X -15 Y 2 X -7 Y 1 X 61 Y 2 X -29 Y 2 X 19 Y 2 X -23 Y 2 X -5 Y 1 X 16 Y 2 X -2 Y 2 X 7 Y 2 X 36 Y 1 X -72 Y 2 X 50 Y 2 X -1 Y 4 X -34 Y 1
 X 36 Y 2 X 8 Y 2 X -7 Y 2 X -11 Y 2 X 17 Y 1 X 10 Y 2 X -22 Y 2 X -11 Y 2 X 23 Y 2 X -10 Y 1 X 11 Y 2 X 18 Y 2 X 7 Y 2 X -29 Y 2 X -1 Y 1 X 7 Y 2 X 18 Y 2 X -3 Y 2 X 6 Y 1 X -12 Y 2 X -28 Y 2 X 26 Y 2 X -5 Y 2 X -4 Y 1 X 49 Y 2 X -35 Y 2 X 24 Y 2 X
 -14 Y 2 X 22 Y 1 X -47 Y 2 X 28 Y 2 X 4 Y 2 X -12 Y 2 X -11 Y 1 X 15 Y 2 X 29 Y 2 X -29 Y 2 X 17 Y 1 X -13 Y 2 X 12 Y 4 X -7 Y 2 X -8 Y 1 X -12 Y 2 X 32 Y 2 X 2 Y 2 X 19 Y 2 X -19 Y 3 X -39 Y 2 X 3 Y 2 X -9 Y 2 X 34 Y 1 X -3 Y 2 X 2 Y 2 X -5 Y 2 X
 22 Y 2 X -39 Y 1 X -25 Y 2 X 66 Y 2 X -55 Y 2 X 20 Y 1 X 6 Y 2 X -11 Y 2 X 18 Y 2 X -31 Y 2 X -8 Y 1 X 25 Y 2 X -18 Y 2 X -7 Y 2 X -1 Y 2 X 22 Y 1 X -16 Y 2 X 15 Y 2 X 1 Y 2 X -15 Y 2 X 15 Y 1 X -9 Y 2 X 8 Y 2 X -15 Y 2 X -7 Y 2 X 11 Y 1 X -31 Y 2 X
 -4 Y 2 X 15 Y 2 X 45 Y 1 X -38 Y 2 X 22 Y 2 X -33 Y 2 X 45 Y 2 X -6 Y 1 X -58 Y 2 X 15 Y 2 X 10 Y 2 X -7 Y 2 X 16 Y 1 X -41 Y 2 X 32 Y 2 X -2 Y 2 X -32 Y 2 X 38 Y 1 X -8 Y 2 X -23 Y 2 X -3 Y 2 X 26 Y 2 X -17 Y 1 X 11 Y 2 X 6 Y 2 X -21 Y 2 X 19 Y 1 X
 -28 Y 2 X 14 Y 2 X 7 Y 2 X -14 Y 2 X -7 Y 1 X 6 Y 4 X 15 Y 2 X -37 Y 2 X 17 Y 1 X 23 Y 2 X -33 Y 2 X 6 Y 2 X 10 Y 2 X -6 Y 1 X -14 Y 2 X 43 Y 2 X -10 Y 2 X -34 Y 2 X -1 Y 1 X 7 Y 2 X 3 Y 2 X -33 Y 2 X 6 Y 1 X 22 Y 2 X -5 Y 2 X -12 Y 2 X 30 Y 2 X -49
 Y 1 X 10 Y 2 X 21 Y 2 X -3 Y 2 X -26 Y 2 X 3 Y 1 X 4 Y 2 X 23 Y 2 X -29 Y 2 X 28 Y 2 X -30 Y 1 X -4 Y 2 X 9 Y 2 X 13 Y 2 X -2 Y 2 X -17 Y 1 X -9 Y 2 X 13 Y 2 X 14 Y 2 X -6 Y 1 X -15 Y 2 X -4 Y 2 X 5 Y 2 X 8 Y 2 X 8 Y 1 X -17 Y 2 X -9 Y 2 X -21 Y 2 X
 32 Y 2 X -33 Y 1 X 18 Y 2 X -9 Y 2 X 5 Y 2 X -16 Y 2 X -8 Y 1 X -8 Y 2 X 31 Y 2 X 5 Y 2 X -30 Y 2 X 9 Y 1 X -2 Y 4 X -20 Y 2 X 25 Y 1 X -1 Y 2 X -5 Y 2 X 9 Y 2 X 6 Y 2 X -24 Y 1 X 8 Y 2 X 20 Y 2 X -18 Y 2 X -3 Y 2 X 2 Y 3 X 7 Y 2 X -7 Y 2 X -21 Y 2
 X 12 Y 1 X -10 Y 2 X 14 Y 2 X -1 Y 2 X 9 Y 2 X -16 Y 1 X -6 Y 2 X 25 Y 2 X -12 Y 2 X -19 Y 1 X -1 Y 2 X 16 Y 2 X -13 Y 2 X 14 Y 2 X -28 Y 1 X -7 Y 2 X 17 Y 4 X -33 Y 2 X 29 Y 1 X 15 Y 2 X -28 Y 2 X 31 Y 2 X -24 Y 3 X 8 Y 2 X 2 Y 2 X -1 Y 2 X -23 Y 2
 X 23 Y 1 X -14 Y 2 X -8 Y 2 X 6 Y 2 X 10 Y 1 X -11 Y 2 X 18 Y 2 X -25 Y 2 X 12 Y 2 X -38 Y 1 X 21 Y 2 X 3 Y 2 X -1 Y 2 X 6 Y 3 X -7 Y 2 X 8 Y 2 X -19 Y 2 X 10 Y 2 X -4 Y 1 X -7 Y 2 X 5 Y 2 X 1 Y 2 X -9 Y 2 X 26 Y 1 X -14 Y 2 X 5 Y 2 X -5 Y 2 X -13 Y
 1 X 5 Y 2 X -13 Y 2 X 28 Y 2 X -24 Y 2 X -2 Y 1 X 16 Y 2 X -13 Y 2 X 2 Y 2 X -3 Y 2 X 12 Y 1 X 3 Y 2 X -10 Y 2 X 4 Y 2 X -19 Y 2 X 10 Y 1 X 12 Y 2 X -23 Y 2 X 17 Y 2 X 14 Y 1 X -28 Y 2 X -2 Y 2 X 15 Y 2 X 12 Y 2 X -23 Y 1 X 4 Y 2 X -6 Y 2 X 19 Y 2 X
 -17 Y 2 X -4 Y 1 X -3 Y 2 X 5 Y 2 X 10 Y 2 X -20 Y 2 X 15 Y 1 X -12 Y 2 X -2 Y 2 X -1 Y 2 X 4 Y 3 X -15 Y 2 X -5 Y 2 X 12 Y 2 X -5 Y 1 X 11 Y 2 X -8 Y 2 X -7 Y 2 X -3 Y 2 X 17 Y 1 X 6 Y 2 X -4 Y 2 X -2 Y 2 X -9 Y 2 X -4 Y 1 X -5 Y 2 X 5 Y 4 X -1 Y 2
 X 16 Y 1 X -8 Y 2 X 3 Y 2 X -2 Y 2 X -19 Y 2 X 12 Y 1 X 3 Y 2 X 6 Y 2 X -12 Y 2 X 5 Y 1 X -3 Y 2 X 9 Y 2 X -16 Y 2 X 6 Y 2 X 3 Y 1 X -18 Y 2 X 20 Y 2 X -3 Y 2 X -2 Y 2 X 1 Y 1 X -5 Y 2 X -9 Y 2 X 7 Y 2 X 2 Y 2 X 3 Y 1 X -5 Y 2 X 1 Y 2 X -8 Y 2 X 12
 Y 2 X -12 Y 1 X 8 Y 2 X -3 Y 2 X 2 Y 2 X 1 Y 1 X -8 Y 2 X -14 Y 2 X 27 Y 2 X -6 Y 2 X 1 Y 1 X -12 Y 2 X 25 Y 2 X -20 Y 2 X -2 Y 2 X 9 Y 1 X -13 Y 2 X 2 Y 2 X -9 Y 2 X 16 Y 2 X -3 Y 1 X -2 Y 2 X -1 Y 2 X -7 Y 2 X -5 Y 2 X 16 Y 1 X -3 Y 2 X -9 Y 2 X 6
 Y 2 X -1 Y 1 X 3 Y 2 X -7 Y 2 X -1 Y 2 X 5 Y 2 X -13 Y 1 X 6 Y 2 X -2 Y 2 X 7 Y 2 X 2 Y 2 X -5 Y 1 X 1 Y 4 X -6 Y 2 X -2 Y 2 X 14 Y 1 X -16 Y 2 X 3 Y 2 X -2 Y 2 X 5 Y 2 X 9 Y 1 X -15 Y 2 X 2 Y 2 X 5 Y 5 X -1 Y 2 X 2 Y 2 X -12 Y 2 X 19 Y 1 X -6 Y 2 X
 -4 Y 2 X -11 Y 2 X 4 Y 2 X 2 Y 1 X 14 Y 2 X -15 Y 2 X -1 Y 2 X 11 Y 2 X -7 Y 1 X -2 Y 2 X -2 Y 2 X -8 Y 2 X -3 Y 2 X 22 Y 1 X -11 Y 2 X -6 Y 2 X 7 Y 2 X -1 Y 3 X 6 Y 2 X -11 Y 2 X 9 Y 3 X 3 Y 2 X -4 Y 4 X -5 Y 2 X 2 Y 1 X -7 Y 2 X 7 Y 2 X -5 Y 2 X 8
 Y 2 X -7 Y 1 X 6 Y 2 X -3 Y 2 X -11 Y 2 X 12 Y 2 X -11 Y 1 X 1 Y 2 X 13 Y 2 X -4 Y 2 X 8 Y 1 X -8 Y 2 X -2 Y 2 X 4 Y 2 X -11 Y 2 X 9 Y 1 X -4 Y 2 X 1 Y 2 X 4 Y 2 X -4 Y 2 X 6 Y 1 X -4 Y 4 X 3 Y 2 X -8 Y 2 X 2 Y 1 X -7 Y 2 X 2 Y 2 X -1 Y 2 X 5 Y 2 X
 2 Y 1 X -1 Y 4 X -9 Y 2 X 6 Y 1 X -4 Y 2 X 4 Y 2 X -7 Y 2 X 2 Y 2 X 1 Y 1 X 3 Y 2 X -7 Y 2 X 7 Y 2 X 5 Y 2 X -10 Y 1 X 2 Y 2 X -1 Y 2 X 2 Y 4 X -2 Y 1 X -3 Y 2 X 4 Y 2 X 3 Y 4 X -4 Y 1 X 2 Y 2 X 1 Y 2 X -3 Y 2 X 3 Y 1 X -4 Y 2 X 1 Y 2 X -12 Y 2 X 20
 Y 2 X -6 Y 1 X -4 Y 2 X 2 Y 2 X 1 Y 2 X -1 Y 2 X -1 Y 1 X 4 Y 2 X -3 Y 9 X -4 Y 2 X 1 Y 2 X 2 Y 1 X -2 Y 2 X 5 Y 4 X 1 Y 2 X -2 Y 1 X -3 Y 2 X 2 Y 2 X 2 Y 2 X -6 Y 2 X 5 Y 3 X 1 Y 2 X -6 Y 2 X 3 Y 2 X -2 Y 3 X -2 Y 2 X 1 Y 2 X 2 Y 2 X -5 Y 1 X 6 Y 4
 X 2 Y 2 X -1 Y 1 X -7 Y 2 X 6 Y 2 X 1 Y 2 X -4 Y 3 X 3 Y 2 X 2 Y 2 X -5 Y 2 X -5 Y 2 X 9 Y 1 X -6 Y 2 X 6 Y 2 X -5 Y 2 X 3 Y 2 X -6 Y 1 X 3 Y 2 X -2 Y 2 X 4 Y 2 X 3 Y 2 X -5 Y 1 X 3 Y 2 X -7 Y 2 X 1 Y 2 X 1 Y 1 X 2 Y 2 X -1 Y 2 X -2 Y 2 X 7 Y 2 X 2
 Y 1 X -8 Y 4 X 2 Y 2 X -1 Y 2 X 2 Y 1 X -2 Y 2 X 2 Y 4 X -1 Y 2 X -2 Y 1 X 2 Y 2 X -3 Y 2 X 1 Y 2 X 1 Y 2 X 2 Y 1 X -4 Y 2 X 1 Y 2 X 4 Y 2 X -5 Y 1 X 10 Y 2 X -9 Y 2 X 2 Y 2 X 3 Y 2 X -6 Y 1 X 2 Y 4 X -4 Y 2 X 5 Y 2 X -7 Y 1 X 4 Y 2 X 1 Y 2 X -3 Y 2
 X 4 Y 2 X -3 Y 1 X -1 Y 2 X 4 Y 2 X -3 Y 2 X 2 Y 3 X 3 Y 2 X -3 Y 2 X -4 Y 2 X 8 Y 1 X -2 Y 2 X -6 Y 2 X 1 Y 2 X -1 Y 2 X 3 Y 1 X 2 Y 2 X 1 Y 2 X -4 Y 2 X -3 Y 2 X 4 Y 3 X -1 Y 2 X 2 Y 2 X 3 Y 2 X -2 Y 3 X -1 Y 2 X -3 Y 5 X 5 Y 6 X -3 Y 1 X 2 Y 2 X
 -3 Y 2 X -2 Y 2 X 2 Y 2 X -3 Y 1 X 6 Y 4 X -3 Y 2 X -3 Y 2 X 7 Y 1 X -3 Y 2 X 2 Y 2 X -2 Y 2 X 1 Y 2 X -3 Y 3 X -1 Y 2 X 1 Y 2 X 2 Y 2 X -1 Y 1 X -3 Y 2 X 1 Y 2 X 5 Y 2 X 1 Y 1 X -7 Y 2 X 2 Y 2 X -1 Y 2 X 2 Y 2 X -1 Y 1 X -1 Y 2 X 2 Y 2 X -3 Y 4 X 2
 Y 5 X 2 Y 2 X -2 Y 3 X 1 Y 2 X -2 Y 2 X 2 Y 2 X 1 Y 2 X -4 Y 1 X 4 Y 2 X -2 Y 2 X -1 Y 2 X 1 Y 1 X 1 Y 2 X -1 Y 2 X -1 Y 2 X 1 Y 2 X -2 Y 1 X 2 Y 2 X 2 Y 2 X -3 Y 4 X -1 Y 1 X 2 Y 4 X 2 Y 2 X -3 Y 2 X 2 Y 1 X -2 Y 2 X -1 Y 2 X 1 Y 2 X -1 Y 2 X 1 Y 5
 X -1 Y 3 X 2 Y 2 X 1 Y 2 X -1 Y 4 X -1 Y 1 X -1 Y 2 X 5 Y 2 X -4 Y 2 X 1 Y 2 X 1 Y 3 X -3 Y 2 X 2 Y 2 X 1 Y 2 X 1 Y 1 X -3 Y 2 X 4 Y 2 X -4 Y 2 X -1 Y 2 X 1 Y 1 X 1 Y 2 X -2 Y 2 X 1 Y 5 X -1 Y 2 X 2 Y 2 X -2 Y 7 X 2 Y 4 X -2 Y 5 X 2 Y 5 X -1 Y 4 X 2
 Y 2 X -3 Y 3 X 3 Y 2 X -1 Y 2 X -1 Y 2 X -1 Y 1 X 1 Y 4 X -1 Y 13 X 1 Y 1 X -1 Y 8 X 3 Y 1 X s 3 lw 363 246 m 1791 X s
 gsave  2268 1538 0 0 C 1671.46 114.037 t 0 r /Helvetica findfont 71.6807 sf 0 0 m (Hits per sensor) show NC gr  541 283 m -37 Y s 577 264 m -18 Y s 613 264 m -18 Y s 649 264 m -18 Y s 684 264 m -18 Y s 720 283 m -37 Y s 756 264 m -18 Y s 792 264 m
 -18 Y s 828 264 m -18 Y s 864 264 m -18 Y s 899 283 m -37 Y s 935 264 m -18 Y s 971 264 m -18 Y s 1007 264 m -18 Y s 1043 264 m -18 Y s 1079 283 m -37 Y s 1114 264 m -18 Y s 1150 264 m -18 Y s 1186 264 m -18 Y s 1222 264 m -18 Y s 1258 283 m -37 Y s
 1294 264 m -18 Y s 1329 264 m -18 Y s 1365 264 m -18 Y s 1401 264 m -18 Y s 1437 283 m -37 Y s 1473 264 m -18 Y s 1508 264 m -18 Y s 1544 264 m -18 Y s 1580 264 m -18 Y s 1616 283 m -37 Y s 1652 264 m -18 Y s 1688 264 m -18 Y s 1723 264 m -18 Y s
 1759 264 m -18 Y s 1795 283 m -37 Y s 1831 264 m -18 Y s 1867 264 m -18 Y s 1903 264 m -18 Y s 1938 264 m -18 Y s 1974 283 m -37 Y s 2010 264 m -18 Y s 2046 264 m -18 Y s 2082 264 m -18 Y s 2118 264 m -18 Y s 2153 283 m -37 Y s 541 283 m -37 Y s 505
 264 m -18 Y s 469 264 m -18 Y s 434 264 m -18 Y s 398 264 m -18 Y s 2153 283 m -37 Y s
 gsave  2268 1538 0 0 C 482.216 179.202 t 0 r /Helvetica findfont 71.6807 sf 0 0 m (100) show NC gr 
 gsave  2268 1538 0 0 C 661.417 179.202 t 0 r /Helvetica findfont 71.6807 sf 0 0 m (200) show NC gr 
 gsave  2268 1538 0 0 C 840.619 179.202 t 0 r /Helvetica findfont 71.6807 sf 0 0 m (300) show NC gr 
 gsave  2268 1538 0 0 C 1019.82 179.202 t 0 r /Helvetica findfont 71.6807 sf 0 0 m (400) show NC gr 
 gsave  2268 1538 0 0 C 1199.02 179.202 t 0 r /Helvetica findfont 71.6807 sf 0 0 m (500) show NC gr 
 gsave  2268 1538 0 0 C 1374.97 179.202 t 0 r /Helvetica findfont 71.6807 sf 0 0 m (600) show NC gr 
 gsave  2268 1538 0 0 C 1554.17 179.202 t 0 r /Helvetica findfont 71.6807 sf 0 0 m (700) show NC gr 
 gsave  2268 1538 0 0 C 1733.37 179.202 t 0 r /Helvetica findfont 71.6807 sf 0 0 m (800) show NC gr 
 gsave  2268 1538 0 0 C 1912.57 179.202 t 0 r /Helvetica findfont 71.6807 sf 0 0 m (900) show NC gr 
 gsave  2268 1538 0 0 C 2072.22 179.202 t 0 r /Helvetica findfont 71.6807 sf 0 0 m (1000) show NC gr  363 1461 m 1791 X s 541 1425 m 36 Y s 577 1443 m 18 Y s 613 1443 m 18 Y s 649 1443 m 18 Y s 684 1443 m 18 Y s 720 1425 m 36 Y s 756 1443 m 18 Y s
 792 1443 m 18 Y s 828 1443 m 18 Y s 864 1443 m 18 Y s 899 1425 m 36 Y s 935 1443 m 18 Y s 971 1443 m 18 Y s 1007 1443 m 18 Y s 1043 1443 m 18 Y s 1079 1425 m 36 Y s 1114 1443 m 18 Y s 1150 1443 m 18 Y s 1186 1443 m 18 Y s 1222 1443 m 18 Y s 1258
 1425 m 36 Y s 1294 1443 m 18 Y s 1329 1443 m 18 Y s 1365 1443 m 18 Y s 1401 1443 m 18 Y s 1437 1425 m 36 Y s 1473 1443 m 18 Y s 1508 1443 m 18 Y s 1544 1443 m 18 Y s 1580 1443 m 18 Y s 1616 1425 m 36 Y s 1652 1443 m 18 Y s 1688 1443 m 18 Y s 1723
 1443 m 18 Y s 1759 1443 m 18 Y s 1795 1425 m 36 Y s 1831 1443 m 18 Y s 1867 1443 m 18 Y s 1903 1443 m 18 Y s 1938 1443 m 18 Y s 1974 1425 m 36 Y s 2010 1443 m 18 Y s 2046 1443 m 18 Y s 2082 1443 m 18 Y s 2118 1443 m 18 Y s 2153 1425 m 36 Y s 541
 1425 m 36 Y s 505 1443 m 18 Y s 469 1443 m 18 Y s 434 1443 m 18 Y s 398 1443 m 18 Y s 2153 1425 m 36 Y s 363 246 m 1215 Y s
 gsave  2268 1538 0 0 C 133.587 860.168 t 90 r /Helvetica findfont 71.6807 sf 0 0 m (Normalised Entries) show NC gr  417 428 m -54 X s 390 474 m -27 X s 390 519 m -27 X s 390 565 m -27 X s 417 611 m -54 X s 390 656 m -27 X s 390 702 m -27 X s 390 748
 m -27 X s 417 793 m -54 X s 390 839 m -27 X s 390 885 m -27 X s 390 931 m -27 X s 417 976 m -54 X s 390 1022 m -27 X s 390 1068 m -27 X s 390 1113 m -27 X s 417 1159 m -54 X s 390 1205 m -27 X s 390 1250 m -27 X s 390 1296 m -27 X s 417 1342 m -54 X
 s 417 428 m -54 X s 390 382 m -27 X s 390 337 m -27 X s 390 291 m -27 X s 417 1342 m -54 X s 390 1388 m -27 X s 390 1433 m -27 X s
 gsave  2268 1538 0 0 C 169.427 404.018 t 0 r /Helvetica findfont 71.6807 sf 0 0 m (0.002) show NC gr 
 gsave  2268 1538 0 0 C 169.427 586.478 t 0 r /Helvetica findfont 71.6807 sf 0 0 m (0.004) show NC gr 
 gsave  2268 1538 0 0 C 169.427 768.938 t 0 r /Helvetica findfont 71.6807 sf 0 0 m (0.006) show NC gr 
 gsave  2268 1538 0 0 C 169.427 951.398 t 0 r /Helvetica findfont 71.6807 sf 0 0 m (0.008) show NC gr 
 gsave  2268 1538 0 0 C 221.559 1133.86 t 0 r /Helvetica findfont 71.6807 sf 0 0 m (0.01) show NC gr 
 gsave  2268 1538 0 0 C 169.427 1316.32 t 0 r /Helvetica findfont 71.6807 sf 0 0 m (0.012) show NC gr  2154 246 m 1215 Y s 2101 428 m 53 X s 2127 474 m 27 X s 2127 519 m 27 X s 2127 565 m 27 X s 2101 611 m 53 X s 2127 656 m 27 X s 2127 702 m 27 X s
 2127 748 m 27 X s 2101 793 m 53 X s 2127 839 m 27 X s 2127 885 m 27 X s 2127 931 m 27 X s 2101 976 m 53 X s 2127 1022 m 27 X s 2127 1068 m 27 X s 2127 1113 m 27 X s 2101 1159 m 53 X s 2127 1205 m 27 X s 2127 1250 m 27 X s 2127 1296 m 27 X s 2101
 1342 m 53 X s 2101 428 m 53 X s 2127 382 m 27 X s 2127 337 m 27 X s 2127 291 m 27 X s 2101 1342 m 53 X s 2127 1388 m 27 X s 2127 1433 m 27 X s 1 0 0 c 12 lw 1 1 1 c black 1 0 0 c 363 246 m 27 X 1 Y 1 X -1 Y 9 X 1 Y 8 X -1 Y 1 X 2 Y 2 X -1 Y 4 X -1 Y
 3 X 3 Y 2 X -2 Y 2 X -1 Y 2 X 4 Y 2 X -2 Y 7 X 2 Y 1 X 2 Y 2 X -1 Y 2 X -3 Y 4 X 4 Y 1 X -2 Y 2 X 3 Y 2 X -2 Y 2 X 1 Y 3 X 1 Y 2 X 5 Y 2 X -2 Y 2 X -1 Y 2 X 1 Y 1 X 1 Y 2 X -2 Y 2 X 10 Y 2 X -4 Y 2 X -5 Y 1 X 4 Y 2 X 4 Y 2 X -5 Y 2 X -1 Y 1 X 5 Y 2
 X 3 Y 2 X 2 Y 2 X 3 Y 2 X -1 Y 1 X 6 Y 2 X 1 Y 2 X -6 Y 2 X 6 Y 2 X -4 Y 1 X 10 Y 2 X -8 Y 2 X 1 Y 2 X 8 Y 2 X -1 Y 1 X -3 Y 2 X 10 Y 2 X -2 Y 2 X 8 Y 2 X 3 Y 1 X -6 Y 2 X -1 Y 2 X 8 Y 2 X 4 Y 1 X 9 Y 2 X -10 Y 2 X 19 Y 2 X -11 Y 2 X 15 Y 1 X -21 Y
 2 X 21 Y 2 X 6 Y 2 X 3 Y 2 X 5 Y 1 X -5 Y 2 X 1 Y 2 X 13 Y 2 X -4 Y 2 X 3 Y 1 X -2 Y 2 X 15 Y 2 X 14 Y 2 X -18 Y 2 X -4 Y 1 X 27 Y 2 X -7 Y 2 X 18 Y 3 X 2 Y 2 X 8 Y 2 X 19 Y 2 X -9 Y 2 X -7 Y 1 X 7 Y 2 X 5 Y 2 X 8 Y 2 X -5 Y 2 X 16 Y 1 X -6 Y 2 X 13
 Y 2 X -2 Y 2 X 20 Y 3 X -10 Y 2 X -3 Y 2 X 3 Y 4 X 27 Y 1 X -4 Y 2 X 8 Y 2 X 3 Y 2 X -32 Y 1 X 23 Y 2 X -10 Y 2 X 28 Y 2 X -7 Y 2 X -7 Y 1 X 13 Y 2 X 11 Y 2 X -14 Y 2 X 15 Y 2 X -2 Y 1 X 1 Y 2 X 17 Y 2 X -14 Y 2 X 18 Y 2 X -7 Y 1 X -13 Y 2 X 1 Y 2 X
 33 Y 2 X -4 Y 2 X 1 Y 1 X 14 Y 2 X -24 Y 2 X 19 Y 2 X -6 Y 1 X 2 Y 2 X 20 Y 2 X -17 Y 4 X 11 Y 1 X 21 Y 2 X -41 Y 2 X -1 Y 2 X 32 Y 2 X -21 Y 1 X 12 Y 2 X 10 Y 2 X -18 Y 2 X 27 Y 2 X -19 Y 3 X 6 Y 2 X -25 Y 2 X 38 Y 2 X -16 Y 1 X -5 Y 2 X 10 Y 2 X
 16 Y 2 X -5 Y 1 X 4 Y 2 X 3 Y 2 X -10 Y 2 X 3 Y 2 X -3 Y 1 X 2 Y 2 X 12 Y 2 X -1 Y 2 X 27 Y 2 X -49 Y 1 X 8 Y 2 X 17 Y 2 X -13 Y 2 X -11 Y 2 X 9 Y 1 X 16 Y 2 X -12 Y 2 X -2 Y 2 X 22 Y 2 X -42 Y 1 X 38 Y 2 X -9 Y 2 X 15 Y 2 X -36 Y 1 X 9 Y 2 X 21 Y 2
 X -19 Y 2 X -5 Y 2 X 16 Y 3 X -1 Y 2 X -2 Y 2 X -29 Y 2 X 37 Y 1 X -7 Y 2 X -12 Y 2 X 4 Y 2 X -21 Y 2 X 20 Y 1 X 32 Y 2 X -32 Y 2 X 8 Y 2 X -6 Y 2 X -8 Y 1 X 17 Y 2 X -17 Y 2 X 6 Y 2 X 4 Y 1 X -34 Y 2 X 38 Y 2 X -34 Y 2 X 34 Y 2 X -21 Y 1 X 35 Y 2 X
 -39 Y 2 X 11 Y 2 X -20 Y 2 X 11 Y 3 X -4 Y 2 X -6 Y 2 X 8 Y 2 X 5 Y 1 X -18 Y 2 X 20 Y 2 X -5 Y 2 X -4 Y 2 X -4 Y 1 X -9 Y 2 X 29 Y 2 X -25 Y 2 X 10 Y 1 X -16 Y 2 X 7 Y 2 X 2 Y 2 X -3 Y 3 X 17 Y 2 X -28 Y 2 X 34 Y 2 X -14 Y 2 X 1 Y 1 X -22 Y 2 X -4
 Y 2 X 9 Y 2 X 6 Y 2 X -17 Y 1 X 15 Y 2 X 6 Y 2 X -29 Y 2 X 27 Y 1 X -13 Y 2 X -6 Y 2 X -1 Y 2 X 7 Y 2 X -12 Y 1 X -4 Y 2 X 25 Y 2 X -18 Y 2 X 18 Y 2 X -6 Y 1 X -16 Y 2 X -8 Y 2 X -4 Y 2 X -3 Y 2 X 8 Y 1 X 5 Y 2 X -15 Y 2 X 10 Y 4 X -10 Y 1 X -20 Y 2
 X 35 Y 2 X -28 Y 2 X 7 Y 1 X 9 Y 2 X -20 Y 2 X 6 Y 4 X -14 Y 1 X 14 Y 2 X -4 Y 2 X -7 Y 2 X 2 Y 2 X 14 Y 1 X -25 Y 2 X 11 Y 2 X -1 Y 2 X -4 Y 2 X -5 Y 1 X 6 Y 2 X -7 Y 2 X 4 Y 2 X -4 Y 2 X -1 Y 1 X -12 Y 2 X -3 Y 2 X 7 Y 2 X 21 Y 1 X -23 Y 2 X 12 Y
 2 X -21 Y 2 X 24 Y 2 X -9 Y 1 X -26 Y 2 X 5 Y 2 X 7 Y 2 X -10 Y 2 X 16 Y 1 X -31 Y 2 X 20 Y 2 X -2 Y 2 X -15 Y 2 X 17 Y 1 X -5 Y 2 X -14 Y 2 X 3 Y 2 X 3 Y 2 X 6 Y 1 X 4 Y 2 X -14 Y 2 X 1 Y 2 X -7 Y 3 X 14 Y 2 X -10 Y 2 X -6 Y 2 X -5 Y 1 X 2 Y 2 X 2
 Y 2 X 7 Y 2 X -21 Y 2 X 11 Y 1 X 4 Y 2 X -11 Y 2 X -1 Y 2 X 8 Y 2 X -3 Y 1 X -6 Y 2 X 19 Y 2 X -5 Y 2 X -20 Y 3 X -3 Y 2 X 1 Y 2 X -17 Y 2 X 14 Y 1 X -2 Y 2 X -3 Y 2 X 9 Y 2 X 2 Y 2 X -21 Y 1 X 6 Y 2 X 4 Y 2 X 1 Y 2 X -8 Y 2 X -5 Y 1 X -2 Y 2 X 19 Y
 2 X -23 Y 2 X 22 Y 2 X -18 Y 1 X -1 Y 2 X 2 Y 2 X 4 Y 2 X 5 Y 2 X -4 Y 1 X -15 Y 2 X 8 Y 2 X 7 Y 2 X -7 Y 1 X 2 Y 2 X -8 Y 2 X 5 Y 2 X -2 Y 2 X 8 Y 1 X -8 Y 2 X -8 Y 2 X -14 Y 2 X 17 Y 2 X -16 Y 1 X 10 Y 2 X -5 Y 4 X -11 Y 2 X -1 Y 1 X 1 Y 2 X 10 Y
 2 X -2 Y 2 X -16 Y 2 X 8 Y 1 X -2 Y 2 X 9 Y 2 X -14 Y 2 X 14 Y 1 X -6 Y 2 X -3 Y 2 X 7 Y 2 X -2 Y 2 X -10 Y 1 X 11 Y 2 X 3 Y 2 X -8 Y 2 X 3 Y 2 X -6 Y 1 X 4 Y 2 X 3 Y 2 X -4 Y 2 X -14 Y 2 X 6 Y 1 X -8 Y 2 X 7 Y 4 X 11 Y 2 X -15 Y 1 X -1 Y 2 X 17 Y 2
 X -13 Y 2 X -7 Y 1 X 1 Y 2 X 1 Y 2 X -5 Y 2 X 9 Y 2 X -16 Y 1 X -4 Y 2 X 11 Y 2 X 4 Y 2 X -21 Y 2 X 12 Y 1 X 6 Y 2 X -12 Y 2 X 17 Y 2 X -16 Y 2 X 7 Y 1 X 4 Y 2 X -4 Y 2 X -2 Y 2 X -7 Y 2 X 12 Y 1 X -11 Y 2 X -1 Y 2 X 2 Y 2 X 10 Y 1 X -14 Y 2 X 11 Y
 2 X -13 Y 2 X 6 Y 2 X -15 Y 1 X 9 Y 2 X -1 Y 2 X 2 Y 2 X 4 Y 2 X 1 Y 1 X -5 Y 2 X 4 Y 2 X -11 Y 2 X 3 Y 2 X 1 Y 1 X -8 Y 2 X 5 Y 2 X 1 Y 2 X -7 Y 2 X 14 Y 1 X -8 Y 2 X 4 Y 2 X -1 Y 2 X -12 Y 1 X 3 Y 2 X -4 Y 2 X 15 Y 2 X -17 Y 2 X -4 Y 1 X 11 Y 2 X
 -5 Y 2 X 2 Y 2 X -6 Y 2 X 7 Y 1 X 7 Y 2 X -8 Y 2 X 1 Y 2 X -10 Y 2 X 6 Y 1 X 9 Y 2 X -16 Y 2 X 12 Y 2 X 9 Y 1 X -14 Y 2 X -3 Y 2 X 6 Y 2 X 4 Y 2 X -9 Y 3 X -4 Y 2 X 13 Y 2 X -9 Y 2 X -4 Y 1 X -1 Y 2 X -1 Y 2 X 10 Y 2 X -8 Y 2 X 4 Y 1 X -4 Y 2 X 1 Y
 2 X -4 Y 4 X -1 Y 1 X -5 Y 2 X -1 Y 2 X 5 Y 2 X -4 Y 1 X 7 Y 2 X -5 Y 2 X -5 Y 2 X 1 Y 2 X 9 Y 1 X 2 Y 2 X -4 Y 2 X -2 Y 2 X -2 Y 2 X -2 Y 1 X -2 Y 2 X 1 Y 2 X 1 Y 2 X -3 Y 2 X 12 Y 1 X -7 Y 2 X 1 Y 2 X -1 Y 2 X -9 Y 2 X 5 Y 1 X 4 Y 2 X -1 Y 2 X -4
 Y 2 X 3 Y 3 X 1 Y 2 X -2 Y 4 X -1 Y 1 X -7 Y 2 X 7 Y 2 X 1 Y 2 X -2 Y 2 X 1 Y 1 X -4 Y 2 X -1 Y 2 X 3 Y 2 X -1 Y 2 X 2 Y 3 X -4 Y 2 X -5 Y 2 X 9 Y 2 X -8 Y 1 X 5 Y 2 X -3 Y 2 X 2 Y 2 X 4 Y 1 X -4 Y 2 X -10 Y 2 X 16 Y 2 X -6 Y 2 X 2 Y 1 X -7 Y 2 X 13
 Y 2 X -11 Y 2 X -2 Y 2 X 7 Y 1 X -7 Y 4 X -6 Y 2 X 10 Y 2 X -3 Y 1 X 2 Y 2 X -2 Y 2 X -4 Y 2 X -2 Y 2 X 5 Y 3 X -5 Y 2 X 5 Y 2 X 2 Y 1 X -1 Y 2 X -4 Y 2 X 1 Y 2 X 2 Y 2 X -6 Y 1 X 3 Y 2 X -4 Y 2 X 5 Y 2 X 2 Y 2 X -4 Y 1 X 2 Y 2 X -2 Y 2 X -3 Y 2 X
 -1 Y 2 X 7 Y 1 X -9 Y 2 X 3 Y 2 X -2 Y 2 X 2 Y 2 X 7 Y 1 X -8 Y 2 X 2 Y 2 X 3 Y 2 X -2 Y 3 X -2 Y 2 X 3 Y 2 X -7 Y 2 X 11 Y 1 X -4 Y 2 X -2 Y 2 X -5 Y 4 X 2 Y 1 X 9 Y 2 X -10 Y 2 X -1 Y 2 X 7 Y 2 X -4 Y 1 X -2 Y 4 X -4 Y 4 X 10 Y 1 X -7 Y 2 X -2 Y 2
 X 3 Y 5 X 4 Y 2 X -6 Y 2 X 4 Y 2 X -1 Y 1 X 3 Y 2 X -2 Y 4 X -3 Y 2 X 2 Y 1 X -4 Y 2 X 2 Y 2 X -2 Y 2 X 4 Y 2 X -1 Y 1 X 1 Y 2 X -1 Y 2 X -5 Y 2 X 7 Y 2 X -7 Y 3 X 6 Y 2 X -2 Y 2 X 3 Y 1 X -2 Y 2 X -1 Y 2 X 1 Y 2 X -5 Y 2 X 4 Y 1 X -2 Y 2 X 1 Y 2 X
 2 Y 2 X -3 Y 2 X 4 Y 1 X -2 Y 4 X 1 Y 2 X -4 Y 2 X 2 Y 1 X -4 Y 4 X 2 Y 2 X 1 Y 3 X 1 Y 2 X -1 Y 2 X -4 Y 2 X 3 Y 1 X -3 Y 2 X 3 Y 2 X -4 Y 4 X 1 Y 1 X 2 Y 2 X -3 Y 2 X 3 Y 2 X 3 Y 2 X -5 Y 1 X 1 Y 2 X -1 Y 2 X 2 Y 4 X -1 Y 1 X -2 Y 2 X 2 Y 2 X 1 Y
 4 X -2 Y 1 X 1 Y 2 X 1 Y 2 X -2 Y 2 X 1 Y 1 X -1 Y 4 X -5 Y 2 X 10 Y 2 X -3 Y 1 X -3 Y 2 X 1 Y 6 X -1 Y 1 X 4 Y 2 X -3 Y 2 X -1 Y 2 X 1 Y 2 X -1 Y 7 X 1 Y 1 X -2 Y 2 X 3 Y 4 X 2 Y 2 X -2 Y 1 X -2 Y 2 X 1 Y 2 X 2 Y 2 X -4 Y 2 X 3 Y 1 X -1 Y 2 X 1 Y 2
 X -3 Y 2 X 2 Y 2 X -2 Y 3 X -1 Y 2 X 1 Y 4 X -1 Y 1 X 2 Y 2 X 1 Y 5 X -3 Y 2 X 2 Y 4 X -1 Y 3 X 1 Y 2 X 2 Y 2 X -4 Y 2 X -1 Y 2 X 3 Y 1 X -2 Y 2 X 2 Y 2 X -1 Y 2 X 1 Y 2 X -3 Y 1 X 1 Y 2 X -1 Y 2 X 2 Y 2 X 1 Y 2 X -2 Y 1 X 2 Y 2 X -4 Y 2 X 1 Y 3 X 1
 Y 4 X -1 Y 2 X 3 Y 2 X 1 Y 1 X -3 Y 2 X -1 Y 2 X 1 Y 2 X -1 Y 2 X 1 Y 1 X -1 Y 2 X 2 Y 2 X -1 Y 4 X -1 Y 1 X 1 Y 2 X -1 Y 6 X 2 Y 1 X -2 Y 4 X 2 Y 2 X -2 Y 1 X 5 Y 2 X -5 Y 2 X 1 Y 2 X 1 Y 2 X -2 Y 3 X 1 Y 2 X -2 Y 2 X 2 Y 2 X -2 Y 1 X 1 Y 4 X -1 Y
 2 X 2 Y 2 X -1 Y 1 X -1 Y 2 X 2 Y 2 X -2 Y 2 X 2 Y 2 X -1 Y 1 X 2 Y 2 X -2 Y 2 X -2 Y 2 X 4 Y 1 X -1 Y 2 X -3 Y 2 X 1 Y 4 X 1 Y 3 X 1 Y 2 X -1 Y 2 X -2 Y 2 X 2 Y 1 X 1 Y 2 X -1 Y 4 X 1 Y 3 X -1 Y 4 X -1 Y 5 X 2 Y 6 X -1 Y 1 X 1 Y 2 X -1 Y 2 X -1 Y 4
 X -1 Y 1 X 2 Y 6 X -2 Y 2 X 3 Y 1 X -1 Y 2 X 1 Y 2 X -1 Y 4 X -1 Y 3 X -1 Y 2 X 1 Y 2 X 1 Y 2 X -1 Y 1 X -1 Y 4 X 2 Y 2 X 1 Y 1 X -3 Y 2 X 1 Y 2 X -1 Y 2 X 2 Y 2 X -1 Y 5 X -1 Y 4 X 1 Y 5 X 1 Y 2 X -1 Y 5 X -1 Y 2 X 1 Y 2 X 1 Y 2 X -2 Y 1 X 2 Y 4 X
 -1 Y 3 X 1 Y 2 X -1 Y 2 X -1 Y 2 X 1 Y 5 X 1 Y 2 X -2 Y 5 X 1 Y 4 X 1 Y 2 X -2 Y 2 X 1 Y 1 X -1 Y 11 X 1 Y 2 X -1 Y 3 X 1 Y 8 X -1 Y 3 X 2 Y 2 X -2 Y 2 X 1 Y 5 X -1 Y 2 X 1 Y 2 X 1 Y 3 X -2 Y 2 X 2 Y 2 X -2 Y 5 X 1 Y 2 X -1 Y 5 X 1 Y 2 X -1 Y 2 X 1
 Y 2 X -1 Y 7 X 1 Y 4 X -1 Y 5 X 1 Y 7 X -1 Y 2 X 1 Y 2 X -1 Y 3 X 1 Y 4 X -1 Y 29 X 2 Y 1 X s 0 1 0 c 1 1 1 c black 0 1 0 c 363 247 m 2 X 5 Y 1 X -1 Y 4 X 3 Y 2 X 1 Y 2 X 2 Y 1 X 1 Y 2 X 4 Y 2 X 4 Y 2 X 4 Y 2 X -1 Y 1 X 12 Y 4 X 10 Y 2 X 3 Y 1 X 6 Y
 2 X 10 Y 2 X 8 Y 2 X 15 Y 2 X 4 Y 1 X 16 Y 2 X 22 Y 2 X 8 Y 4 X 28 Y 1 X 3 Y 2 X 28 Y 2 X -9 Y 2 X 26 Y 2 X 24 Y 1 X 28 Y 2 X -1 Y 2 X 10 Y 2 X 21 Y 2 X 21 Y 1 X 18 Y 2 X 1 Y 2 X 1 Y 2 X 27 Y 1 X 4 Y 2 X 1 Y 2 X 17 Y 2 X 9 Y 2 X 8 Y 1 X 3 Y 2 X -4 Y
 2 X 24 Y 2 X 13 Y 2 X -6 Y 1 X 16 Y 2 X -9 Y 2 X 17 Y 2 X -7 Y 2 X 2 Y 1 X 5 Y 2 X -3 Y 2 X 12 Y 2 X -4 Y 2 X -10 Y 1 X -5 Y 2 X 16 Y 2 X -6 Y 2 X 6 Y 3 X -21 Y 2 X 2 Y 2 X -11 Y 2 X -19 Y 1 X 2 Y 2 X 2 Y 2 X -6 Y 2 X 20 Y 2 X -37 Y 1 X -13 Y 2 X 6
 Y 2 X 7 Y 2 X -15 Y 2 X -3 Y 1 X -12 Y 2 X 14 Y 2 X -25 Y 2 X 6 Y 2 X -23 Y 1 X -11 Y 2 X -1 Y 2 X 15 Y 2 X -8 Y 1 X -12 Y 2 X -14 Y 2 X 22 Y 2 X -21 Y 2 X 19 Y 1 X -39 Y 2 X 34 Y 2 X -38 Y 2 X 27 Y 2 X -16 Y 1 X -23 Y 2 X 7 Y 2 X 6 Y 2 X 1 Y 2 X
 -14 Y 1 X -14 Y 2 X 10 Y 2 X 4 Y 2 X -9 Y 2 X -31 Y 1 X 28 Y 2 X -25 Y 2 X 11 Y 2 X 9 Y 1 X -6 Y 2 X -4 Y 2 X 15 Y 2 X -13 Y 2 X -21 Y 1 X 4 Y 2 X 3 Y 2 X 2 Y 2 X -6 Y 2 X 4 Y 1 X 5 Y 2 X -3 Y 2 X -18 Y 2 X 19 Y 2 X -1 Y 1 X -15 Y 2 X 9 Y 2 X -10 Y
 2 X 1 Y 2 X 4 Y 1 X 3 Y 2 X -1 Y 2 X -3 Y 2 X -15 Y 1 X 8 Y 2 X -4 Y 2 X 17 Y 2 X -11 Y 2 X -8 Y 1 X 10 Y 2 X 5 Y 2 X -17 Y 2 X 9 Y 2 X -4 Y 3 X 17 Y 2 X -15 Y 2 X 9 Y 2 X -10 Y 1 X -1 Y 2 X -5 Y 2 X 13 Y 2 X 3 Y 2 X -4 Y 1 X 5 Y 2 X -17 Y 2 X 13 Y
 2 X -2 Y 1 X -8 Y 2 X 12 Y 2 X -4 Y 2 X -1 Y 2 X 4 Y 1 X 12 Y 2 X -24 Y 2 X -2 Y 2 X 19 Y 2 X -17 Y 1 X 8 Y 4 X -7 Y 2 X 15 Y 2 X -8 Y 1 X -3 Y 2 X 5 Y 2 X -21 Y 2 X 21 Y 2 X -1 Y 1 X -13 Y 2 X 10 Y 2 X 11 Y 2 X -8 Y 1 X 6 Y 2 X -4 Y 2 X -3 Y 2 X 2
 Y 2 X -3 Y 1 X 2 Y 2 X 4 Y 4 X 17 Y 2 X -30 Y 1 X 5 Y 2 X 9 Y 2 X -6 Y 2 X -10 Y 2 X 8 Y 1 X 8 Y 2 X -9 Y 4 X 18 Y 2 X -30 Y 1 X 24 Y 2 X -6 Y 2 X 8 Y 2 X -24 Y 1 X 9 Y 2 X 13 Y 2 X -16 Y 2 X -1 Y 2 X 12 Y 1 X -3 Y 2 X -2 Y 2 X 1 Y 2 X -19 Y 2 X 22
 Y 1 X -4 Y 2 X -7 Y 4 X -13 Y 2 X 14 Y 1 X 19 Y 2 X -18 Y 2 X 3 Y 2 X -4 Y 2 X -5 Y 1 X 11 Y 2 X -10 Y 2 X 3 Y 2 X 3 Y 1 X -22 Y 2 X 25 Y 2 X -21 Y 2 X 21 Y 2 X -16 Y 1 X 22 Y 2 X -23 Y 2 X 8 Y 2 X -14 Y 2 X 6 Y 1 X 1 Y 2 X -2 Y 2 X -4 Y 2 X 3 Y 2 X
 5 Y 1 X -11 Y 2 X 11 Y 2 X -2 Y 2 X -2 Y 2 X -4 Y 1 X -7 Y 2 X 19 Y 2 X -13 Y 2 X 6 Y 1 X -11 Y 2 X 4 Y 2 X 1 Y 2 X -2 Y 2 X 2 Y 1 X 10 Y 2 X -19 Y 2 X 23 Y 2 X -11 Y 2 X 2 Y 1 X -13 Y 2 X -4 Y 2 X 6 Y 2 X 3 Y 2 X -11 Y 1 X 10 Y 2 X 3 Y 2 X -18 Y 2
 X 17 Y 1 X -9 Y 2 X -2 Y 2 X -1 Y 2 X 3 Y 2 X -8 Y 1 X -1 Y 2 X 16 Y 2 X -12 Y 2 X 11 Y 2 X -4 Y 1 X -9 Y 2 X -5 Y 2 X -3 Y 2 X -2 Y 2 X 6 Y 1 X 2 Y 2 X -8 Y 2 X 6 Y 2 X -1 Y 2 X -6 Y 1 X -12 Y 2 X 22 Y 2 X -18 Y 2 X 4 Y 1 X 6 Y 2 X -13 Y 2 X 4 Y 4
 X -8 Y 1 X 9 Y 2 X -4 Y 2 X -4 Y 2 X 1 Y 2 X 9 Y 1 X -17 Y 2 X 8 Y 4 X -2 Y 2 X -4 Y 1 X 3 Y 2 X -4 Y 2 X 2 Y 2 X -1 Y 2 X -2 Y 1 X -8 Y 2 X -1 Y 2 X 5 Y 2 X 14 Y 1 X -15 Y 2 X 7 Y 2 X -13 Y 2 X 15 Y 2 X -6 Y 1 X -17 Y 2 X 4 Y 2 X 4 Y 2 X -6 Y 2 X 9
 Y 1 X -19 Y 2 X 13 Y 2 X -1 Y 2 X -10 Y 2 X 11 Y 1 X -3 Y 2 X -9 Y 2 X 2 Y 2 X 1 Y 2 X 5 Y 1 X 2 Y 2 X -9 Y 4 X -3 Y 3 X 8 Y 2 X -6 Y 2 X -3 Y 2 X -4 Y 1 X 1 Y 2 X 2 Y 2 X 4 Y 2 X -13 Y 2 X 7 Y 1 X 2 Y 2 X -7 Y 4 X 4 Y 2 X -1 Y 1 X -4 Y 2 X 12 Y 2 X
 -3 Y 2 X -13 Y 3 X -1 Y 4 X -10 Y 2 X 8 Y 1 X -1 Y 2 X -1 Y 2 X 4 Y 2 X 1 Y 2 X -12 Y 1 X 3 Y 2 X 3 Y 2 X 1 Y 2 X -6 Y 2 X -2 Y 1 X -2 Y 2 X 12 Y 2 X -14 Y 2 X 13 Y 2 X -11 Y 1 X -1 Y 2 X 2 Y 2 X 3 Y 2 X 2 Y 2 X -2 Y 1 X -9 Y 2 X 4 Y 2 X 5 Y 2 X -5
 Y 1 X 2 Y 2 X -5 Y 2 X 3 Y 2 X -2 Y 2 X 6 Y 1 X -5 Y 2 X -5 Y 2 X -9 Y 2 X 11 Y 2 X -11 Y 1 X 6 Y 2 X -3 Y 2 X 1 Y 2 X -7 Y 2 X -1 Y 1 X 1 Y 2 X 6 Y 2 X -1 Y 2 X -10 Y 2 X 5 Y 1 X -2 Y 2 X 6 Y 2 X -9 Y 2 X 9 Y 1 X -4 Y 2 X -2 Y 2 X 5 Y 2 X -2 Y 2 X
 -6 Y 1 X 7 Y 2 X 2 Y 2 X -5 Y 2 X 2 Y 2 X -4 Y 1 X 3 Y 2 X 1 Y 2 X -2 Y 2 X -8 Y 2 X 3 Y 1 X -5 Y 2 X 5 Y 2 X -1 Y 2 X 7 Y 2 X -9 Y 1 X -1 Y 2 X 11 Y 2 X -8 Y 2 X -5 Y 1 X 1 Y 2 X 1 Y 2 X -3 Y 2 X 5 Y 2 X -10 Y 1 X -2 Y 2 X 7 Y 2 X 2 Y 2 X -13 Y 2 X
 7 Y 1 X 4 Y 2 X -8 Y 2 X 11 Y 2 X -10 Y 2 X 4 Y 1 X 3 Y 2 X -2 Y 2 X -1 Y 2 X -5 Y 2 X 7 Y 1 X -6 Y 2 X -1 Y 2 X 1 Y 2 X 6 Y 1 X -8 Y 2 X 6 Y 2 X -8 Y 2 X 4 Y 2 X -9 Y 1 X 6 Y 2 X -1 Y 2 X 2 Y 2 X 1 Y 2 X 1 Y 1 X -3 Y 2 X 2 Y 2 X -6 Y 2 X 2 Y 3 X -5
 Y 2 X 3 Y 2 X 1 Y 2 X -4 Y 2 X 8 Y 1 X -5 Y 2 X 3 Y 4 X -9 Y 1 X 3 Y 2 X -3 Y 2 X 10 Y 2 X -10 Y 2 X -4 Y 1 X 7 Y 2 X -3 Y 2 X 1 Y 2 X -3 Y 2 X 4 Y 1 X 4 Y 2 X -4 Y 4 X -6 Y 2 X 3 Y 1 X 6 Y 2 X -10 Y 2 X 8 Y 2 X 5 Y 1 X -8 Y 2 X -2 Y 2 X 4 Y 2 X 2 Y
 2 X -6 Y 3 X -2 Y 2 X 8 Y 2 X -6 Y 2 X -2 Y 1 X -1 Y 2 X -1 Y 2 X 6 Y 2 X -4 Y 2 X 3 Y 1 X -3 Y 4 X -2 Y 4 X -1 Y 1 X -3 Y 2 X -1 Y 2 X 3 Y 2 X -2 Y 1 X 5 Y 2 X -4 Y 2 X -2 Y 4 X 5 Y 1 X 2 Y 2 X -3 Y 2 X -1 Y 2 X -1 Y 2 X -2 Y 5 X 1 Y 2 X -2 Y 2 X 7
 Y 1 X -4 Y 2 X 1 Y 2 X -1 Y 2 X -6 Y 2 X 3 Y 1 X 3 Y 2 X -1 Y 2 X -3 Y 2 X 3 Y 5 X -1 Y 4 X -1 Y 1 X -4 Y 2 X 5 Y 4 X -1 Y 3 X -2 Y 2 X -1 Y 2 X 2 Y 4 X 1 Y 1 X -1 Y 2 X -2 Y 2 X -3 Y 2 X 5 Y 2 X -4 Y 1 X 3 Y 2 X -2 Y 2 X 2 Y 2 X 1 Y 1 X -2 Y 2 X -6
 Y 2 X 10 Y 2 X -4 Y 2 X 1 Y 1 X -4 Y 2 X 8 Y 2 X -6 Y 2 X -2 Y 2 X 5 Y 1 X -5 Y 4 X -4 Y 2 X 6 Y 2 X -1 Y 1 X 1 Y 2 X -1 Y 2 X -3 Y 2 X -1 Y 2 X 3 Y 3 X -3 Y 2 X 3 Y 2 X 2 Y 1 X -1 Y 2 X -3 Y 2 X 1 Y 2 X 1 Y 2 X -4 Y 1 X 2 Y 2 X -2 Y 2 X 3 Y 2 X 1 Y
 2 X -3 Y 1 X 2 Y 2 X -1 Y 2 X -2 Y 2 X -1 Y 2 X 4 Y 1 X -5 Y 2 X 2 Y 2 X -1 Y 2 X 1 Y 2 X 4 Y 1 X -5 Y 2 X 1 Y 2 X 2 Y 2 X -1 Y 3 X -1 Y 2 X 2 Y 2 X -5 Y 2 X 7 Y 1 X -2 Y 2 X -2 Y 2 X -3 Y 2 X 1 Y 2 X 1 Y 1 X 5 Y 2 X -6 Y 2 X -1 Y 2 X 5 Y 2 X -3 Y 1
 X -1 Y 4 X -3 Y 4 X 6 Y 1 X -4 Y 2 X -1 Y 2 X 2 Y 5 X 2 Y 2 X -4 Y 2 X 3 Y 3 X 1 Y 2 X -1 Y 4 X -2 Y 2 X 1 Y 1 X -2 Y 2 X 1 Y 2 X -1 Y 2 X 3 Y 2 X -1 Y 5 X -3 Y 2 X 4 Y 2 X -4 Y 3 X 3 Y 2 X -1 Y 2 X 2 Y 1 X -1 Y 2 X -1 Y 2 X 1 Y 2 X -3 Y 2 X 2 Y 1 X
 -1 Y 2 X 1 Y 2 X 1 Y 2 X -2 Y 2 X 2 Y 1 X -1 Y 4 X 1 Y 2 X -2 Y 2 X 1 Y 1 X -2 Y 2 X -1 Y 2 X 1 Y 2 X 1 Y 7 X -2 Y 2 X 1 Y 1 X -1 Y 2 X 1 Y 2 X -2 Y 4 X 1 Y 1 X 1 Y 2 X -2 Y 2 X 2 Y 2 X 1 Y 2 X -3 Y 1 X 1 Y 4 X 1 Y 4 X -1 Y 1 X -1 Y 2 X 1 Y 2 X 1 Y
 4 X -1 Y 3 X 1 Y 2 X -1 Y 3 X -1 Y 4 X -3 Y 2 X 7 Y 2 X -2 Y 1 X -2 Y 4 X 1 Y 4 X -1 Y 1 X 2 Y 2 X -2 Y 4 X 1 Y 2 X -1 Y 7 X 1 Y 1 X -2 Y 2 X 2 Y 4 X 1 Y 2 X -1 Y 1 X -1 Y 4 X 2 Y 2 X -3 Y 2 X 2 Y 1 X -1 Y 2 X 1 Y 2 X -2 Y 2 X 2 Y 2 X -2 Y 10 X 1 Y
 4 X 1 Y 2 X -1 Y 1 X -1 Y 2 X 1 Y 4 X -1 Y 3 X 1 Y 2 X 1 Y 2 X -2 Y 2 X -1 Y 2 X 2 Y 1 X -1 Y 2 X 1 Y 2 X -1 Y 2 X 1 Y 2 X -2 Y 1 X 1 Y 2 X -1 Y 2 X 1 Y 2 X 1 Y 2 X -1 Y 1 X 1 Y 2 X -3 Y 2 X 1 Y 3 X 1 Y 4 X -1 Y 2 X 2 Y 2 X 1 Y 1 X -2 Y 2 X -1 Y 2 X
 1 Y 2 X -1 Y 2 X 1 Y 1 X -1 Y 2 X 1 Y 6 X -1 Y 1 X 1 Y 2 X -1 Y 6 X 1 Y 3 X -1 Y 2 X 1 Y 2 X -1 Y 1 X 3 Y 2 X -3 Y 2 X 1 Y 4 X -1 Y 3 X 1 Y 2 X -2 Y 2 X 2 Y 2 X -2 Y 1 X 1 Y 4 X -1 Y 2 X 2 Y 2 X -1 Y 1 X -1 Y 2 X 2 Y 2 X -2 Y 2 X 2 Y 2 X -1 Y 1 X 1
 Y 2 X -1 Y 2 X -1 Y 2 X 2 Y 3 X -2 Y 6 X 1 Y 3 X 1 Y 2 X -1 Y 2 X -1 Y 2 X 1 Y 1 X 1 Y 2 X -1 Y 4 X 1 Y 3 X -1 Y 4 X -1 Y 5 X 2 Y 6 X -1 Y 1 X 1 Y 2 X -1 Y 2 X -1 Y 5 X 1 Y 6 X -1 Y 2 X 2 Y 1 X -1 Y 2 X 1 Y 2 X -1 Y 4 X -1 Y 7 X 1 Y 2 X -1 Y 5 X 1 Y
 2 X 1 Y 1 X -2 Y 6 X 1 Y 2 X -1 Y 14 X 1 Y 2 X -1 Y 9 X 1 Y 2 X -1 Y 1 X 1 Y 4 X -1 Y 3 X 1 Y 2 X -1 Y 9 X 1 Y 2 X -1 Y 9 X 1 Y 2 X -1 Y 30 X 1 Y 2 X -1 Y 11 X 1 Y 3 X -1 Y 2 X 1 Y 2 X -1 Y 81 X 1 Y 1 X s 0 0 1 c 1 1 1 c black 0 0 1 c 363 271 m 2 X
 18 Y 1 X 7 Y 2 X 13 Y 2 X 23 Y 2 X 15 Y 2 X 17 Y 1 X 21 Y 2 X 35 Y 2 X 32 Y 2 X 34 Y 2 X 31 Y 1 X 40 Y 2 X 27 Y 2 X 37 Y 2 X 32 Y 1 X 13 Y 2 X 56 Y 2 X 39 Y 2 X 21 Y 2 X 28 Y 1 X 40 Y 2 X 33 Y 2 X 7 Y 2 X 13 Y 2 X 50 Y 3 X 36 Y 2 X -14 Y 2 X 12 Y 2
 X 24 Y 1 X 23 Y 2 X 2 Y 2 X -13 Y 2 X 29 Y 2 X 13 Y 1 X -18 Y 2 X -13 Y 2 X 5 Y 2 X 3 Y 1 X -15 Y 4 X 11 Y 2 X -24 Y 2 X -15 Y 1 X 9 Y 2 X -22 Y 2 X -14 Y 2 X 8 Y 2 X -18 Y 1 X -16 Y 2 X -22 Y 2 X 12 Y 2 X -25 Y 2 X -7 Y 1 X -9 Y 2 X -18 Y 2 X -2 Y
 2 X -27 Y 2 X -27 Y 3 X -4 Y 2 X -13 Y 2 X 3 Y 1 X -3 Y 2 X -54 Y 2 X -3 Y 2 X -7 Y 2 X -21 Y 1 X -7 Y 2 X -8 Y 2 X -13 Y 2 X 12 Y 2 X -34 Y 1 X -21 Y 2 X -2 Y 2 X -3 Y 2 X -21 Y 2 X -2 Y 1 X -20 Y 2 X 17 Y 2 X -39 Y 2 X 5 Y 2 X -22 Y 1 X -10 Y 2 X
 1 Y 2 X 8 Y 2 X -12 Y 1 X -13 Y 2 X -16 Y 2 X 14 Y 2 X -19 Y 2 X 11 Y 1 X -25 Y 2 X 18 Y 2 X -34 Y 2 X 16 Y 2 X -13 Y 1 X -13 Y 2 X 4 Y 2 X -9 Y 2 X 18 Y 2 X -19 Y 1 X -16 Y 2 X 7 Y 2 X 2 Y 2 X -9 Y 2 X -19 Y 1 X 14 Y 2 X -19 Y 2 X 7 Y 2 X 5 Y 1 X
 -4 Y 2 X -4 Y 2 X 3 Y 2 X -6 Y 2 X -14 Y 1 X 2 Y 2 X -2 Y 2 X 6 Y 2 X -7 Y 2 X 1 Y 1 X 4 Y 2 X -3 Y 2 X -16 Y 2 X 13 Y 2 X 3 Y 1 X -11 Y 2 X 2 Y 2 X -4 Y 2 X -2 Y 2 X 7 Y 1 X -1 Y 2 X -3 Y 2 X -3 Y 2 X -11 Y 1 X 6 Y 2 X -3 Y 2 X 10 Y 2 X -5 Y 2 X -4
 Y 1 X 2 Y 2 X 4 Y 2 X -11 Y 2 X 5 Y 2 X 1 Y 1 X -4 Y 2 X 13 Y 2 X -12 Y 2 X 5 Y 2 X -5 Y 1 X -3 Y 2 X -3 Y 2 X 9 Y 2 X 2 Y 2 X -2 Y 1 X 2 Y 2 X -11 Y 2 X 9 Y 2 X -2 Y 1 X -4 Y 2 X 7 Y 2 X -3 Y 4 X 3 Y 1 X 8 Y 2 X -19 Y 2 X 1 Y 2 X 12 Y 2 X -12 Y 1 X
 6 Y 2 X -1 Y 2 X -5 Y 2 X 10 Y 2 X -5 Y 1 X 1 Y 2 X 1 Y 2 X -14 Y 2 X 13 Y 3 X -9 Y 2 X 8 Y 2 X 5 Y 2 X -5 Y 1 X 4 Y 2 X -2 Y 2 X -3 Y 4 X -2 Y 1 X 2 Y 2 X 3 Y 4 X 11 Y 2 X -19 Y 1 X 3 Y 2 X 6 Y 2 X -4 Y 2 X -7 Y 2 X 5 Y 1 X 5 Y 2 X -5 Y 2 X -1 Y 2
 X 12 Y 2 X -20 Y 1 X 16 Y 2 X -4 Y 2 X 5 Y 2 X -16 Y 1 X 6 Y 2 X 8 Y 2 X -9 Y 2 X -1 Y 2 X 8 Y 1 X -3 Y 6 X -13 Y 2 X 15 Y 1 X -3 Y 2 X -3 Y 2 X -1 Y 2 X -9 Y 2 X 9 Y 1 X 13 Y 2 X -11 Y 2 X 1 Y 2 X -3 Y 2 X -3 Y 1 X 8 Y 2 X -7 Y 2 X 2 Y 2 X 1 Y 1 X
 -15 Y 2 X 17 Y 2 X -13 Y 2 X 14 Y 2 X -11 Y 1 X 15 Y 2 X -16 Y 2 X 6 Y 2 X -10 Y 2 X 4 Y 1 X 1 Y 2 X -2 Y 2 X -2 Y 2 X 2 Y 2 X 3 Y 1 X -7 Y 2 X 7 Y 2 X -2 Y 2 X -1 Y 2 X -2 Y 1 X -5 Y 2 X 12 Y 2 X -8 Y 2 X 4 Y 1 X -7 Y 2 X 3 Y 2 X 1 Y 2 X -1 Y 3 X 6
 Y 2 X -11 Y 2 X 14 Y 2 X -7 Y 2 X 1 Y 1 X -8 Y 2 X -2 Y 2 X 3 Y 2 X 3 Y 2 X -8 Y 1 X 7 Y 2 X 1 Y 2 X -11 Y 2 X 11 Y 1 X -5 Y 2 X -2 Y 2 X -1 Y 2 X 2 Y 2 X -5 Y 1 X -1 Y 2 X 10 Y 2 X -8 Y 2 X 8 Y 2 X -2 Y 1 X -7 Y 2 X -3 Y 2 X -2 Y 2 X -2 Y 2 X 4 Y 1
 X 2 Y 2 X -5 Y 2 X 5 Y 2 X -2 Y 2 X -4 Y 1 X -8 Y 2 X 14 Y 2 X -11 Y 2 X 2 Y 1 X 4 Y 2 X -8 Y 2 X 3 Y 2 X -1 Y 2 X -5 Y 1 X 6 Y 2 X -3 Y 2 X -2 Y 2 X 1 Y 2 X 5 Y 1 X -11 Y 2 X 5 Y 4 X -1 Y 2 X -3 Y 1 X 3 Y 2 X -3 Y 2 X 1 Y 2 X -1 Y 2 X -1 Y 1 X -5 Y
 2 X -1 Y 2 X 3 Y 2 X 10 Y 1 X -11 Y 2 X 5 Y 2 X -9 Y 2 X 11 Y 2 X -4 Y 1 X -11 Y 2 X 2 Y 2 X 2 Y 2 X -4 Y 2 X 8 Y 1 X -14 Y 2 X 8 Y 4 X -7 Y 2 X 8 Y 1 X -3 Y 2 X -5 Y 2 X 1 Y 2 X 1 Y 2 X 3 Y 1 X 1 Y 2 X -6 Y 2 X 1 Y 2 X -3 Y 3 X 6 Y 2 X -4 Y 2 X -2
 Y 2 X -3 Y 1 X 1 Y 2 X 1 Y 2 X 2 Y 2 X -8 Y 2 X 4 Y 1 X 2 Y 2 X -4 Y 2 X -1 Y 2 X 3 Y 2 X -1 Y 1 X -2 Y 2 X 7 Y 2 X -1 Y 2 X -9 Y 3 X -1 Y 2 X 1 Y 2 X -7 Y 2 X 5 Y 1 X -1 Y 4 X 3 Y 4 X -8 Y 1 X 2 Y 2 X 2 Y 4 X -3 Y 2 X -2 Y 1 X -1 Y 2 X 8 Y 2 X -9 Y
 2 X 9 Y 2 X -8 Y 3 X 1 Y 2 X 2 Y 2 X 1 Y 2 X -1 Y 1 X -6 Y 2 X 3 Y 2 X 3 Y 2 X -3 Y 1 X 1 Y 2 X -4 Y 2 X 2 Y 2 X -1 Y 2 X 4 Y 1 X -3 Y 2 X -4 Y 2 X -5 Y 2 X 7 Y 2 X -7 Y 1 X 4 Y 2 X -2 Y 4 X -5 Y 3 X 1 Y 2 X 4 Y 2 X -1 Y 2 X -7 Y 2 X 3 Y 1 X -1 Y 2
 X 4 Y 2 X -6 Y 2 X 7 Y 1 X -3 Y 2 X -1 Y 2 X 2 Y 4 X -4 Y 1 X 4 Y 2 X 2 Y 2 X -4 Y 2 X 2 Y 2 X -3 Y 1 X 1 Y 2 X 2 Y 2 X -2 Y 2 X -6 Y 2 X 3 Y 1 X -4 Y 2 X 3 Y 4 X 5 Y 2 X -6 Y 1 X -1 Y 2 X 7 Y 2 X -5 Y 2 X -3 Y 3 X 1 Y 2 X -2 Y 2 X 3 Y 2 X -6 Y 1 X
 -2 Y 2 X 5 Y 2 X 1 Y 2 X -8 Y 2 X 5 Y 1 X 3 Y 2 X -6 Y 2 X 7 Y 2 X -6 Y 2 X 2 Y 1 X 2 Y 2 X -1 Y 2 X -1 Y 2 X -3 Y 2 X 5 Y 1 X -5 Y 4 X 1 Y 2 X 4 Y 1 X -6 Y 2 X 4 Y 2 X -5 Y 2 X 2 Y 2 X -5 Y 1 X 3 Y 4 X 1 Y 2 X 1 Y 2 X 1 Y 1 X -2 Y 2 X 1 Y 2 X -4 Y
 2 X 1 Y 3 X -3 Y 2 X 2 Y 2 X 1 Y 2 X -3 Y 2 X 5 Y 1 X -3 Y 2 X 2 Y 2 X -1 Y 2 X -5 Y 1 X 2 Y 2 X -2 Y 2 X 7 Y 2 X -7 Y 2 X -3 Y 1 X 5 Y 2 X -2 Y 2 X 1 Y 2 X -3 Y 2 X 3 Y 1 X 3 Y 2 X -3 Y 2 X 1 Y 2 X -5 Y 2 X 2 Y 1 X 4 Y 2 X -6 Y 2 X 5 Y 2 X 3 Y 1 X
 -5 Y 2 X -2 Y 2 X 3 Y 2 X 1 Y 2 X -3 Y 3 X -2 Y 2 X 5 Y 2 X -3 Y 2 X -2 Y 3 X -1 Y 2 X 4 Y 2 X -3 Y 2 X 3 Y 1 X -3 Y 4 X -1 Y 5 X -3 Y 4 X 2 Y 2 X -1 Y 1 X 2 Y 2 X -2 Y 2 X -2 Y 2 X 1 Y 2 X 3 Y 1 X 1 Y 2 X -2 Y 4 X -1 Y 2 X -1 Y 1 X -1 Y 2 X 1 Y 4 X
 -1 Y 2 X 5 Y 1 X -3 Y 6 X -4 Y 2 X 2 Y 1 X 2 Y 2 X -1 Y 2 X -1 Y 2 X 1 Y 9 X -1 Y 1 X -3 Y 2 X 3 Y 2 X 1 Y 2 X -1 Y 3 X -1 Y 2 X -1 Y 2 X 1 Y 4 X 1 Y 3 X -2 Y 2 X -2 Y 2 X 4 Y 2 X -3 Y 1 X 1 Y 2 X -1 Y 2 X 1 Y 2 X 2 Y 1 X -2 Y 2 X -4 Y 2 X 6 Y 2 X
 -2 Y 2 X 1 Y 1 X -3 Y 2 X 5 Y 2 X -4 Y 2 X -1 Y 2 X 3 Y 1 X -3 Y 4 X -2 Y 2 X 4 Y 2 X -1 Y 5 X -2 Y 2 X -1 Y 2 X 2 Y 3 X -2 Y 2 X 2 Y 2 X 1 Y 1 X -1 Y 2 X -1 Y 4 X 1 Y 2 X -2 Y 1 X 1 Y 2 X -2 Y 2 X 2 Y 2 X 1 Y 2 X -2 Y 1 X 1 Y 2 X -1 Y 2 X -1 Y 4 X
 3 Y 1 X -4 Y 2 X 1 Y 6 X 3 Y 1 X -3 Y 4 X 2 Y 2 X -1 Y 3 X -1 Y 2 X 2 Y 2 X -4 Y 2 X 5 Y 1 X -2 Y 2 X -1 Y 2 X -2 Y 2 X 1 Y 3 X 4 Y 2 X -4 Y 4 X 2 Y 2 X -1 Y 1 X -1 Y 4 X -2 Y 4 X 4 Y 1 X -3 Y 2 X -1 Y 2 X 2 Y 5 X 1 Y 2 X -2 Y 2 X 2 Y 2 X -1 Y 1 X 1
 Y 6 X -2 Y 2 X 1 Y 1 X -2 Y 2 X 2 Y 2 X -1 Y 2 X 1 Y 7 X -2 Y 2 X 3 Y 2 X -3 Y 3 X 2 Y 2 X -1 Y 2 X 2 Y 1 X -1 Y 2 X -1 Y 2 X 1 Y 2 X -2 Y 2 X 1 Y 5 X 1 Y 2 X -1 Y 2 X 1 Y 1 X -1 Y 4 X 1 Y 2 X -2 Y 2 X 1 Y 1 X -1 Y 2 X -1 Y 2 X 1 Y 4 X 1 Y 5 X -2 Y
 2 X 1 Y 1 X -1 Y 2 X 1 Y 2 X -1 Y 5 X 1 Y 2 X -1 Y 2 X 1 Y 2 X 1 Y 2 X -2 Y 5 X 1 Y 4 X -1 Y 5 X 1 Y 4 X -1 Y 3 X 1 Y 2 X -1 Y 7 X -2 Y 2 X 4 Y 2 X -1 Y 1 X -1 Y 9 X 1 Y 2 X -1 Y 14 X -1 Y 2 X 1 Y 4 X 1 Y 2 X -1 Y 5 X 1 Y 2 X -2 Y 2 X 1 Y 5 X -1 Y 2
 X 1 Y 2 X -1 Y 10 X 1 Y 7 X -1 Y 2 X 1 Y 4 X -1 Y 3 X 1 Y 4 X -1 Y 2 X -1 Y 2 X 2 Y 1 X -1 Y 2 X 1 Y 2 X -1 Y 2 X 1 Y 2 X -2 Y 1 X 1 Y 6 X 1 Y 2 X -1 Y 1 X 1 Y 2 X -2 Y 4 X 1 Y 5 X -1 Y 2 X 2 Y 3 X -1 Y 17 X -1 Y 1 X 1 Y 15 X -1 Y 1 X 2 Y 2 X -2 Y 2
 X 1 Y 9 X -1 Y 2 X 1 Y 2 X -1 Y 7 X 1 Y 2 X -1 Y 3 X 1 Y 2 X -1 Y 2 X 1 Y 2 X -1 Y 1 X 1 Y 4 X -1 Y 2 X 1 Y 3 X -1 Y 7 X 1 Y 4 X -1 Y 5 X 1 Y 11 X -1 Y 7 X 1 Y 6 X -1 Y 1 X 1 Y 2 X -1 Y 7 X 1 Y 4 X -1 Y 4 X 1 Y 1 X -1 Y 2 X 1 Y 2 X -1 Y 18 X 1 Y 3 X
 -1 Y 199 X s 1 0 1 c 1 1 1 c black 1 0 1 c 363 346 m 2 X 70 Y 1 X 53 Y 2 X 83 Y 2 X 46 Y 2 X 66 Y 2 X 86 Y 1 X 81 Y 2 X 51 Y 2 X 77 Y 2 X 73 Y 2 X 44 Y 1 X 39 Y 2 X 58 Y 2 X 50 Y 2 X 37 Y 1 X 14 Y 2 X 48 Y 2 X 43 Y 2 X 7 Y 2 X 6 Y 1 X 10 Y 2 X 14 Y
 2 X 1 Y 2 X -39 Y 2 X 35 Y 1 X -23 Y 2 X 4 Y 2 X -42 Y 2 X -13 Y 2 X -3 Y 1 X -15 Y 2 X -20 Y 2 X -30 Y 2 X -1 Y 2 X -16 Y 1 X -32 Y 2 X -35 Y 2 X -14 Y 2 X -19 Y 1 X -17 Y 2 X -28 Y 2 X -8 Y 2 X -29 Y 2 X -31 Y 1 X -11 Y 2 X -19 Y 2 X -29 Y 2 X 6 Y
 2 X -35 Y 1 X -26 Y 2 X -24 Y 2 X -2 Y 2 X -25 Y 2 X -12 Y 1 X -9 Y 2 X -33 Y 2 X -13 Y 2 X -23 Y 2 X -10 Y 1 X -14 Y 2 X -9 Y 2 X -24 Y 2 X 6 Y 1 X -6 Y 2 X -46 Y 2 X -6 Y 2 X -6 Y 2 X -20 Y 1 X -5 Y 2 X -9 Y 2 X -13 Y 2 X 7 Y 2 X -27 Y 1 X -16 Y 2
 X -4 Y 2 X -7 Y 2 X -20 Y 2 X 2 Y 1 X -22 Y 2 X 10 Y 2 X -24 Y 2 X 1 Y 2 X -13 Y 1 X -13 Y 2 X -1 Y 2 X 7 Y 2 X -11 Y 1 X -9 Y 2 X -12 Y 2 X 10 Y 2 X -16 Y 2 X 3 Y 1 X -14 Y 2 X 12 Y 2 X -26 Y 2 X 12 Y 2 X -10 Y 1 X -12 Y 2 X 5 Y 2 X -8 Y 2 X 10 Y 2
 X -11 Y 1 X -11 Y 2 X 2 Y 2 X 2 Y 2 X -8 Y 2 X -14 Y 1 X 11 Y 2 X -14 Y 2 X 3 Y 2 X 5 Y 1 X -3 Y 2 X -4 Y 2 X 3 Y 2 X -4 Y 2 X -11 Y 1 X 3 Y 2 X -4 Y 2 X 5 Y 2 X -4 Y 3 X 3 Y 2 X -3 Y 2 X -13 Y 2 X 9 Y 2 X 4 Y 1 X -9 Y 2 X 3 Y 2 X -4 Y 2 X -2 Y 2 X
 4 Y 3 X -1 Y 2 X -3 Y 2 X -9 Y 1 X 5 Y 2 X -2 Y 2 X 7 Y 2 X -4 Y 2 X -4 Y 1 X 3 Y 2 X 4 Y 2 X -9 Y 2 X 4 Y 3 X -2 Y 2 X 8 Y 2 X -8 Y 2 X 4 Y 2 X -5 Y 1 X -1 Y 2 X -3 Y 2 X 6 Y 2 X 2 Y 3 X 1 Y 2 X -9 Y 2 X 7 Y 2 X -2 Y 1 X -3 Y 2 X 5 Y 2 X -2 Y 4 X 2
 Y 1 X 5 Y 2 X -13 Y 4 X 9 Y 2 X -8 Y 1 X 4 Y 4 X -5 Y 2 X 8 Y 2 X -4 Y 1 X 1 Y 2 X 1 Y 2 X -11 Y 2 X 10 Y 3 X -6 Y 2 X 5 Y 2 X 4 Y 2 X -4 Y 1 X 4 Y 2 X -2 Y 2 X -2 Y 2 X -1 Y 3 X 1 Y 2 X 2 Y 4 X 8 Y 2 X -14 Y 1 X 1 Y 2 X 5 Y 2 X -3 Y 2 X -5 Y 2 X 3
 Y 1 X 5 Y 2 X -4 Y 2 X -1 Y 2 X 9 Y 2 X -15 Y 1 X 12 Y 2 X -3 Y 2 X 3 Y 2 X -10 Y 1 X 3 Y 2 X 6 Y 2 X -6 Y 2 X -1 Y 2 X 6 Y 1 X -2 Y 2 X -1 Y 4 X -8 Y 2 X 10 Y 1 X -2 Y 2 X -3 Y 4 X -7 Y 2 X 7 Y 1 X 9 Y 2 X -8 Y 2 X 1 Y 2 X -2 Y 2 X -3 Y 1 X 6 Y 2 X
 -5 Y 2 X 2 Y 3 X -10 Y 2 X 11 Y 2 X -8 Y 2 X 9 Y 2 X -8 Y 1 X 11 Y 2 X -11 Y 2 X 4 Y 2 X -7 Y 2 X 3 Y 1 X 1 Y 2 X -2 Y 2 X -1 Y 2 X 1 Y 2 X 2 Y 1 X -5 Y 2 X 5 Y 2 X -1 Y 4 X -3 Y 1 X -3 Y 2 X 9 Y 2 X -6 Y 2 X 3 Y 1 X -5 Y 2 X 2 Y 2 X 1 Y 2 X -1 Y 3
 X 5 Y 2 X -9 Y 2 X 10 Y 2 X -4 Y 3 X -6 Y 2 X -1 Y 2 X 2 Y 2 X 2 Y 2 X -6 Y 1 X 5 Y 2 X 2 Y 2 X -8 Y 2 X 7 Y 1 X -3 Y 2 X -1 Y 2 X -2 Y 2 X 2 Y 2 X -4 Y 3 X 7 Y 2 X -5 Y 2 X 5 Y 2 X -2 Y 1 X -5 Y 2 X -2 Y 2 X -1 Y 2 X -1 Y 2 X 2 Y 1 X 2 Y 2 X -4 Y 2
 X 3 Y 2 X -1 Y 2 X -3 Y 1 X -5 Y 2 X 10 Y 2 X -8 Y 2 X 1 Y 1 X 3 Y 2 X -6 Y 2 X 2 Y 4 X -4 Y 1 X 5 Y 2 X -2 Y 2 X -2 Y 2 X 1 Y 2 X 3 Y 1 X -7 Y 2 X 3 Y 4 X -1 Y 2 X -1 Y 1 X 1 Y 2 X -2 Y 2 X 1 Y 2 X -1 Y 2 X -1 Y 1 X -3 Y 4 X 1 Y 2 X 7 Y 1 X -7 Y 2
 X 4 Y 2 X -7 Y 2 X 8 Y 2 X -3 Y 1 X -8 Y 2 X 1 Y 2 X 2 Y 2 X -3 Y 2 X 5 Y 1 X -9 Y 2 X 6 Y 4 X -5 Y 2 X 5 Y 1 X -1 Y 2 X -5 Y 2 X 1 Y 2 X 1 Y 2 X 2 Y 1 X 1 Y 2 X -4 Y 4 X -2 Y 3 X 4 Y 2 X -2 Y 2 X -2 Y 2 X -2 Y 1 X 1 Y 4 X 2 Y 2 X -6 Y 2 X 4 Y 1 X 1
 Y 2 X -4 Y 4 X 2 Y 3 X -2 Y 2 X 5 Y 2 X -1 Y 2 X -6 Y 3 X -1 Y 4 X -5 Y 2 X 4 Y 3 X -1 Y 2 X 3 Y 4 X -6 Y 1 X 2 Y 2 X 1 Y 4 X -2 Y 2 X -2 Y 3 X 6 Y 2 X -7 Y 2 X 6 Y 2 X -5 Y 5 X 1 Y 2 X 2 Y 2 X -1 Y 1 X -5 Y 2 X 3 Y 2 X 2 Y 2 X -2 Y 3 X -2 Y 2 X 1 Y
 4 X 2 Y 1 X -2 Y 2 X -3 Y 2 X -4 Y 2 X 5 Y 2 X -5 Y 1 X 3 Y 2 X -1 Y 4 X -3 Y 5 X 3 Y 2 X -1 Y 2 X -5 Y 2 X 3 Y 1 X -1 Y 2 X 3 Y 2 X -4 Y 2 X 4 Y 1 X -2 Y 2 X -1 Y 2 X 2 Y 4 X -3 Y 1 X 3 Y 2 X 1 Y 2 X -3 Y 2 X 2 Y 2 X -2 Y 1 X 1 Y 2 X 1 Y 2 X -1 Y 2
 X -4 Y 2 X 1 Y 1 X -2 Y 2 X 2 Y 4 X 3 Y 2 X -4 Y 1 X -1 Y 2 X 5 Y 2 X -4 Y 2 X -2 Y 1 X 1 Y 4 X -1 Y 2 X 2 Y 2 X -4 Y 1 X -1 Y 2 X 3 Y 2 X 1 Y 2 X -6 Y 2 X 3 Y 1 X 2 Y 2 X -4 Y 2 X 5 Y 2 X -4 Y 2 X 2 Y 1 X 1 Y 2 X -1 Y 2 X -1 Y 2 X -2 Y 2 X 3 Y 1 X
 -3 Y 4 X 1 Y 2 X 2 Y 1 X -3 Y 2 X 3 Y 2 X -4 Y 2 X 2 Y 2 X -5 Y 1 X 3 Y 4 X 1 Y 2 X 1 Y 3 X -2 Y 2 X 1 Y 2 X -3 Y 2 X 1 Y 3 X -2 Y 2 X 2 Y 4 X -2 Y 2 X 4 Y 1 X -3 Y 2 X 2 Y 2 X -1 Y 2 X -3 Y 1 X 1 Y 2 X -2 Y 2 X 5 Y 2 X -5 Y 2 X -1 Y 1 X 3 Y 2 X -2
 Y 2 X 1 Y 2 X -2 Y 2 X 2 Y 1 X 2 Y 2 X -2 Y 2 X 1 Y 2 X -4 Y 2 X 2 Y 1 X 3 Y 2 X -5 Y 2 X 4 Y 2 X 2 Y 1 X -4 Y 2 X -1 Y 2 X 2 Y 2 X 1 Y 2 X -2 Y 3 X -1 Y 2 X 3 Y 2 X -2 Y 2 X -2 Y 5 X 3 Y 2 X -3 Y 2 X 2 Y 1 X -1 Y 4 X -1 Y 5 X -2 Y 4 X 1 Y 2 X -1 Y
 1 X 2 Y 2 X -2 Y 2 X -1 Y 2 X 1 Y 2 X 2 Y 3 X -1 Y 4 X -1 Y 3 X -1 Y 4 X 1 Y 2 X -1 Y 2 X 3 Y 1 X -2 Y 2 X 1 Y 2 X -1 Y 2 X -2 Y 2 X 1 Y 1 X 1 Y 4 X -1 Y 2 X 1 Y 5 X -1 Y 5 X -2 Y 2 X 2 Y 7 X -1 Y 8 X 1 Y 3 X -1 Y 2 X -2 Y 2 X 3 Y 2 X -2 Y 1 X 1 Y 2
 X -1 Y 2 X 1 Y 2 X 1 Y 1 X -1 Y 2 X -3 Y 2 X 4 Y 2 X -1 Y 3 X -2 Y 2 X 4 Y 2 X -3 Y 2 X -1 Y 2 X 2 Y 1 X -2 Y 4 X -2 Y 2 X 3 Y 7 X -2 Y 4 X 1 Y 3 X -1 Y 2 X 1 Y 2 X 1 Y 1 X -1 Y 2 X -1 Y 4 X 1 Y 2 X -2 Y 1 X 1 Y 2 X -1 Y 2 X 2 Y 4 X -1 Y 5 X -1 Y 4
 X 2 Y 1 X -3 Y 2 X 1 Y 6 X 2 Y 1 X -2 Y 4 X 1 Y 5 X -1 Y 2 X 1 Y 2 X -2 Y 2 X 3 Y 1 X -1 Y 2 X -1 Y 2 X -1 Y 4 X 1 Y 1 X 2 Y 2 X -3 Y 4 X 2 Y 2 X -1 Y 1 X -1 Y 4 X -1 Y 4 X 3 Y 1 X -2 Y 2 X -1 Y 2 X 1 Y 5 X 1 Y 2 X -2 Y 2 X 2 Y 9 X -1 Y 3 X -1 Y 2 X
 1 Y 2 X -1 Y 2 X 2 Y 2 X -1 Y 5 X -1 Y 2 X 2 Y 2 X -2 Y 3 X 1 Y 4 X 1 Y 1 X -1 Y 6 X -1 Y 2 X 1 Y 1 X -1 Y 2 X 1 Y 4 X -1 Y 2 X 1 Y 7 X -1 Y 2 X 1 Y 1 X -1 Y 13 X -1 Y 2 X 1 Y 1 X -1 Y 2 X 1 Y 2 X -1 Y 5 X 1 Y 2 X -1 Y 2 X 1 Y 4 X -1 Y 5 X 1 Y 4 X
 -1 Y 5 X 1 Y 4 X -1 Y 1 X 1 Y 4 X -1 Y 2 X 1 Y 1 X -1 Y 4 X -1 Y 2 X 3 Y 2 X -1 Y 1 X -1 Y 9 X 1 Y 2 X -1 Y 18 X 1 Y 5 X -1 Y 4 X 1 Y 2 X -1 Y 14 X -1 Y 2 X 1 Y 4 X -1 Y 1 X 1 Y 7 X -1 Y 2 X 1 Y 9 X 1 Y 2 X -2 Y 4 X 1 Y 1 X -1 Y 2 X 1 Y 6 X -1 Y 1 X
 1 Y 2 X -1 Y 2 X 1 Y 4 X -1 Y 1 X 1 Y 2 X -1 Y 11 X 1 Y 3 X -1 Y 11 X 1 Y 2 X -1 Y 13 X 1 Y 1 X -1 Y 4 X 1 Y 2 X -1 Y 1 X 1 Y 2 X -1 Y 4 X 1 Y 2 X -1 Y 28 X 1 Y 2 X -1 Y 4 X 1 Y 1 X -1 Y 285 X s black
 gsave  2268 1538 0 0 C 905.783 1309.8 t 0 r /Helvetica-BoldOblique findfont 71.6807 sf 0 0 m (ATLAS) show NC gr 
 gsave  2268 1538 0 0 C 1176.22 1309.8 t 0 r /Helvetica findfont 71.6807 sf 0 0 m (Simulation Internal) show NC gr 
 gsave  2268 1538 0 0 C 905.783 1231.6 t 0 r /Helvetica findfont 71.6807 sf 0 0 m (ITk Extended) show NC gr 
 gsave  2268 1538 0 0 C 1065.44 1153.41 t 0 r /Helvetica findfont 71.6807 sf 0 0 m (> = 200) show NC gr 
 gsave  2268 1538 0 0 C 1023.08 1153.41 t 0 r /Symbol findfont 71.6807 sf 0 0 m (m) show NC gr 
 gsave  2268 1538 0 0 C 944.882 1153.41 t 0 r /Helvetica findfont 71.6807 sf 0 0 m (, <) show NC gr 
 gsave  2268 1538 0 0 C 925.333 1153.41 t 0 r /Helvetica findfont 71.6807 sf 0 0 m (t) show NC gr  6 lw 925 1209 m 20 X s
 gsave  2268 1538 0 0 C 905.783 1153.41 t 0 r /Helvetica findfont 71.6807 sf 0 0 m (t) show NC gr  1 1 1 c 3 lw 340 308 1542 738 bf black
 gsave  2268 1538 0 0 C 1625.85 1003.53 t 0 r /Helvetica-Bold findfont 71.6807 sf 0 0 m (Layer 0) show NC gr  12 lw 1555 1015 m 59 X s
 gsave  2268 1538 0 0 C 1625.85 941.624 t 0 r /Helvetica-Bold findfont 71.6807 sf 0 0 m (Layer 1) show NC gr  1 0 0 c 1555 953 m 59 X s black
 gsave  2268 1538 0 0 C 1625.85 879.718 t 0 r /Helvetica-Bold findfont 71.6807 sf 0 0 m (Layer 2) show NC gr  0 1 0 c 1555 892 m 59 X s black
 gsave  2268 1538 0 0 C 1625.85 817.812 t 0 r /Helvetica-Bold findfont 71.6807 sf 0 0 m (Layer 3) show NC gr  0 0 1 c 1555 830 m 59 X s black
 gsave  2268 1538 0 0 C 1625.85 755.906 t 0 r /Helvetica-Bold findfont 71.6807 sf 0 0 m (Layer 4) show NC gr  1 0 1 c 1555 769 m 59 X s
 gr  gr showpage
end
%%EOF
