%!PS-Adobe-2.0 EPSF-2.0
%%BoundingBox:  0 0 567 384
%%Title: plots/pixels/barrel/hitsperchip_inclined.eps: c1
%%Creator: ROOT Version 5.34/36
%%CreationDate: Mon Apr 10 13:14:49 2017
%%EndComments
%%BeginProlog
80 dict begin
/s {stroke} def /l {lineto} def /m {moveto} def /t {translate} def
/r {rotate} def /rl {roll}  def /R {repeat} def
/d {rlineto} def /rm {rmoveto} def /gr {grestore} def /f {eofill} def
/c {setrgbcolor} def /black {0 setgray} def /sd {setdash} def
/cl {closepath} def /sf {scalefont setfont} def /lw {setlinewidth} def
/box {m dup 0 exch d exch 0 d 0 exch neg d cl} def
/NC{systemdict begin initclip end}def/C{NC box clip newpath}def
/bl {box s} def /bf {gsave box gsave f grestore 1 lw [] 0 sd s grestore} def /Y { 0 exch d} def /X { 0 d} def 
/K {{pop pop 0 moveto} exch kshow} bind def
/ita {/ang 15 def gsave [1 0 ang dup sin exch cos div 1 0 0] concat} def 
/mp {newpath /y exch def /x exch def} def
/side {[w .77 mul w .23 mul] .385 w mul sd w 0 l currentpoint t -144 r} def
/mr {mp x y w2 0 360 arc} def /m24 {mr s} def /m20 {mr f} def
/mb {mp x y w2 add m w2 neg 0 d 0 w neg d w 0 d 0 w d cl} def
/mt {mp x y w2 add m w2 neg w neg d w 0 d cl} def
/m21 {mb f} def /m25 {mb s} def /m22 {mt f} def /m26{mt s} def
/m23 {mp x y w2 sub m w2 w d w neg 0 d cl f} def
/m27 {mp x y w2 add m w3 neg w2 neg d w3 w2 neg d w3 w2 d cl s} def
/m28 {mp x w2 sub y w2 sub w3 add m w3 0 d  0 w3 neg d w3 0 d 0 w3 d w3 0 d  0 w3 d w3 neg 0 d 0 w3 d w3 neg 0 d 0 w3 neg d w3 neg 0 d cl s } def
/m29 {mp gsave x w2 sub y w2 add w3 sub m currentpoint t 4 {side} repeat cl fill gr} def
/m30 {mp gsave x w2 sub y w2 add w3 sub m currentpoint t 4 {side} repeat cl s gr} def
/m31 {mp x y w2 sub m 0 w d x w2 sub y m w 0 d x w2 sub y w2 add m w w neg d x w2 sub y w2 sub m w w d s} def
/m32 {mp x y w2 sub m w2 w d w neg 0 d cl s} def
/m33 {mp x y w2 add m w3 neg w2 neg d w3 w2 neg d w3 w2 d cl f} def
/m34 {mp x w2 sub y w2 sub w3 add m w3 0 d  0 w3 neg d w3 0 d 0 w3 d w3 0 d  0 w3 d w3 neg 0 d 0 w3 d w3 neg 0 d 0 w3 neg d w3 neg 0 d cl f } def
/m2 {mp x y w2 sub m 0 w d x w2 sub y m w 0 d s} def
/m5 {mp x w2 sub y w2 sub m w w d x w2 sub y w2 add m w w neg d s} def
/reEncode {exch findfont dup length dict begin {1 index /FID eq  {pop pop} {def} ifelse } forall /Encoding exch def currentdict end dup /FontName get exch definefont pop } def [/Times-Bold /Times-Italic /Times-BoldItalic /Helvetica /Helvetica-Oblique
 /Helvetica-Bold /Helvetica-BoldOblique /Courier /Courier-Oblique /Courier-Bold /Courier-BoldOblique /Times-Roman /AvantGarde-Book /AvantGarde-BookOblique /AvantGarde-Demi /AvantGarde-DemiOblique /Bookman-Demi /Bookman-DemiItalic /Bookman-Light
 /Bookman-LightItalic /Helvetica-Narrow /Helvetica-Narrow-Bold /Helvetica-Narrow-BoldOblique /Helvetica-Narrow-Oblique /NewCenturySchlbk-Roman /NewCenturySchlbk-Bold /NewCenturySchlbk-BoldItalic /NewCenturySchlbk-Italic /Palatino-Bold
 /Palatino-BoldItalic /Palatino-Italic /Palatino-Roman ] {ISOLatin1Encoding reEncode } forall
%%EndProlog
%%BeginSetup
%%EndSetup
newpath  gsave  .25 .25 scale  gsave  0 0 t black[  ] 0 sd 3 lw 1 1 1 c 2268 1538 0 0 bf black 1 1 1 c 1791 1215 363 246 bf black 1791 1215 363 246 bl 1 1 1 c 1791 1215 363 246 bf black 1791 1215 363 246 bl 12 lw 1 1 1 c black 363 246 m 74 X 1 Y 9 X
 1 Y 2 X 1 Y 2 X -1 Y 2 X 4 Y 3 X -1 Y 2 X 4 Y 2 X -3 Y 2 X 2 Y 2 X 2 Y 3 X 3 Y 2 X 2 Y 2 X -2 Y 2 X 10 Y 3 X -1 Y 2 X 2 Y 2 X 2 Y 2 X 4 Y 3 X 1 Y 2 X 11 Y 2 X 1 Y 2 X 5 Y 5 X 7 Y 2 X 9 Y 5 X 11 Y 2 X 1 Y 2 X 10 Y 2 X 2 Y 2 X 14 Y 3 X 5 Y 2 X 10 Y 2
 X -2 Y 2 X 10 Y 3 X 6 Y 2 X 22 Y 2 X -12 Y 2 X 6 Y 3 X 3 Y 2 X 28 Y 2 X -3 Y 2 X 3 Y 3 X 1 Y 2 X 8 Y 2 X 3 Y 2 X 5 Y 2 X 5 Y 3 X 1 Y 2 X 5 Y 2 X 11 Y 2 X -10 Y 3 X 6 Y 2 X 3 Y 2 X 2 Y 5 X 19 Y 2 X -6 Y 2 X -6 Y 2 X -3 Y 3 X 8 Y 2 X -9 Y 2 X 9 Y 2 X
 -5 Y 2 X -4 Y 5 X -1 Y 2 X 3 Y 2 X -8 Y 3 X -11 Y 2 X 2 Y 2 X 3 Y 2 X 4 Y 3 X -5 Y 2 X -20 Y 2 X 7 Y 2 X -6 Y 5 X 1 Y 2 X -9 Y 2 X -6 Y 3 X -10 Y 2 X 3 Y 2 X -10 Y 2 X 5 Y 2 X -2 Y 3 X 2 Y 2 X -12 Y 2 X -9 Y 5 X -5 Y 2 X -1 Y 2 X -6 Y 2 X -2 Y 3 X
 -11 Y 2 X 6 Y 2 X 3 Y 2 X -15 Y 7 X 8 Y 2 X -18 Y 2 X -1 Y 3 X -7 Y 2 X 2 Y 2 X -2 Y 2 X -8 Y 3 X -4 Y 2 X 4 Y 2 X -5 Y 2 X -3 Y 3 X -2 Y 2 X -4 Y 2 X -7 Y 2 X 11 Y 3 X -4 Y 2 X -7 Y 2 X -6 Y 2 X 3 Y 5 X -8 Y 2 X 5 Y 2 X -7 Y 2 X -5 Y 3 X 5 Y 2 X -1
 Y 2 X -4 Y 2 X -2 Y 5 X -2 Y 2 X -2 Y 5 X -8 Y 2 X 7 Y 2 X -3 Y 2 X -1 Y 3 X -5 Y 2 X 1 Y 2 X 2 Y 2 X -1 Y 2 X -8 Y 5 X 7 Y 2 X -6 Y 2 X -2 Y 3 X 3 Y 2 X -3 Y 2 X 1 Y 2 X -3 Y 3 X -3 Y 2 X 5 Y 2 X -1 Y 5 X -3 Y 2 X -3 Y 2 X 1 Y 2 X -2 Y 5 X 1 Y 2 X
 -2 Y 7 X -3 Y 2 X 2 Y 4 X -3 Y 3 X 2 Y 4 X -1 Y 2 X 1 Y 3 X -3 Y 4 X 2 Y 2 X -3 Y 5 X -1 Y 2 X 3 Y 2 X -2 Y 2 X 2 Y 3 X -2 Y 2 X -1 Y 2 X 1 Y 2 X -2 Y 3 X 2 Y 4 X -1 Y 2 X -2 Y 3 X 1 Y 2 X -1 Y 4 X -2 Y 3 X 1 Y 2 X 2 Y 2 X -2 Y 2 X 1 Y 2 X -2 Y 3 X
 1 Y 6 X 1 Y 3 X -3 Y 4 X 1 Y 2 X 1 Y 3 X -1 Y 4 X -1 Y 2 X 1 Y 7 X 1 Y 2 X -2 Y 5 X 1 Y 2 X -1 Y 11 X -1 Y 2 X 2 Y 3 X -2 Y 2 X 1 Y 2 X -1 Y 5 X 1 Y 2 X -1 Y 13 X 2 Y 2 X -2 Y 7 X 1 Y 2 X -1 Y 12 X -1 Y 2 X 1 Y 15 X -1 Y 5 X 1 Y 2 X -1 Y 5 X 1 Y 2 X
 -1 Y 13 X 1 Y 5 X -1 Y 2 X 1 Y 2 X -1 Y 5 X 1 Y 2 X -1 Y 7 X 1 Y 2 X -1 Y 1100 X s 3 lw 363 246 m 1791 X s
 gsave  2268 1538 0 0 C 1756.18 114.037 t 0 r /Helvetica findfont 71.6807 sf 0 0 m (Hits per chip) show NC gr  364 283 m -37 Y s 409 264 m -18 Y s 453 264 m -18 Y s 498 264 m -18 Y s 543 264 m -18 Y s 588 283 m -37 Y s 632 264 m -18 Y s 677 264 m -18
 Y s 722 264 m -18 Y s 767 264 m -18 Y s 811 283 m -37 Y s 856 264 m -18 Y s 901 264 m -18 Y s 945 264 m -18 Y s 990 264 m -18 Y s 1035 283 m -37 Y s 1080 264 m -18 Y s 1124 264 m -18 Y s 1169 264 m -18 Y s 1214 264 m -18 Y s 1259 283 m -37 Y s 1303
 264 m -18 Y s 1348 264 m -18 Y s 1393 264 m -18 Y s 1438 264 m -18 Y s 1482 283 m -37 Y s 1527 264 m -18 Y s 1572 264 m -18 Y s 1616 264 m -18 Y s 1661 264 m -18 Y s 1706 283 m -37 Y s 1751 264 m -18 Y s 1795 264 m -18 Y s 1840 264 m -18 Y s 1885
 264 m -18 Y s 1930 283 m -37 Y s 1974 264 m -18 Y s 2019 264 m -18 Y s 2064 264 m -18 Y s 2108 264 m -18 Y s 2153 283 m -37 Y s 364 283 m -37 Y s 2153 283 m -37 Y s
 gsave  2268 1538 0 0 C 342.112 179.202 t 0 r /Helvetica findfont 71.6807 sf 0 0 m (0) show NC gr 
 gsave  2268 1538 0 0 C 527.831 179.202 t 0 r /Helvetica findfont 71.6807 sf 0 0 m (100) show NC gr 
 gsave  2268 1538 0 0 C 749.389 179.202 t 0 r /Helvetica findfont 71.6807 sf 0 0 m (200) show NC gr 
 gsave  2268 1538 0 0 C 974.206 179.202 t 0 r /Helvetica findfont 71.6807 sf 0 0 m (300) show NC gr 
 gsave  2268 1538 0 0 C 1199.02 179.202 t 0 r /Helvetica findfont 71.6807 sf 0 0 m (400) show NC gr 
 gsave  2268 1538 0 0 C 1420.58 179.202 t 0 r /Helvetica findfont 71.6807 sf 0 0 m (500) show NC gr 
 gsave  2268 1538 0 0 C 1645.4 179.202 t 0 r /Helvetica findfont 71.6807 sf 0 0 m (600) show NC gr 
 gsave  2268 1538 0 0 C 1870.21 179.202 t 0 r /Helvetica findfont 71.6807 sf 0 0 m (700) show NC gr 
 gsave  2268 1538 0 0 C 2091.77 179.202 t 0 r /Helvetica findfont 71.6807 sf 0 0 m (800) show NC gr  363 1461 m 1791 X s 364 1425 m 36 Y s 409 1443 m 18 Y s 453 1443 m 18 Y s 498 1443 m 18 Y s 543 1443 m 18 Y s 588 1425 m 36 Y s 632 1443 m 18 Y s 677
 1443 m 18 Y s 722 1443 m 18 Y s 767 1443 m 18 Y s 811 1425 m 36 Y s 856 1443 m 18 Y s 901 1443 m 18 Y s 945 1443 m 18 Y s 990 1443 m 18 Y s 1035 1425 m 36 Y s 1080 1443 m 18 Y s 1124 1443 m 18 Y s 1169 1443 m 18 Y s 1214 1443 m 18 Y s 1259 1425 m 36
 Y s 1303 1443 m 18 Y s 1348 1443 m 18 Y s 1393 1443 m 18 Y s 1438 1443 m 18 Y s 1482 1425 m 36 Y s 1527 1443 m 18 Y s 1572 1443 m 18 Y s 1616 1443 m 18 Y s 1661 1443 m 18 Y s 1706 1425 m 36 Y s 1751 1443 m 18 Y s 1795 1443 m 18 Y s 1840 1443 m 18 Y
 s 1885 1443 m 18 Y s 1930 1425 m 36 Y s 1974 1443 m 18 Y s 2019 1443 m 18 Y s 2064 1443 m 18 Y s 2108 1443 m 18 Y s 2153 1425 m 36 Y s 364 1425 m 36 Y s 2153 1425 m 36 Y s 363 246 m 1215 Y s
 gsave  2268 1538 0 0 C 133.587 860.168 t 90 r /Helvetica findfont 71.6807 sf 0 0 m (Normalised Entries) show NC gr  417 412 m -54 X s 390 446 m -27 X s 390 479 m -27 X s 390 512 m -27 X s 390 545 m -27 X s 417 579 m -54 X s 390 612 m -27 X s 390 645
 m -27 X s 390 679 m -27 X s 390 712 m -27 X s 417 745 m -54 X s 390 778 m -27 X s 390 812 m -27 X s 390 845 m -27 X s 390 878 m -27 X s 417 911 m -54 X s 390 945 m -27 X s 390 978 m -27 X s 390 1011 m -27 X s 390 1045 m -27 X s 417 1078 m -54 X s
 390 1111 m -27 X s 390 1144 m -27 X s 390 1178 m -27 X s 390 1211 m -27 X s 417 1244 m -54 X s 390 1278 m -27 X s 390 1311 m -27 X s 390 1344 m -27 X s 390 1377 m -27 X s 417 1411 m -54 X s 417 412 m -54 X s 390 379 m -27 X s 390 346 m -27 X s 390
 312 m -27 X s 390 279 m -27 X s 417 1411 m -54 X s 390 1444 m -27 X s
 gsave  2268 1538 0 0 C 221.559 387.727 t 0 r /Helvetica findfont 71.6807 sf 0 0 m (0.01) show NC gr 
 gsave  2268 1538 0 0 C 211.784 553.896 t 0 r /Helvetica findfont 71.6807 sf 0 0 m (0.02) show NC gr 
 gsave  2268 1538 0 0 C 211.784 720.065 t 0 r /Helvetica findfont 71.6807 sf 0 0 m (0.03) show NC gr 
 gsave  2268 1538 0 0 C 208.526 886.234 t 0 r /Helvetica findfont 71.6807 sf 0 0 m (0.04) show NC gr 
 gsave  2268 1538 0 0 C 211.784 1052.4 t 0 r /Helvetica findfont 71.6807 sf 0 0 m (0.05) show NC gr 
 gsave  2268 1538 0 0 C 211.784 1218.57 t 0 r /Helvetica findfont 71.6807 sf 0 0 m (0.06) show NC gr 
 gsave  2268 1538 0 0 C 208.526 1384.74 t 0 r /Helvetica findfont 71.6807 sf 0 0 m (0.07) show NC gr  2154 246 m 1215 Y s 2101 412 m 53 X s 2127 446 m 27 X s 2127 479 m 27 X s 2127 512 m 27 X s 2127 545 m 27 X s 2101 579 m 53 X s 2127 612 m 27 X s
 2127 645 m 27 X s 2127 679 m 27 X s 2127 712 m 27 X s 2101 745 m 53 X s 2127 778 m 27 X s 2127 812 m 27 X s 2127 845 m 27 X s 2127 878 m 27 X s 2101 911 m 53 X s 2127 945 m 27 X s 2127 978 m 27 X s 2127 1011 m 27 X s 2127 1045 m 27 X s 2101 1078 m
 53 X s 2127 1111 m 27 X s 2127 1144 m 27 X s 2127 1178 m 27 X s 2127 1211 m 27 X s 2101 1244 m 53 X s 2127 1278 m 27 X s 2127 1311 m 27 X s 2127 1344 m 27 X s 2127 1377 m 27 X s 2101 1411 m 53 X s 2101 412 m 53 X s 2127 379 m 27 X s 2127 346 m 27 X
 s 2127 312 m 27 X s 2127 279 m 27 X s 2101 1411 m 53 X s 2127 1444 m 27 X s 1 0 0 c 12 lw 1 1 1 c black 1 0 0 c 365 246 m 3 Y 2 X 2 Y 3 X 5 Y 2 X 10 Y 2 X 3 Y 2 X 13 Y 2 X 17 Y 3 X 18 Y 2 X 21 Y 2 X 23 Y 2 X 28 Y 3 X 31 Y 2 X 30 Y 2 X 21 Y 2 X 37 Y
 3 X 29 Y 2 X 31 Y 2 X 5 Y 2 X 19 Y 3 X 28 Y 2 X -1 Y 2 X -1 Y 2 X 28 Y 3 X -16 Y 2 X 2 Y 2 X 7 Y 2 X -22 Y 2 X -11 Y 3 X -5 Y 2 X -13 Y 2 X -10 Y 2 X -19 Y 3 X -18 Y 2 X -18 Y 2 X -16 Y 2 X -22 Y 3 X -15 Y 2 X -12 Y 2 X -14 Y 2 X -16 Y 3 X -9 Y 2 X
 -12 Y 2 X -21 Y 2 X -9 Y 2 X -9 Y 3 X -11 Y 2 X -6 Y 2 X -13 Y 2 X -1 Y 3 X -9 Y 2 X -4 Y 2 X -9 Y 2 X -5 Y 3 X -3 Y 2 X -1 Y 2 X -3 Y 2 X -3 Y 3 X -5 Y 4 X 1 Y 2 X -3 Y 3 X 2 Y 2 X -1 Y 2 X -2 Y 2 X 2 Y 2 X 2 Y 5 X 2 Y 2 X -1 Y 2 X 1 Y 5 X 5 Y 2 X
 -2 Y 2 X 1 Y 3 X -1 Y 2 X 9 Y 2 X -2 Y 2 X 1 Y 5 X 2 Y 4 X 1 Y 2 X 2 Y 5 X 2 Y 2 X 3 Y 2 X -4 Y 3 X 1 Y 2 X 1 Y 2 X 1 Y 5 X 5 Y 2 X -2 Y 2 X -2 Y 2 X -1 Y 3 X 3 Y 2 X -4 Y 2 X 3 Y 2 X -1 Y 2 X -2 Y 7 X 1 Y 2 X -3 Y 3 X -3 Y 4 X 1 Y 2 X 1 Y 3 X -1 Y
 2 X -7 Y 2 X 3 Y 2 X -3 Y 3 X 1 Y 2 X -1 Y 2 X -2 Y 2 X -2 Y 3 X -3 Y 2 X 1 Y 2 X -3 Y 2 X 1 Y 2 X -1 Y 3 X 1 Y 2 X -4 Y 2 X -2 Y 2 X -1 Y 3 X -1 Y 4 X -2 Y 2 X -1 Y 3 X -4 Y 2 X 2 Y 2 X 1 Y 2 X -4 Y 5 X -1 Y 2 X 3 Y 2 X -5 Y 2 X -1 Y 3 X -2 Y 6 X
 -3 Y 3 X -1 Y 2 X 1 Y 2 X -1 Y 2 X -1 Y 3 X -1 Y 2 X -1 Y 2 X -2 Y 2 X 3 Y 3 X -1 Y 2 X -3 Y 2 X -1 Y 2 X 1 Y 5 X -3 Y 2 X 2 Y 2 X -2 Y 2 X -2 Y 3 X 1 Y 4 X -1 Y 2 X -1 Y 5 X -1 Y 7 X -3 Y 2 X 2 Y 2 X -1 Y 5 X -1 Y 4 X 1 Y 2 X -1 Y 2 X -2 Y 5 X 2 Y
 2 X -2 Y 2 X -1 Y 3 X 1 Y 2 X -1 Y 2 X 1 Y 2 X -1 Y 3 X -1 Y 2 X 1 Y 7 X -1 Y 2 X -1 Y 2 X 1 Y 2 X -1 Y 7 X -1 Y 2 X 1 Y 5 X -1 Y 6 X -1 Y 3 X 1 Y 4 X -1 Y 2 X 1 Y 3 X -1 Y 6 X -1 Y 3 X 1 Y 2 X -1 Y 2 X 1 Y 2 X -1 Y 2 X 1 Y 3 X -1 Y 9 X 1 Y 4 X -1 Y
 2 X -1 Y 3 X 1 Y 6 X -1 Y 5 X 1 Y 2 X -1 Y 2 X 1 Y 2 X -1 Y 9 X 1 Y 3 X -1 Y 35 X -1 Y 3 X 1 Y 4 X -1 Y 2 X 1 Y 3 X -1 Y 2 X 1 Y 4 X -1 Y 18 X 1 Y 2 X -1 Y 7 X 1 Y 2 X -1 Y 1181 X s 0 1 0 c 1 1 1 c black 0 1 0 c 365 246 m 119 Y 2 X 139 Y 3 X 47 Y 2
 X 86 Y 2 X 42 Y 2 X 39 Y 2 X 17 Y 3 X 13 Y 2 X -1 Y 2 X 8 Y 2 X -19 Y 3 X -5 Y 2 X -11 Y 2 X -20 Y 2 X -10 Y 3 X -15 Y 2 X -13 Y 2 X -22 Y 2 X -13 Y 3 X -6 Y 2 X -17 Y 2 X -23 Y 5 X -26 Y 2 X -9 Y 2 X -11 Y 2 X -17 Y 2 X -19 Y 3 X -8 Y 2 X -15 Y 2 X
 -11 Y 2 X -15 Y 3 X -14 Y 2 X -14 Y 2 X -12 Y 2 X -16 Y 3 X -9 Y 2 X -10 Y 2 X -10 Y 2 X -8 Y 3 X -8 Y 2 X -8 Y 2 X -11 Y 2 X -7 Y 2 X -5 Y 3 X -6 Y 2 X -5 Y 2 X -7 Y 2 X -2 Y 3 X -4 Y 2 X -3 Y 2 X -5 Y 2 X -3 Y 3 X -2 Y 4 X -3 Y 2 X -1 Y 3 X -3 Y 6
 X -1 Y 5 X -1 Y 2 X -1 Y 2 X 1 Y 5 X 1 Y 2 X 1 Y 2 X -1 Y 7 X 3 Y 2 X -2 Y 2 X 1 Y 3 X -1 Y 2 X 5 Y 2 X -1 Y 7 X 1 Y 6 X 1 Y 5 X 1 Y 2 X 2 Y 2 X -2 Y 5 X 1 Y 4 X -1 Y 3 X 3 Y 2 X -1 Y 2 X -1 Y 5 X 1 Y 2 X -2 Y 2 X 2 Y 2 X -1 Y 2 X -1 Y 3 X 1 Y 2 X
 -1 Y 4 X -1 Y 3 X -1 Y 6 X 1 Y 3 X -1 Y 2 X -3 Y 2 X 1 Y 2 X -1 Y 7 X -2 Y 5 X -2 Y 2 X 1 Y 2 X -2 Y 2 X 1 Y 2 X -1 Y 5 X -1 Y 2 X -2 Y 7 X -1 Y 2 X -1 Y 5 X -2 Y 2 X 1 Y 2 X 1 Y 2 X -3 Y 3 X 1 Y 2 X -1 Y 2 X 2 Y 2 X -3 Y 5 X -1 Y 6 X -2 Y 9 X -1 Y
 5 X -1 Y 2 X -1 Y 2 X 2 Y 3 X -1 Y 2 X -1 Y 2 X -1 Y 2 X 1 Y 5 X -2 Y 2 X 1 Y 2 X -1 Y 2 X -1 Y 3 X 1 Y 4 X -1 Y 9 X -1 Y 5 X -1 Y 2 X 1 Y 2 X -1 Y 2 X 1 Y 3 X -1 Y 8 X -1 Y 5 X 1 Y 2 X -1 Y 11 X -1 Y 5 X 1 Y 2 X -1 Y 11 X -1 Y 32 X -1 Y 4 X 1 Y 2 X
 -1 Y 11 X 1 Y 3 X -1 Y 24 X -1 Y 3 X 1 Y 8 X -1 Y 5 X 1 Y 2 X -1 Y 2 X 1 Y 3 X -1 Y 15 X 1 Y 3 X -1 Y 4 X 1 Y 2 X -1 Y 1239 X s 0 0 1 c 1 1 1 c black 0 0 1 c 365 246 m 355 Y 2 X 350 Y 3 X 40 Y 2 X 91 Y 2 X -22 Y 2 X -28 Y 2 X -44 Y 3 X -34 Y 2 X -43
 Y 2 X -43 Y 2 X -50 Y 3 X -39 Y 2 X -44 Y 2 X -41 Y 2 X -29 Y 3 X -31 Y 2 X -27 Y 2 X -26 Y 2 X -22 Y 3 X -16 Y 2 X -21 Y 2 X -22 Y 2 X -4 Y 3 X -24 Y 2 X -11 Y 2 X -10 Y 2 X -15 Y 2 X -16 Y 3 X -8 Y 2 X -9 Y 2 X -11 Y 2 X -10 Y 3 X -10 Y 2 X -11 Y
 2 X -7 Y 2 X -10 Y 3 X -7 Y 2 X -6 Y 2 X -7 Y 2 X -6 Y 3 X -5 Y 2 X -6 Y 2 X -6 Y 2 X -5 Y 2 X -3 Y 3 X -5 Y 2 X -2 Y 2 X -5 Y 2 X -1 Y 3 X -3 Y 2 X -2 Y 2 X -3 Y 2 X -2 Y 3 X -1 Y 4 X -2 Y 2 X -1 Y 3 X -2 Y 6 X -1 Y 5 X -1 Y 9 X 1 Y 4 X -1 Y 7 X 2
 Y 2 X -1 Y 2 X 1 Y 3 X -1 Y 2 X 3 Y 2 X -1 Y 5 X 1 Y 13 X 1 Y 2 X 1 Y 2 X -1 Y 7 X 1 Y 2 X -1 Y 3 X 2 Y 2 X -1 Y 4 X -1 Y 3 X 1 Y 2 X -1 Y 2 X 1 Y 4 X -1 Y 12 X -2 Y 4 X 1 Y 7 X -2 Y 11 X -1 Y 2 X -1 Y 7 X -1 Y 9 X -1 Y 2 X -1 Y 9 X -1 Y 5 X -1 Y 4
 X 1 Y 2 X -2 Y 7 X 1 Y 2 X -2 Y 11 X -1 Y 9 X -1 Y 7 X -1 Y 2 X 1 Y 5 X -1 Y 2 X -1 Y 2 X 1 Y 5 X -1 Y 6 X -1 Y 3 X 1 Y 4 X -1 Y 14 X -1 Y 2 X 1 Y 2 X -1 Y 13 X -1 Y 5 X 1 Y 2 X -1 Y 25 X -1 Y 2 X 1 Y 2 X -1 Y 58 X -1 Y 3 X 1 Y 6 X -1 Y 3 X 1 Y 2 X
 -1 Y 1290 X s 1 0 1 c 1 1 1 c black 1 0 1 c 365 246 m 591 Y 2 X 522 Y 3 X 3 Y 2 X 41 Y 2 X -114 Y 2 X -107 Y 2 X -92 Y 3 X -71 Y 2 X -79 Y 2 X -66 Y 2 X -68 Y 3 X -53 Y 2 X -52 Y 2 X -50 Y 2 X -39 Y 3 X -32 Y 2 X -29 Y 2 X -25 Y 2 X -23 Y 3 X -18 Y
 2 X -18 Y 2 X -21 Y 2 X -7 Y 3 X -19 Y 2 X -10 Y 2 X -9 Y 2 X -13 Y 2 X -12 Y 3 X -7 Y 2 X -7 Y 2 X -8 Y 2 X -8 Y 3 X -8 Y 2 X -8 Y 2 X -5 Y 2 X -7 Y 3 X -6 Y 2 X -4 Y 2 X -6 Y 2 X -3 Y 3 X -4 Y 2 X -5 Y 2 X -4 Y 2 X -4 Y 2 X -2 Y 3 X -3 Y 2 X -2 Y
 2 X -3 Y 2 X -2 Y 3 X -1 Y 2 X -2 Y 2 X -2 Y 2 X -1 Y 3 X -1 Y 4 X -2 Y 5 X -2 Y 9 X -1 Y 6 X -1 Y 2 X 1 Y 14 X 1 Y 2 X -1 Y 7 X 2 Y 2 X -1 Y 5 X 1 Y 15 X 1 Y 5 X -1 Y 2 X 1 Y 7 X 1 Y 2 X -1 Y 9 X -1 Y 2 X 1 Y 4 X -1 Y 3 X 1 Y 2 X -1 Y 7 X -1 Y 6 X
 1 Y 5 X -2 Y 13 X -1 Y 7 X -1 Y 11 X -1 Y 9 X -1 Y 5 X -1 Y 2 X 1 Y 4 X -1 Y 7 X 1 Y 2 X -2 Y 11 X -1 Y 16 X -1 Y 2 X 1 Y 3 X -1 Y 11 X -1 Y 2 X 1 Y 2 X -1 Y 18 X -1 Y 25 X -1 Y 2 X 1 Y 4 X -1 Y 3 X 1 Y 2 X -1 Y 56 X -1 Y 2 X 1 Y 2 X -1 Y 7 X 1 Y 2
 X -1 Y 2 X 1 Y 3 X -1 Y 1310 X s black
 gsave  2268 1538 0 0 C 905.783 1309.8 t 0 r /Helvetica-BoldOblique findfont 71.6807 sf 0 0 m (ATLAS) show NC gr 
 gsave  2268 1538 0 0 C 1176.22 1309.8 t 0 r /Helvetica findfont 71.6807 sf 0 0 m (Simulation Internal) show NC gr 
 gsave  2268 1538 0 0 C 905.783 1231.6 t 0 r /Helvetica findfont 71.6807 sf 0 0 m (ITk Inclined) show NC gr 
 gsave  2268 1538 0 0 C 1065.44 1153.41 t 0 r /Helvetica findfont 71.6807 sf 0 0 m (> = 200) show NC gr 
 gsave  2268 1538 0 0 C 1023.08 1153.41 t 0 r /Symbol findfont 71.6807 sf 0 0 m (m) show NC gr 
 gsave  2268 1538 0 0 C 944.882 1153.41 t 0 r /Helvetica findfont 71.6807 sf 0 0 m (, <) show NC gr 
 gsave  2268 1538 0 0 C 925.333 1153.41 t 0 r /Helvetica findfont 71.6807 sf 0 0 m (t) show NC gr  6 lw 925 1209 m 20 X s
 gsave  2268 1538 0 0 C 905.783 1153.41 t 0 r /Helvetica findfont 71.6807 sf 0 0 m (t) show NC gr  1 1 1 c 3 lw 340 308 1542 738 bf black
 gsave  2268 1538 0 0 C 1625.85 1003.53 t 0 r /Helvetica-Bold findfont 71.6807 sf 0 0 m (Layer 0) show NC gr  12 lw 1555 1015 m 59 X s
 gsave  2268 1538 0 0 C 1625.85 941.624 t 0 r /Helvetica-Bold findfont 71.6807 sf 0 0 m (Layer 1) show NC gr  1 0 0 c 1555 953 m 59 X s black
 gsave  2268 1538 0 0 C 1625.85 879.718 t 0 r /Helvetica-Bold findfont 71.6807 sf 0 0 m (Layer 2) show NC gr  0 1 0 c 1555 892 m 59 X s black
 gsave  2268 1538 0 0 C 1625.85 817.812 t 0 r /Helvetica-Bold findfont 71.6807 sf 0 0 m (Layer 3) show NC gr  0 0 1 c 1555 830 m 59 X s black
 gsave  2268 1538 0 0 C 1625.85 755.906 t 0 r /Helvetica-Bold findfont 71.6807 sf 0 0 m (Layer 4) show NC gr  1 0 1 c 1555 769 m 59 X s
 gr  gr showpage
end
%%EOF
