%!PS-Adobe-2.0 EPSF-2.0
%%BoundingBox:  0 0 567 384
%%Title: plots/pixels/barrel/inc_reg_occ_per_flat_layer.eps: c1
%%Creator: ROOT Version 5.34/36
%%CreationDate: Mon Apr 10 13:14:49 2017
%%EndComments
%%BeginProlog
80 dict begin
/s {stroke} def /l {lineto} def /m {moveto} def /t {translate} def
/r {rotate} def /rl {roll}  def /R {repeat} def
/d {rlineto} def /rm {rmoveto} def /gr {grestore} def /f {eofill} def
/c {setrgbcolor} def /black {0 setgray} def /sd {setdash} def
/cl {closepath} def /sf {scalefont setfont} def /lw {setlinewidth} def
/box {m dup 0 exch d exch 0 d 0 exch neg d cl} def
/NC{systemdict begin initclip end}def/C{NC box clip newpath}def
/bl {box s} def /bf {gsave box gsave f grestore 1 lw [] 0 sd s grestore} def /Y { 0 exch d} def /X { 0 d} def 
/K {{pop pop 0 moveto} exch kshow} bind def
/ita {/ang 15 def gsave [1 0 ang dup sin exch cos div 1 0 0] concat} def 
/mp {newpath /y exch def /x exch def} def
/side {[w .77 mul w .23 mul] .385 w mul sd w 0 l currentpoint t -144 r} def
/mr {mp x y w2 0 360 arc} def /m24 {mr s} def /m20 {mr f} def
/mb {mp x y w2 add m w2 neg 0 d 0 w neg d w 0 d 0 w d cl} def
/mt {mp x y w2 add m w2 neg w neg d w 0 d cl} def
/m21 {mb f} def /m25 {mb s} def /m22 {mt f} def /m26{mt s} def
/m23 {mp x y w2 sub m w2 w d w neg 0 d cl f} def
/m27 {mp x y w2 add m w3 neg w2 neg d w3 w2 neg d w3 w2 d cl s} def
/m28 {mp x w2 sub y w2 sub w3 add m w3 0 d  0 w3 neg d w3 0 d 0 w3 d w3 0 d  0 w3 d w3 neg 0 d 0 w3 d w3 neg 0 d 0 w3 neg d w3 neg 0 d cl s } def
/m29 {mp gsave x w2 sub y w2 add w3 sub m currentpoint t 4 {side} repeat cl fill gr} def
/m30 {mp gsave x w2 sub y w2 add w3 sub m currentpoint t 4 {side} repeat cl s gr} def
/m31 {mp x y w2 sub m 0 w d x w2 sub y m w 0 d x w2 sub y w2 add m w w neg d x w2 sub y w2 sub m w w d s} def
/m32 {mp x y w2 sub m w2 w d w neg 0 d cl s} def
/m33 {mp x y w2 add m w3 neg w2 neg d w3 w2 neg d w3 w2 d cl f} def
/m34 {mp x w2 sub y w2 sub w3 add m w3 0 d  0 w3 neg d w3 0 d 0 w3 d w3 0 d  0 w3 d w3 neg 0 d 0 w3 d w3 neg 0 d 0 w3 neg d w3 neg 0 d cl f } def
/m2 {mp x y w2 sub m 0 w d x w2 sub y m w 0 d s} def
/m5 {mp x w2 sub y w2 sub m w w d x w2 sub y w2 add m w w neg d s} def
/reEncode {exch findfont dup length dict begin {1 index /FID eq  {pop pop} {def} ifelse } forall /Encoding exch def currentdict end dup /FontName get exch definefont pop } def [/Times-Bold /Times-Italic /Times-BoldItalic /Helvetica /Helvetica-Oblique
 /Helvetica-Bold /Helvetica-BoldOblique /Courier /Courier-Oblique /Courier-Bold /Courier-BoldOblique /Times-Roman /AvantGarde-Book /AvantGarde-BookOblique /AvantGarde-Demi /AvantGarde-DemiOblique /Bookman-Demi /Bookman-DemiItalic /Bookman-Light
 /Bookman-LightItalic /Helvetica-Narrow /Helvetica-Narrow-Bold /Helvetica-Narrow-BoldOblique /Helvetica-Narrow-Oblique /NewCenturySchlbk-Roman /NewCenturySchlbk-Bold /NewCenturySchlbk-BoldItalic /NewCenturySchlbk-Italic /Palatino-Bold
 /Palatino-BoldItalic /Palatino-Italic /Palatino-Roman ] {ISOLatin1Encoding reEncode } forall
%%EndProlog
%%BeginSetup
%%EndSetup
newpath  gsave  .25 .25 scale  gsave  0 0 t black[  ] 0 sd 3 lw 1 1 1 c 2268 1538 0 0 bf black 1 1 1 c 1791 1215 363 246 bf black 1791 1215 363 246 bl 1 1 1 c 1791 1215 363 246 bf black 1791 1215 363 246 bl 12 lw 1 1 1 c black 363 246 m 358 X 900 Y
 358 X -323 Y 359 X -273 Y 358 X 14 Y 358 X s 3 lw 363 246 m 1791 X s
 gsave  2268 1538 0 0 C 1547.65 114.037 t 0 r /Helvetica findfont 71.6807 sf 0 0 m (Region Occupancy) show NC gr  363 283 m -37 Y s 399 264 m -18 Y s 434 264 m -18 Y s 470 264 m -18 Y s 506 264 m -18 Y s 542 283 m -37 Y s 578 264 m -18 Y s 614 264 m
 -18 Y s 649 264 m -18 Y s 685 264 m -18 Y s 721 283 m -37 Y s 757 264 m -18 Y s 793 264 m -18 Y s 829 264 m -18 Y s 864 264 m -18 Y s 900 283 m -37 Y s 936 264 m -18 Y s 972 264 m -18 Y s 1008 264 m -18 Y s 1044 264 m -18 Y s 1079 283 m -37 Y s 1115
 264 m -18 Y s 1151 264 m -18 Y s 1187 264 m -18 Y s 1223 264 m -18 Y s 1259 283 m -37 Y s 1294 264 m -18 Y s 1330 264 m -18 Y s 1366 264 m -18 Y s 1402 264 m -18 Y s 1438 283 m -37 Y s 1474 264 m -18 Y s 1509 264 m -18 Y s 1545 264 m -18 Y s 1581
 264 m -18 Y s 1617 283 m -37 Y s 1653 264 m -18 Y s 1689 264 m -18 Y s 1724 264 m -18 Y s 1760 264 m -18 Y s 1796 283 m -37 Y s 1832 264 m -18 Y s 1868 264 m -18 Y s 1904 264 m -18 Y s 1939 264 m -18 Y s 1975 283 m -37 Y s 2011 264 m -18 Y s 2047
 264 m -18 Y s 2083 264 m -18 Y s 2119 264 m -18 Y s 2154 283 m -37 Y s
 gsave  2268 1538 0 0 C 342.112 179.202 t 0 r /Helvetica findfont 71.6807 sf 0 0 m (0) show NC gr 
 gsave  2268 1538 0 0 C 491.99 179.202 t 0 r /Helvetica findfont 71.6807 sf 0 0 m (0.5) show NC gr 
 gsave  2268 1538 0 0 C 707.032 179.202 t 0 r /Helvetica findfont 71.6807 sf 0 0 m (1) show NC gr 
 gsave  2268 1538 0 0 C 850.394 179.202 t 0 r /Helvetica findfont 71.6807 sf 0 0 m (1.5) show NC gr 
 gsave  2268 1538 0 0 C 1058.92 179.202 t 0 r /Helvetica findfont 71.6807 sf 0 0 m (2) show NC gr 
 gsave  2268 1538 0 0 C 1208.8 179.202 t 0 r /Helvetica findfont 71.6807 sf 0 0 m (2.5) show NC gr 
 gsave  2268 1538 0 0 C 1417.32 179.202 t 0 r /Helvetica findfont 71.6807 sf 0 0 m (3) show NC gr 
 gsave  2268 1538 0 0 C 1567.2 179.202 t 0 r /Helvetica findfont 71.6807 sf 0 0 m (3.5) show NC gr 
 gsave  2268 1538 0 0 C 1775.73 179.202 t 0 r /Helvetica findfont 71.6807 sf 0 0 m (4) show NC gr 
 gsave  2268 1538 0 0 C 1925.6 179.202 t 0 r /Helvetica findfont 71.6807 sf 0 0 m (4.5) show NC gr 
 gsave  2268 1538 0 0 C 2134.13 179.202 t 0 r /Helvetica findfont 71.6807 sf 0 0 m (5) show NC gr  363 1461 m 1791 X s 363 1425 m 36 Y s 399 1443 m 18 Y s 434 1443 m 18 Y s 470 1443 m 18 Y s 506 1443 m 18 Y s 542 1425 m 36 Y s 578 1443 m 18 Y s 614
 1443 m 18 Y s 649 1443 m 18 Y s 685 1443 m 18 Y s 721 1425 m 36 Y s 757 1443 m 18 Y s 793 1443 m 18 Y s 829 1443 m 18 Y s 864 1443 m 18 Y s 900 1425 m 36 Y s 936 1443 m 18 Y s 972 1443 m 18 Y s 1008 1443 m 18 Y s 1044 1443 m 18 Y s 1079 1425 m 36 Y
 s 1115 1443 m 18 Y s 1151 1443 m 18 Y s 1187 1443 m 18 Y s 1223 1443 m 18 Y s 1259 1425 m 36 Y s 1294 1443 m 18 Y s 1330 1443 m 18 Y s 1366 1443 m 18 Y s 1402 1443 m 18 Y s 1438 1425 m 36 Y s 1474 1443 m 18 Y s 1509 1443 m 18 Y s 1545 1443 m 18 Y s
 1581 1443 m 18 Y s 1617 1425 m 36 Y s 1653 1443 m 18 Y s 1689 1443 m 18 Y s 1724 1443 m 18 Y s 1760 1443 m 18 Y s 1796 1425 m 36 Y s 1832 1443 m 18 Y s 1868 1443 m 18 Y s 1904 1443 m 18 Y s 1939 1443 m 18 Y s 1975 1425 m 36 Y s 2011 1443 m 18 Y s
 2047 1443 m 18 Y s 2083 1443 m 18 Y s 2119 1443 m 18 Y s 2154 1425 m 36 Y s 363 246 m 1215 Y s
 gsave  2268 1538 0 0 C 133.587 860.168 t 90 r /Helvetica findfont 71.6807 sf 0 0 m (Normalised Entries) show NC gr  417 456 m -54 X s 390 498 m -27 X s 390 540 m -27 X s 390 582 m -27 X s 390 624 m -27 X s 417 666 m -54 X s 390 708 m -27 X s 390 750
 m -27 X s 390 792 m -27 X s 390 834 m -27 X s 417 876 m -54 X s 390 918 m -27 X s 390 960 m -27 X s 390 1002 m -27 X s 390 1044 m -27 X s 417 1086 m -54 X s 390 1128 m -27 X s 390 1170 m -27 X s 390 1212 m -27 X s 390 1254 m -27 X s 417 1296 m -54 X
 s 417 456 m -54 X s 390 414 m -27 X s 390 372 m -27 X s 390 330 m -27 X s 390 288 m -27 X s 417 1296 m -54 X s 390 1338 m -27 X s 390 1380 m -27 X s 390 1422 m -27 X s
 gsave  2268 1538 0 0 C 263.915 430.084 t 0 r /Helvetica findfont 71.6807 sf 0 0 m (0.1) show NC gr 
 gsave  2268 1538 0 0 C 250.882 641.868 t 0 r /Helvetica findfont 71.6807 sf 0 0 m (0.2) show NC gr 
 gsave  2268 1538 0 0 C 250.882 850.394 t 0 r /Helvetica findfont 71.6807 sf 0 0 m (0.3) show NC gr 
 gsave  2268 1538 0 0 C 250.882 1062.18 t 0 r /Helvetica findfont 71.6807 sf 0 0 m (0.4) show NC gr 
 gsave  2268 1538 0 0 C 250.882 1270.7 t 0 r /Helvetica findfont 71.6807 sf 0 0 m (0.5) show NC gr  2154 246 m 1215 Y s 2101 456 m 53 X s 2127 498 m 27 X s 2127 540 m 27 X s 2127 582 m 27 X s 2127 624 m 27 X s 2101 666 m 53 X s 2127 708 m 27 X s 2127
 750 m 27 X s 2127 792 m 27 X s 2127 834 m 27 X s 2101 876 m 53 X s 2127 918 m 27 X s 2127 960 m 27 X s 2127 1002 m 27 X s 2127 1044 m 27 X s 2101 1086 m 53 X s 2127 1128 m 27 X s 2127 1170 m 27 X s 2127 1212 m 27 X s 2127 1254 m 27 X s 2101 1296 m
 53 X s 2101 456 m 53 X s 2127 414 m 27 X s 2127 372 m 27 X s 2127 330 m 27 X s 2127 288 m 27 X s 2101 1296 m 53 X s 2127 1338 m 27 X s 2127 1380 m 27 X s 2127 1422 m 27 X s 1 0 0 c 12 lw 1 1 1 c black 1 0 0 c 363 246 m 358 X 1000 Y 358 X -393 Y 359
 X -340 Y 358 X -42 Y 358 X s 0 1 0 c 1 1 1 c black 0 1 0 c 363 246 m 358 X 1064 Y 358 X -445 Y 359 X -379 Y 358 X -63 Y 358 X s 0 0 1 c 1 1 1 c black 0 0 1 c 363 246 m 358 X 1115 Y 358 X -488 Y 359 X -412 Y 358 X -72 Y 358 X s 1 0 1 c 1 1 1 c black
 1 0 1 c 363 246 m 358 X 1157 Y 358 X -527 Y 359 X -436 Y 358 X -75 Y 358 X s black
 gsave  2268 1538 0 0 C 905.783 1309.8 t 0 r /Helvetica-BoldOblique findfont 71.6807 sf 0 0 m (ATLAS) show NC gr 
 gsave  2268 1538 0 0 C 1176.22 1309.8 t 0 r /Helvetica findfont 71.6807 sf 0 0 m (Simulation Internal) show NC gr 
 gsave  2268 1538 0 0 C 905.783 1231.6 t 0 r /Helvetica findfont 71.6807 sf 0 0 m (ITk Inclined) show NC gr 
 gsave  2268 1538 0 0 C 1065.44 1153.41 t 0 r /Helvetica findfont 71.6807 sf 0 0 m (> = 200) show NC gr 
 gsave  2268 1538 0 0 C 1023.08 1153.41 t 0 r /Symbol findfont 71.6807 sf 0 0 m (m) show NC gr 
 gsave  2268 1538 0 0 C 944.882 1153.41 t 0 r /Helvetica findfont 71.6807 sf 0 0 m (, <) show NC gr 
 gsave  2268 1538 0 0 C 925.333 1153.41 t 0 r /Helvetica findfont 71.6807 sf 0 0 m (t) show NC gr  6 lw 925 1209 m 20 X s
 gsave  2268 1538 0 0 C 905.783 1153.41 t 0 r /Helvetica findfont 71.6807 sf 0 0 m (t) show NC gr  1 1 1 c 3 lw 340 308 1542 738 bf black
 gsave  2268 1538 0 0 C 1625.85 1003.53 t 0 r /Helvetica-Bold findfont 71.6807 sf 0 0 m (Layer 0) show NC gr  12 lw 1555 1015 m 59 X s
 gsave  2268 1538 0 0 C 1625.85 941.624 t 0 r /Helvetica-Bold findfont 71.6807 sf 0 0 m (Layer 1) show NC gr  1 0 0 c 1555 953 m 59 X s black
 gsave  2268 1538 0 0 C 1625.85 879.718 t 0 r /Helvetica-Bold findfont 71.6807 sf 0 0 m (Layer 2) show NC gr  0 1 0 c 1555 892 m 59 X s black
 gsave  2268 1538 0 0 C 1625.85 817.812 t 0 r /Helvetica-Bold findfont 71.6807 sf 0 0 m (Layer 3) show NC gr  0 0 1 c 1555 830 m 59 X s black
 gsave  2268 1538 0 0 C 1625.85 755.906 t 0 r /Helvetica-Bold findfont 71.6807 sf 0 0 m (Layer 4) show NC gr  1 0 1 c 1555 769 m 59 X s
 gr  gr showpage
end
%%EOF
