%!PS-Adobe-2.0 EPSF-2.0
%%BoundingBox:  0 0 567 384
%%Title: plots/pixels/barrel/inc_bits_per_chip.eps: c1
%%Creator: ROOT Version 5.34/36
%%CreationDate: Mon Apr 10 13:14:49 2017
%%EndComments
%%BeginProlog
80 dict begin
/s {stroke} def /l {lineto} def /m {moveto} def /t {translate} def
/r {rotate} def /rl {roll}  def /R {repeat} def
/d {rlineto} def /rm {rmoveto} def /gr {grestore} def /f {eofill} def
/c {setrgbcolor} def /black {0 setgray} def /sd {setdash} def
/cl {closepath} def /sf {scalefont setfont} def /lw {setlinewidth} def
/box {m dup 0 exch d exch 0 d 0 exch neg d cl} def
/NC{systemdict begin initclip end}def/C{NC box clip newpath}def
/bl {box s} def /bf {gsave box gsave f grestore 1 lw [] 0 sd s grestore} def /Y { 0 exch d} def /X { 0 d} def 
/K {{pop pop 0 moveto} exch kshow} bind def
/ita {/ang 15 def gsave [1 0 ang dup sin exch cos div 1 0 0] concat} def 
/mp {newpath /y exch def /x exch def} def
/side {[w .77 mul w .23 mul] .385 w mul sd w 0 l currentpoint t -144 r} def
/mr {mp x y w2 0 360 arc} def /m24 {mr s} def /m20 {mr f} def
/mb {mp x y w2 add m w2 neg 0 d 0 w neg d w 0 d 0 w d cl} def
/mt {mp x y w2 add m w2 neg w neg d w 0 d cl} def
/m21 {mb f} def /m25 {mb s} def /m22 {mt f} def /m26{mt s} def
/m23 {mp x y w2 sub m w2 w d w neg 0 d cl f} def
/m27 {mp x y w2 add m w3 neg w2 neg d w3 w2 neg d w3 w2 d cl s} def
/m28 {mp x w2 sub y w2 sub w3 add m w3 0 d  0 w3 neg d w3 0 d 0 w3 d w3 0 d  0 w3 d w3 neg 0 d 0 w3 d w3 neg 0 d 0 w3 neg d w3 neg 0 d cl s } def
/m29 {mp gsave x w2 sub y w2 add w3 sub m currentpoint t 4 {side} repeat cl fill gr} def
/m30 {mp gsave x w2 sub y w2 add w3 sub m currentpoint t 4 {side} repeat cl s gr} def
/m31 {mp x y w2 sub m 0 w d x w2 sub y m w 0 d x w2 sub y w2 add m w w neg d x w2 sub y w2 sub m w w d s} def
/m32 {mp x y w2 sub m w2 w d w neg 0 d cl s} def
/m33 {mp x y w2 add m w3 neg w2 neg d w3 w2 neg d w3 w2 d cl f} def
/m34 {mp x w2 sub y w2 sub w3 add m w3 0 d  0 w3 neg d w3 0 d 0 w3 d w3 0 d  0 w3 d w3 neg 0 d 0 w3 d w3 neg 0 d 0 w3 neg d w3 neg 0 d cl f } def
/m2 {mp x y w2 sub m 0 w d x w2 sub y m w 0 d s} def
/m5 {mp x w2 sub y w2 sub m w w d x w2 sub y w2 add m w w neg d s} def
/reEncode {exch findfont dup length dict begin {1 index /FID eq  {pop pop} {def} ifelse } forall /Encoding exch def currentdict end dup /FontName get exch definefont pop } def [/Times-Bold /Times-Italic /Times-BoldItalic /Helvetica /Helvetica-Oblique
 /Helvetica-Bold /Helvetica-BoldOblique /Courier /Courier-Oblique /Courier-Bold /Courier-BoldOblique /Times-Roman /AvantGarde-Book /AvantGarde-BookOblique /AvantGarde-Demi /AvantGarde-DemiOblique /Bookman-Demi /Bookman-DemiItalic /Bookman-Light
 /Bookman-LightItalic /Helvetica-Narrow /Helvetica-Narrow-Bold /Helvetica-Narrow-BoldOblique /Helvetica-Narrow-Oblique /NewCenturySchlbk-Roman /NewCenturySchlbk-Bold /NewCenturySchlbk-BoldItalic /NewCenturySchlbk-Italic /Palatino-Bold
 /Palatino-BoldItalic /Palatino-Italic /Palatino-Roman ] {ISOLatin1Encoding reEncode } forall
%%EndProlog
%%BeginSetup
%%EndSetup
newpath  gsave  .25 .25 scale  gsave  0 0 t black[  ] 0 sd 3 lw 1 1 1 c 2268 1538 0 0 bf black 1 1 1 c 1791 1215 363 246 bf black 1791 1215 363 246 bl 1 1 1 c 1791 1215 363 246 bf black 1791 1215 363 246 bl 12 lw 1 1 1 c black 363 246 m 112 X 1 Y 22
 X 1 Y 23 X 3 Y 22 X 4 Y 22 X 7 Y 23 X 11 Y 22 X 20 Y 23 X 27 Y 22 X 33 Y 22 X 41 Y 23 X 39 Y 22 X 44 Y 23 X 37 Y 22 X 24 Y 22 X 17 Y 23 X 11 Y 22 X 6 Y 22 X -19 Y 23 X -20 Y 22 X -28 Y 23 X -31 Y 22 X -26 Y 22 X -35 Y 23 X -32 Y 22 X -19 Y 23 X -23
 Y 22 X -22 Y 22 X -12 Y 23 X -16 Y 22 X -7 Y 23 X -10 Y 22 X -5 Y 22 X -6 Y 23 X -1 Y 22 X -5 Y 23 X -1 Y 22 X -3 Y 67 X -2 Y 45 X -1 Y 90 X -1 Y 22 X -1 Y 22 X 1 Y 90 X -1 Y 537 X s 3 lw 363 246 m 1791 X s
 gsave  2268 1538 0 0 C 1759.44 114.037 t 0 r /Helvetica findfont 71.6807 sf 0 0 m (Bits per chip) show NC gr  363 283 m -37 Y s 408 264 m -18 Y s 452 264 m -18 Y s 497 264 m -18 Y s 542 264 m -18 Y s 587 283 m -37 Y s 632 264 m -18 Y s 676 264 m -18
 Y s 721 264 m -18 Y s 766 264 m -18 Y s 811 283 m -37 Y s 855 264 m -18 Y s 900 264 m -18 Y s 945 264 m -18 Y s 990 264 m -18 Y s 1035 283 m -37 Y s 1079 264 m -18 Y s 1124 264 m -18 Y s 1169 264 m -18 Y s 1214 264 m -18 Y s 1259 283 m -37 Y s 1303
 264 m -18 Y s 1348 264 m -18 Y s 1393 264 m -18 Y s 1438 264 m -18 Y s 1483 283 m -37 Y s 1527 264 m -18 Y s 1572 264 m -18 Y s 1617 264 m -18 Y s 1662 264 m -18 Y s 1706 283 m -37 Y s 1751 264 m -18 Y s 1796 264 m -18 Y s 1841 264 m -18 Y s 1886
 264 m -18 Y s 1930 283 m -37 Y s 1975 264 m -18 Y s 2020 264 m -18 Y s 2065 264 m -18 Y s 2110 264 m -18 Y s 2154 283 m -37 Y s
 gsave  2268 1538 0 0 C 342.112 179.202 t 0 r /Helvetica findfont 71.6807 sf 0 0 m (0) show NC gr 
 gsave  2268 1538 0 0 C 508.281 179.202 t 0 r /Helvetica findfont 71.6807 sf 0 0 m (1000) show NC gr 
 gsave  2268 1538 0 0 C 729.84 179.202 t 0 r /Helvetica findfont 71.6807 sf 0 0 m (2000) show NC gr 
 gsave  2268 1538 0 0 C 954.657 179.202 t 0 r /Helvetica findfont 71.6807 sf 0 0 m (3000) show NC gr 
 gsave  2268 1538 0 0 C 1179.47 179.202 t 0 r /Helvetica findfont 71.6807 sf 0 0 m (4000) show NC gr 
 gsave  2268 1538 0 0 C 1404.29 179.202 t 0 r /Helvetica findfont 71.6807 sf 0 0 m (5000) show NC gr 
 gsave  2268 1538 0 0 C 1625.85 179.202 t 0 r /Helvetica findfont 71.6807 sf 0 0 m (6000) show NC gr 
 gsave  2268 1538 0 0 C 1850.67 179.202 t 0 r /Helvetica findfont 71.6807 sf 0 0 m (7000) show NC gr 
 gsave  2268 1538 0 0 C 2075.48 179.202 t 0 r /Helvetica findfont 71.6807 sf 0 0 m (8000) show NC gr  363 1461 m 1791 X s 363 1425 m 36 Y s 408 1443 m 18 Y s 452 1443 m 18 Y s 497 1443 m 18 Y s 542 1443 m 18 Y s 587 1425 m 36 Y s 632 1443 m 18 Y s
 676 1443 m 18 Y s 721 1443 m 18 Y s 766 1443 m 18 Y s 811 1425 m 36 Y s 855 1443 m 18 Y s 900 1443 m 18 Y s 945 1443 m 18 Y s 990 1443 m 18 Y s 1035 1425 m 36 Y s 1079 1443 m 18 Y s 1124 1443 m 18 Y s 1169 1443 m 18 Y s 1214 1443 m 18 Y s 1259 1425
 m 36 Y s 1303 1443 m 18 Y s 1348 1443 m 18 Y s 1393 1443 m 18 Y s 1438 1443 m 18 Y s 1483 1425 m 36 Y s 1527 1443 m 18 Y s 1572 1443 m 18 Y s 1617 1443 m 18 Y s 1662 1443 m 18 Y s 1706 1425 m 36 Y s 1751 1443 m 18 Y s 1796 1443 m 18 Y s 1841 1443 m
 18 Y s 1886 1443 m 18 Y s 1930 1425 m 36 Y s 1975 1443 m 18 Y s 2020 1443 m 18 Y s 2065 1443 m 18 Y s 2110 1443 m 18 Y s 2154 1425 m 36 Y s 363 246 m 1215 Y s
 gsave  2268 1538 0 0 C 133.587 860.168 t 90 r /Helvetica findfont 71.6807 sf 0 0 m (Normalised Entries) show NC gr  417 471 m -54 X s 390 516 m -27 X s 390 561 m -27 X s 390 606 m -27 X s 390 651 m -27 X s 417 696 m -54 X s 390 741 m -27 X s 390 786
 m -27 X s 390 831 m -27 X s 390 876 m -27 X s 417 921 m -54 X s 390 966 m -27 X s 390 1011 m -27 X s 390 1056 m -27 X s 390 1101 m -27 X s 417 1146 m -54 X s 390 1191 m -27 X s 390 1236 m -27 X s 390 1281 m -27 X s 390 1326 m -27 X s 417 1371 m -54
 X s 417 471 m -54 X s 390 426 m -27 X s 390 381 m -27 X s 390 336 m -27 X s 390 291 m -27 X s 417 1371 m -54 X s 390 1416 m -27 X s
 gsave  2268 1538 0 0 C 211.784 446.375 t 0 r /Helvetica findfont 71.6807 sf 0 0 m (0.05) show NC gr 
 gsave  2268 1538 0 0 C 263.915 671.192 t 0 r /Helvetica findfont 71.6807 sf 0 0 m (0.1) show NC gr 
 gsave  2268 1538 0 0 C 211.784 896.009 t 0 r /Helvetica findfont 71.6807 sf 0 0 m (0.15) show NC gr 
 gsave  2268 1538 0 0 C 250.882 1120.83 t 0 r /Helvetica findfont 71.6807 sf 0 0 m (0.2) show NC gr 
 gsave  2268 1538 0 0 C 211.784 1345.64 t 0 r /Helvetica findfont 71.6807 sf 0 0 m (0.25) show NC gr  2154 246 m 1215 Y s 2101 471 m 53 X s 2127 516 m 27 X s 2127 561 m 27 X s 2127 606 m 27 X s 2127 651 m 27 X s 2101 696 m 53 X s 2127 741 m 27 X s
 2127 786 m 27 X s 2127 831 m 27 X s 2127 876 m 27 X s 2101 921 m 53 X s 2127 966 m 27 X s 2127 1011 m 27 X s 2127 1056 m 27 X s 2127 1101 m 27 X s 2101 1146 m 53 X s 2127 1191 m 27 X s 2127 1236 m 27 X s 2127 1281 m 27 X s 2127 1326 m 27 X s 2101
 1371 m 53 X s 2101 471 m 53 X s 2127 426 m 27 X s 2127 381 m 27 X s 2127 336 m 27 X s 2127 291 m 27 X s 2101 1371 m 53 X s 2127 1416 m 27 X s 1 0 0 c 12 lw 1 1 1 c black 1 0 0 c 363 253 m 22 X 44 Y 23 X 107 Y 22 X 152 Y 22 X 124 Y 23 X 49 Y 22 X -31
 Y 23 X -83 Y 22 X -93 Y 22 X -86 Y 23 X -60 Y 22 X -36 Y 23 X -22 Y 22 X -7 Y 22 X 2 Y 23 X 6 Y 22 X 10 Y 23 X 9 Y 22 X 5 Y 22 X 5 Y 23 X 2 Y 22 X 1 Y 22 X -6 Y 23 X -7 Y 22 X -9 Y 23 X -10 Y 22 X -8 Y 22 X -12 Y 23 X -10 Y 22 X -6 Y 23 X -7 Y 22 X
 -7 Y 22 X -4 Y 23 X -5 Y 22 X -2 Y 23 X -3 Y 22 X -2 Y 22 X -2 Y 45 X -2 Y 45 X -2 Y 22 X 1 Y 45 X -1 Y 135 X -1 Y 671 X s 0 1 0 c 1 1 1 c black 0 1 0 c 363 452 m 22 X 351 Y 23 X 65 Y 22 X -64 Y 22 X -94 Y 23 X -81 Y 22 X -79 Y 23 X -74 Y 22 X -66 Y
 22 X -54 Y 23 X -36 Y 22 X -21 Y 23 X -13 Y 22 X -4 Y 45 X 1 Y 22 X 5 Y 23 X 4 Y 22 X 2 Y 22 X 2 Y 23 X 1 Y 22 X 1 Y 22 X -3 Y 23 X -4 Y 22 X -4 Y 23 X -5 Y 22 X -4 Y 22 X -6 Y 23 X -5 Y 22 X -3 Y 23 X -3 Y 22 X -4 Y 22 X -2 Y 23 X -2 Y 22 X -1 Y 23
 X -2 Y 22 X -1 Y 45 X -1 Y 45 X -1 Y 134 X -1 Y 761 X s 0 0 1 c 1 1 1 c black 0 0 1 c 363 765 m 22 X 424 Y 23 X -184 Y 22 X -225 Y 22 X -157 Y 23 X -99 Y 22 X -70 Y 23 X -56 Y 22 X -45 Y 22 X -35 Y 23 X -24 Y 22 X -14 Y 23 X -8 Y 22 X -3 Y 67 X 3 Y
 23 X 2 Y 22 X 1 Y 22 X 1 Y 23 X 1 Y 44 X -2 Y 23 X -2 Y 22 X -3 Y 23 X -3 Y 22 X -2 Y 22 X -3 Y 23 X -3 Y 22 X -2 Y 23 X -2 Y 22 X -2 Y 22 X -1 Y 23 X -2 Y 22 X -1 Y 45 X -1 Y 45 X -1 Y 67 X -1 Y 22 X 1 Y 45 X -1 Y 806 X s 1 0 1 c 1 1 1 c black 1 0
 1 c 363 1038 m 22 X 365 Y 23 X -389 Y 22 X -292 Y 22 X -167 Y 23 X -94 Y 22 X -60 Y 23 X -44 Y 22 X -33 Y 22 X -26 Y 23 X -17 Y 22 X -10 Y 23 X -6 Y 22 X -3 Y 45 X 1 Y 22 X 1 Y 23 X 1 Y 22 X 1 Y 22 X 1 Y 67 X -1 Y 23 X -1 Y 22 X -2 Y 23 X -2 Y 22 X
 -2 Y 22 X -2 Y 23 X -2 Y 22 X -1 Y 23 X -2 Y 22 X -1 Y 22 X -1 Y 23 X -1 Y 22 X -1 Y 45 X -1 Y 112 X -1 Y 873 X s black
 gsave  2268 1538 0 0 C 905.783 1309.8 t 0 r /Helvetica-BoldOblique findfont 71.6807 sf 0 0 m (ATLAS) show NC gr 
 gsave  2268 1538 0 0 C 1176.22 1309.8 t 0 r /Helvetica findfont 71.6807 sf 0 0 m (Simulation Internal) show NC gr 
 gsave  2268 1538 0 0 C 905.783 1231.6 t 0 r /Helvetica findfont 71.6807 sf 0 0 m (ITk Inclined) show NC gr 
 gsave  2268 1538 0 0 C 1065.44 1153.41 t 0 r /Helvetica findfont 71.6807 sf 0 0 m (> = 200) show NC gr 
 gsave  2268 1538 0 0 C 1023.08 1153.41 t 0 r /Symbol findfont 71.6807 sf 0 0 m (m) show NC gr 
 gsave  2268 1538 0 0 C 944.882 1153.41 t 0 r /Helvetica findfont 71.6807 sf 0 0 m (, <) show NC gr 
 gsave  2268 1538 0 0 C 925.333 1153.41 t 0 r /Helvetica findfont 71.6807 sf 0 0 m (t) show NC gr  6 lw 925 1209 m 20 X s
 gsave  2268 1538 0 0 C 905.783 1153.41 t 0 r /Helvetica findfont 71.6807 sf 0 0 m (t) show NC gr  1 1 1 c 3 lw 340 308 1542 738 bf black
 gsave  2268 1538 0 0 C 1625.85 1003.53 t 0 r /Helvetica-Bold findfont 71.6807 sf 0 0 m (Layer 0) show NC gr  12 lw 1555 1015 m 59 X s
 gsave  2268 1538 0 0 C 1625.85 941.624 t 0 r /Helvetica-Bold findfont 71.6807 sf 0 0 m (Layer 1) show NC gr  1 0 0 c 1555 953 m 59 X s black
 gsave  2268 1538 0 0 C 1625.85 879.718 t 0 r /Helvetica-Bold findfont 71.6807 sf 0 0 m (Layer 2) show NC gr  0 1 0 c 1555 892 m 59 X s black
 gsave  2268 1538 0 0 C 1625.85 817.812 t 0 r /Helvetica-Bold findfont 71.6807 sf 0 0 m (Layer 3) show NC gr  0 0 1 c 1555 830 m 59 X s black
 gsave  2268 1538 0 0 C 1625.85 755.906 t 0 r /Helvetica-Bold findfont 71.6807 sf 0 0 m (Layer 4) show NC gr  1 0 1 c 1555 769 m 59 X s
 gr  gr showpage
end
%%EOF
