%!PS-Adobe-2.0 EPSF-2.0
%%BoundingBox:  0 0 567 384
%%Title: plots/pixels/barrel/mean_hits_per_chip.eps: c1
%%Creator: ROOT Version 5.34/36
%%CreationDate: Mon Apr 10 13:14:50 2017
%%EndComments
%%BeginProlog
80 dict begin
/s {stroke} def /l {lineto} def /m {moveto} def /t {translate} def
/r {rotate} def /rl {roll}  def /R {repeat} def
/d {rlineto} def /rm {rmoveto} def /gr {grestore} def /f {eofill} def
/c {setrgbcolor} def /black {0 setgray} def /sd {setdash} def
/cl {closepath} def /sf {scalefont setfont} def /lw {setlinewidth} def
/box {m dup 0 exch d exch 0 d 0 exch neg d cl} def
/NC{systemdict begin initclip end}def/C{NC box clip newpath}def
/bl {box s} def /bf {gsave box gsave f grestore 1 lw [] 0 sd s grestore} def /Y { 0 exch d} def /X { 0 d} def 
/K {{pop pop 0 moveto} exch kshow} bind def
/ita {/ang 15 def gsave [1 0 ang dup sin exch cos div 1 0 0] concat} def 
/mp {newpath /y exch def /x exch def} def
/side {[w .77 mul w .23 mul] .385 w mul sd w 0 l currentpoint t -144 r} def
/mr {mp x y w2 0 360 arc} def /m24 {mr s} def /m20 {mr f} def
/mb {mp x y w2 add m w2 neg 0 d 0 w neg d w 0 d 0 w d cl} def
/mt {mp x y w2 add m w2 neg w neg d w 0 d cl} def
/m21 {mb f} def /m25 {mb s} def /m22 {mt f} def /m26{mt s} def
/m23 {mp x y w2 sub m w2 w d w neg 0 d cl f} def
/m27 {mp x y w2 add m w3 neg w2 neg d w3 w2 neg d w3 w2 d cl s} def
/m28 {mp x w2 sub y w2 sub w3 add m w3 0 d  0 w3 neg d w3 0 d 0 w3 d w3 0 d  0 w3 d w3 neg 0 d 0 w3 d w3 neg 0 d 0 w3 neg d w3 neg 0 d cl s } def
/m29 {mp gsave x w2 sub y w2 add w3 sub m currentpoint t 4 {side} repeat cl fill gr} def
/m30 {mp gsave x w2 sub y w2 add w3 sub m currentpoint t 4 {side} repeat cl s gr} def
/m31 {mp x y w2 sub m 0 w d x w2 sub y m w 0 d x w2 sub y w2 add m w w neg d x w2 sub y w2 sub m w w d s} def
/m32 {mp x y w2 sub m w2 w d w neg 0 d cl s} def
/m33 {mp x y w2 add m w3 neg w2 neg d w3 w2 neg d w3 w2 d cl f} def
/m34 {mp x w2 sub y w2 sub w3 add m w3 0 d  0 w3 neg d w3 0 d 0 w3 d w3 0 d  0 w3 d w3 neg 0 d 0 w3 d w3 neg 0 d 0 w3 neg d w3 neg 0 d cl f } def
/m2 {mp x y w2 sub m 0 w d x w2 sub y m w 0 d s} def
/m5 {mp x w2 sub y w2 sub m w w d x w2 sub y w2 add m w w neg d s} def
/reEncode {exch findfont dup length dict begin {1 index /FID eq  {pop pop} {def} ifelse } forall /Encoding exch def currentdict end dup /FontName get exch definefont pop } def [/Times-Bold /Times-Italic /Times-BoldItalic /Helvetica /Helvetica-Oblique
 /Helvetica-Bold /Helvetica-BoldOblique /Courier /Courier-Oblique /Courier-Bold /Courier-BoldOblique /Times-Roman /AvantGarde-Book /AvantGarde-BookOblique /AvantGarde-Demi /AvantGarde-DemiOblique /Bookman-Demi /Bookman-DemiItalic /Bookman-Light
 /Bookman-LightItalic /Helvetica-Narrow /Helvetica-Narrow-Bold /Helvetica-Narrow-BoldOblique /Helvetica-Narrow-Oblique /NewCenturySchlbk-Roman /NewCenturySchlbk-Bold /NewCenturySchlbk-BoldItalic /NewCenturySchlbk-Italic /Palatino-Bold
 /Palatino-BoldItalic /Palatino-Italic /Palatino-Roman ] {ISOLatin1Encoding reEncode } forall
%%EndProlog
%%BeginSetup
%%EndSetup
newpath  gsave  .25 .25 scale  gsave  0 0 t black[  ] 0 sd 3 lw 1 1 1 c 2268 1538 0 0 bf black 1 1 1 c 1791 1215 363 246 bf black 1791 1215 363 246 bl 1 1 1 c 1791 1215 363 246 bf black 1791 1215 363 246 bl 363 246 m 1791 X s
 gsave  2268 1538 0 0 C 1798.53 52.1314 t 0 r /Helvetica findfont 71.6807 sf 0 0 m (Pixel Layer) show NC gr  444 283 m -37 Y s 485 264 m -18 Y s 526 264 m -18 Y s 566 264 m -18 Y s 607 264 m -18 Y s 648 283 m -37 Y s 689 264 m -18 Y s 729 264 m -18 Y
 s 770 264 m -18 Y s 811 264 m -18 Y s 851 283 m -37 Y s 892 264 m -18 Y s 933 264 m -18 Y s 974 264 m -18 Y s 1014 264 m -18 Y s 1055 283 m -37 Y s 1096 264 m -18 Y s 1136 264 m -18 Y s 1177 264 m -18 Y s 1218 264 m -18 Y s 1259 283 m -37 Y s 1299
 264 m -18 Y s 1340 264 m -18 Y s 1381 264 m -18 Y s 1421 264 m -18 Y s 1462 283 m -37 Y s 1503 264 m -18 Y s 1544 264 m -18 Y s 1584 264 m -18 Y s 1625 264 m -18 Y s 1666 283 m -37 Y s 1706 264 m -18 Y s 1747 264 m -18 Y s 1788 264 m -18 Y s 1829
 264 m -18 Y s 1869 283 m -37 Y s 1910 264 m -18 Y s 1951 264 m -18 Y s 1991 264 m -18 Y s 2032 264 m -18 Y s 2073 283 m -37 Y s 444 283 m -37 Y s 404 264 m -18 Y s 363 264 m -18 Y s 2073 283 m -37 Y s 2114 264 m -18 Y s 2154 264 m -18 Y s
 gsave  2268 1538 0 0 C 423.568 179.202 t 0 r /Helvetica findfont 71.6807 sf 0 0 m (0) show NC gr 
 gsave  2268 1538 0 0 C 596.253 179.202 t 0 r /Helvetica findfont 71.6807 sf 0 0 m (0.5) show NC gr 
 gsave  2268 1538 0 0 C 837.361 179.202 t 0 r /Helvetica findfont 71.6807 sf 0 0 m (1) show NC gr 
 gsave  2268 1538 0 0 C 1003.53 179.202 t 0 r /Helvetica findfont 71.6807 sf 0 0 m (1.5) show NC gr 
 gsave  2268 1538 0 0 C 1238.12 179.202 t 0 r /Helvetica findfont 71.6807 sf 0 0 m (2) show NC gr 
 gsave  2268 1538 0 0 C 1410.81 179.202 t 0 r /Helvetica findfont 71.6807 sf 0 0 m (2.5) show NC gr 
 gsave  2268 1538 0 0 C 1645.4 179.202 t 0 r /Helvetica findfont 71.6807 sf 0 0 m (3) show NC gr 
 gsave  2268 1538 0 0 C 1818.08 179.202 t 0 r /Helvetica findfont 71.6807 sf 0 0 m (3.5) show NC gr 
 gsave  2268 1538 0 0 C 2052.67 179.202 t 0 r /Helvetica findfont 71.6807 sf 0 0 m (4) show NC gr  363 1461 m 1791 X s 444 1425 m 36 Y s 485 1443 m 18 Y s 526 1443 m 18 Y s 566 1443 m 18 Y s 607 1443 m 18 Y s 648 1425 m 36 Y s 689 1443 m 18 Y s 729
 1443 m 18 Y s 770 1443 m 18 Y s 811 1443 m 18 Y s 851 1425 m 36 Y s 892 1443 m 18 Y s 933 1443 m 18 Y s 974 1443 m 18 Y s 1014 1443 m 18 Y s 1055 1425 m 36 Y s 1096 1443 m 18 Y s 1136 1443 m 18 Y s 1177 1443 m 18 Y s 1218 1443 m 18 Y s 1259 1425 m
 36 Y s 1299 1443 m 18 Y s 1340 1443 m 18 Y s 1381 1443 m 18 Y s 1421 1443 m 18 Y s 1462 1425 m 36 Y s 1503 1443 m 18 Y s 1544 1443 m 18 Y s 1584 1443 m 18 Y s 1625 1443 m 18 Y s 1666 1425 m 36 Y s 1706 1443 m 18 Y s 1747 1443 m 18 Y s 1788 1443 m 18
 Y s 1829 1443 m 18 Y s 1869 1425 m 36 Y s 1910 1443 m 18 Y s 1951 1443 m 18 Y s 1991 1443 m 18 Y s 2032 1443 m 18 Y s 2073 1425 m 36 Y s 444 1425 m 36 Y s 404 1443 m 18 Y s 363 1443 m 18 Y s 2073 1425 m 36 Y s 2114 1443 m 18 Y s 2154 1443 m 18 Y s
 363 246 m 1215 Y s
 gsave  2268 1538 0 0 C 127.07 534.347 t 90 r /Helvetica findfont 71.6807 sf 0 0 m (Mean number of hits per chip) show NC gr  417 246 m -54 X s 390 295 m -27 X s 390 343 m -27 X s 390 392 m -27 X s 390 440 m -27 X s 417 489 m -54 X s 390 538 m -27 X
 s 390 586 m -27 X s 390 635 m -27 X s 390 683 m -27 X s 417 732 m -54 X s 390 781 m -27 X s 390 829 m -27 X s 390 878 m -27 X s 390 926 m -27 X s 417 975 m -54 X s 390 1024 m -27 X s 390 1072 m -27 X s 390 1121 m -27 X s 390 1169 m -27 X s 417 1218
 m -54 X s 390 1267 m -27 X s 390 1315 m -27 X s 390 1364 m -27 X s 390 1412 m -27 X s 417 1461 m -54 X s
 gsave  2268 1538 0 0 C 309.53 221.559 t 0 r /Helvetica findfont 71.6807 sf 0 0 m (0) show NC gr 
 gsave  2268 1538 0 0 C 270.432 465.924 t 0 r /Helvetica findfont 71.6807 sf 0 0 m (50) show NC gr 
 gsave  2268 1538 0 0 C 231.333 707.032 t 0 r /Helvetica findfont 71.6807 sf 0 0 m (100) show NC gr 
 gsave  2268 1538 0 0 C 231.333 951.398 t 0 r /Helvetica findfont 71.6807 sf 0 0 m (150) show NC gr 
 gsave  2268 1538 0 0 C 231.333 1192.51 t 0 r /Helvetica findfont 71.6807 sf 0 0 m (200) show NC gr 
 gsave  2268 1538 0 0 C 231.333 1436.87 t 0 r /Helvetica findfont 71.6807 sf 0 0 m (250) show NC gr  2154 246 m 1215 Y s 2101 246 m 53 X s 2127 295 m 27 X s 2127 343 m 27 X s 2127 392 m 27 X s 2127 440 m 27 X s 2101 489 m 53 X s 2127 538 m 27 X s
 2127 586 m 27 X s 2127 635 m 27 X s 2127 683 m 27 X s 2101 732 m 53 X s 2127 781 m 27 X s 2127 829 m 27 X s 2127 878 m 27 X s 2127 926 m 27 X s 2101 975 m 53 X s 2127 1024 m 27 X s 2127 1072 m 27 X s 2127 1121 m 27 X s 2127 1169 m 27 X s 2101 1218 m
 53 X s 2127 1267 m 27 X s 2127 1315 m 27 X s 2127 1364 m 27 X s 2127 1412 m 27 X s 2101 1461 m 53 X s 444 783 m 407 -268 d 408 -102 d 407 -49 d 407 -25 d s /w 39 def /w2 {w 2 div} def /w3 {w 3 div} def 444 783 851 515 1259 413 1666 364 2073 339 5 {
 m20} R 1 0 0 c[ 80 40 4 40] 0 sd black 1 0 0 c 444 1087 m 407 -378 d 408 -154 d 407 -83 d 407 -47 d s[  ] 0 sd 444 1087 851 709 1259 555 1666 472 2073 425 5 { m22} R[ 80 40 4 40] 0 sd black[  ] 0 sd 1 1 1 c 227 153 1587 1077 bf black
 gsave  2268 1538 0 0 C 1642.14 1176.21 t 0 r /Helvetica-Bold findfont 58.6478 sf 0 0 m (Inclined) show NC gr  1596 1192 m 40 X s 1616 1192 m20
 gsave  2268 1538 0 0 C 1642.14 1098.02 t 0 r /Helvetica-Bold findfont 58.6478 sf 0 0 m (Extended) show NC gr  1 0 0 c[ 80 40 4 40] 0 sd 1596 1115 m 40 X s[  ] 0 sd 1616 1115 m22[ 80 40 4 40] 0 sd black
 gsave  2268 1538 0 0 C 905.783 1309.8 t 0 r /Helvetica-BoldOblique findfont 71.6807 sf 0 0 m (ATLAS) show NC gr 
 gsave  2268 1538 0 0 C 1176.22 1309.8 t 0 r /Helvetica findfont 71.6807 sf 0 0 m (Simulation Internal) show NC gr 
 gsave  2268 1538 0 0 C 905.783 1231.6 t 0 r /Helvetica findfont 71.6807 sf 0 0 m (ITk, Pixel Barrel) show NC gr 
 gsave  2268 1538 0 0 C 1065.44 1153.41 t 0 r /Helvetica findfont 71.6807 sf 0 0 m (> = 200) show NC gr 
 gsave  2268 1538 0 0 C 1023.08 1153.41 t 0 r /Symbol findfont 71.6807 sf 0 0 m (m) show NC gr 
 gsave  2268 1538 0 0 C 944.882 1153.41 t 0 r /Helvetica findfont 71.6807 sf 0 0 m (, <) show NC gr 
 gsave  2268 1538 0 0 C 925.333 1153.41 t 0 r /Helvetica findfont 71.6807 sf 0 0 m (t) show NC gr [  ] 0 sd 6 lw 925 1209 m 20 X s
 gsave  2268 1538 0 0 C 905.783 1153.41 t 0 r /Helvetica findfont 71.6807 sf 0 0 m (t) show NC gr 
 gr  gr showpage
end
%%EOF
